%!PS-Adobe-3.0 EPSF-3.0
%%Creator: cairo 1.10.2 (http://cairographics.org)
%%CreationDate: Wed Feb 18 16:06:33 2015
%%Pages: 1
%%BoundingBox: 0 -1 228 183
%%DocumentData: Clean7Bit
%%LanguageLevel: 2
%%EndComments
%%BeginProlog
/cairo_eps_state save def
/dict_count countdictstack def
/op_count count 1 sub def
userdict begin
/q { gsave } bind def
/Q { grestore } bind def
/cm { 6 array astore concat } bind def
/w { setlinewidth } bind def
/J { setlinecap } bind def
/j { setlinejoin } bind def
/M { setmiterlimit } bind def
/d { setdash } bind def
/m { moveto } bind def
/l { lineto } bind def
/c { curveto } bind def
/h { closepath } bind def
/re { exch dup neg 3 1 roll 5 3 roll moveto 0 rlineto
      0 exch rlineto 0 rlineto closepath } bind def
/S { stroke } bind def
/f { fill } bind def
/f* { eofill } bind def
/n { newpath } bind def
/W { clip } bind def
/W* { eoclip } bind def
/BT { } bind def
/ET { } bind def
/pdfmark where { pop globaldict /?pdfmark /exec load put }
    { globaldict begin /?pdfmark /pop load def /pdfmark
    /cleartomark load def end } ifelse
/BDC { mark 3 1 roll /BDC pdfmark } bind def
/EMC { mark /EMC pdfmark } bind def
/cairo_store_point { /cairo_point_y exch def /cairo_point_x exch def } def
/Tj { show currentpoint cairo_store_point } bind def
/TJ {
  {
    dup
    type /stringtype eq
    { show } { -0.001 mul 0 cairo_font_matrix dtransform rmoveto } ifelse
  } forall
  currentpoint cairo_store_point
} bind def
/cairo_selectfont { cairo_font_matrix aload pop pop pop 0 0 6 array astore
    cairo_font exch selectfont cairo_point_x cairo_point_y moveto } bind def
/Tf { pop /cairo_font exch def /cairo_font_matrix where
      { pop cairo_selectfont } if } bind def
/Td { matrix translate cairo_font_matrix matrix concatmatrix dup
      /cairo_font_matrix exch def dup 4 get exch 5 get cairo_store_point
      /cairo_font where { pop cairo_selectfont } if } bind def
/Tm { 2 copy 8 2 roll 6 array astore /cairo_font_matrix exch def
      cairo_store_point /cairo_font where { pop cairo_selectfont } if } bind def
/g { setgray } bind def
/rg { setrgbcolor } bind def
/d1 { setcachedevice } bind def
%%EndProlog
%%Page: 1 1
%%BeginPageSetup
%%PageBoundingBox: 0 -1 228 183
%%EndPageSetup
q 0 -1 228 184 rectclip q
0 182.798 228 -183 re W n
0 g
5.754 94.712 m 222.246 94.712 l 225.426 94.712 228 97.291 228 100.459 c 
228 103.638 225.426 106.212 222.246 106.212 c 5.754 106.212 l 2.574 
106.212 0 103.638 0 100.459 c 0 97.291 2.574 94.712 5.754 94.712 c h
5.754 94.712 m f
10.312 15.701 m 2.562 10.541 l -0.082 8.775 -0.793 5.209 0.969 2.56 c 
2.082 0.9 3.898 0.002 5.762 0.002 c 6.859 0.002 7.969 0.314 8.938 0.97 
c 19.055 7.709 l 15.812 10.009 12.879 12.685 10.312 15.701 c h
10.312 15.701 m f
217.688 15.697 m 215.113 12.681 212.188 10.005 208.945 7.709 c 219.062 
0.97 l 220.031 0.314 221.141 0.002 222.238 0.002 c 224.102 0.002 
225.922 0.9 227.027 2.56 c 228.789 5.212 228.082 8.779 225.434 10.544 c 
h
217.688 15.697 m f
221.234 46.334 m 221.234 80.162 l 221.234 83.341 218.664 85.916 215.492 
85.916 c 12.512 85.916 l 9.336 85.916 6.766 83.341 6.766 80.162 c 6.766 
46.334 l 6.766 24.517 24.516 6.767 46.348 6.767 c 181.652 6.767 l 
203.484 6.767 221.234 24.517 221.234 46.334 c h
221.234 46.334 m f
149.043 167.74 m 180.707 159.248 l 211.152 116.877 l 195.441 116.877 l 
193.848 116.877 192.57 115.587 192.57 114.002 c 192.57 112.416 193.852 
111.123 195.441 111.123 c 216.754 111.123 l 217.836 111.123 218.828 
111.736 219.312 112.689 c 219.797 113.65 219.723 114.798 219.094 
115.677 c 185.461 162.502 l 185.961 165.767 185.359 169.193 183.566 
172.306 c 180.902 176.919 176.09 180.451 170.355 181.978 c 168.336 
182.513 166.281 182.798 164.23 182.798 c 155.773 182.798 148.852 
178.154 147 171.255 c 146.598 169.724 147.508 168.142 149.043 167.74 c 
h
149.043 167.74 m f
Q Q
showpage
%%Trailer
count op_count sub {pop} repeat
countdictstack dict_count sub {end} repeat
cairo_eps_state restore
%%EOF
