%!PS-Adobe-3.0 EPSF-3.0
%%Creator: cairo 1.10.2 (http://cairographics.org)
%%CreationDate: Wed Feb 18 16:06:00 2015
%%Pages: 1
%%BoundingBox: 0 -1 228 182
%%DocumentData: Clean7Bit
%%LanguageLevel: 2
%%EndComments
%%BeginProlog
/cairo_eps_state save def
/dict_count countdictstack def
/op_count count 1 sub def
userdict begin
/q { gsave } bind def
/Q { grestore } bind def
/cm { 6 array astore concat } bind def
/w { setlinewidth } bind def
/J { setlinecap } bind def
/j { setlinejoin } bind def
/M { setmiterlimit } bind def
/d { setdash } bind def
/m { moveto } bind def
/l { lineto } bind def
/c { curveto } bind def
/h { closepath } bind def
/re { exch dup neg 3 1 roll 5 3 roll moveto 0 rlineto
      0 exch rlineto 0 rlineto closepath } bind def
/S { stroke } bind def
/f { fill } bind def
/f* { eofill } bind def
/n { newpath } bind def
/W { clip } bind def
/W* { eoclip } bind def
/BT { } bind def
/ET { } bind def
/pdfmark where { pop globaldict /?pdfmark /exec load put }
    { globaldict begin /?pdfmark /pop load def /pdfmark
    /cleartomark load def end } ifelse
/BDC { mark 3 1 roll /BDC pdfmark } bind def
/EMC { mark /EMC pdfmark } bind def
/cairo_store_point { /cairo_point_y exch def /cairo_point_x exch def } def
/Tj { show currentpoint cairo_store_point } bind def
/TJ {
  {
    dup
    type /stringtype eq
    { show } { -0.001 mul 0 cairo_font_matrix dtransform rmoveto } ifelse
  } forall
  currentpoint cairo_store_point
} bind def
/cairo_selectfont { cairo_font_matrix aload pop pop pop 0 0 6 array astore
    cairo_font exch selectfont cairo_point_x cairo_point_y moveto } bind def
/Tf { pop /cairo_font exch def /cairo_font_matrix where
      { pop cairo_selectfont } if } bind def
/Td { matrix translate cairo_font_matrix matrix concatmatrix dup
      /cairo_font_matrix exch def dup 4 get exch 5 get cairo_store_point
      /cairo_font where { pop cairo_selectfont } if } bind def
/Tm { 2 copy 8 2 roll 6 array astore /cairo_font_matrix exch def
      cairo_store_point /cairo_font where { pop cairo_selectfont } if } bind def
/g { setgray } bind def
/rg { setrgbcolor } bind def
/d1 { setcachedevice } bind def
%%EndProlog
%%Page: 1 1
%%BeginPageSetup
%%PageBoundingBox: 0 -1 228 182
%%EndPageSetup
q 0 -1 228 183 rectclip q
0 181.36 228 -182 re W n
0 g
217.637 181.36 m 10.363 181.36 l 4.637 181.36 0 176.723 0 171.001 c 0 
41.458 l 0 35.727 4.637 31.098 10.363 31.098 c 103.637 31.098 l 103.637 
20.731 l 49.227 20.731 l 43.504 20.731 38.863 16.087 38.863 10.372 c 
38.863 4.637 43.504 0.001 49.227 0.001 c 178.773 0.001 l 184.496 0.001 
189.137 4.637 189.137 10.372 c 189.137 16.087 184.496 20.731 178.773 
20.731 c 124.363 20.731 l 124.363 31.098 l 217.637 31.098 l 223.363 
31.098 228 35.727 228 41.458 c 228 171.001 l 228 176.723 223.363 181.36 
217.637 181.36 c h
207.273 51.825 m 20.727 51.825 l 20.727 160.637 l 207.273 160.637 l h
207.273 51.825 m f
147.152 91.442 m 147.473 91.309 147.809 91.243 148.145 91.243 c 148.848 
91.243 149.539 91.532 150.039 92.071 c 154.141 96.473 l 160.758 78.309 
l 161.141 77.251 162.137 76.59 163.191 76.59 c 163.484 76.59 163.785 
76.645 164.078 76.758 c 165.426 77.239 166.117 78.735 165.625 80.079 c 
159.012 98.243 l 164.988 97.512 l 166.062 97.348 167.105 97.926 167.602 
98.883 c 168.102 99.848 167.953 101.016 167.227 101.817 c 150.938 
119.883 l 150.234 120.665 149.113 120.942 148.125 120.579 c 147.133 
120.223 146.461 119.29 146.426 118.239 c 145.559 93.926 l 145.516 
92.848 146.152 91.852 147.152 91.442 c h
147.152 91.442 m f
44.477 106.141 m 76.414 133.614 l 108.363 106.141 l 109 105.587 109.793 
105.313 110.59 105.313 c 111.547 105.313 112.5 105.715 113.172 106.508 
c 114.402 107.934 114.242 110.094 112.812 111.329 c 78.645 140.704 l 
77.363 141.805 75.473 141.805 74.188 140.704 c 40.023 111.329 l 38.59 
110.094 38.434 107.934 39.66 106.508 c 40.891 105.059 43.047 104.903 
44.477 106.141 c h
44.477 106.141 m f
77.906 129.251 m 77.051 129.981 75.781 129.981 74.93 129.251 c 49.188 
107.032 l 48.688 106.602 48.387 105.973 48.387 105.313 c 48.387 73.2 l 
48.387 71.942 49.422 70.919 50.664 70.919 c 102.156 70.919 l 103.418 
70.919 104.438 71.942 104.438 73.2 c 104.438 105.313 l 104.438 105.973 
104.148 106.602 103.656 107.032 c h
74.137 80.993 m 74.137 79.735 73.121 78.712 71.859 78.712 c 63.895 
78.712 l 62.633 78.712 61.617 79.735 61.617 80.993 c 61.617 88.962 l 
61.617 90.239 62.633 91.255 63.895 91.255 c 71.859 91.255 l 73.121 
91.255 74.137 90.239 74.137 88.962 c h
74.137 98.079 m 74.137 96.825 73.121 95.801 71.859 95.801 c 63.895 
95.801 l 62.633 95.801 61.617 96.825 61.617 98.079 c 61.617 106.063 l 
61.617 107.321 62.633 108.337 63.895 108.337 c 71.859 108.337 l 73.121 
108.337 74.137 107.321 74.137 106.063 c h
91.227 80.993 m 91.227 79.735 90.207 78.712 88.945 78.712 c 80.973 
78.712 l 79.723 78.712 78.695 79.735 78.695 80.993 c 78.695 88.962 l 
78.695 90.239 79.723 91.255 80.973 91.255 c 88.945 91.255 l 90.207 
91.255 91.227 90.239 91.227 88.962 c h
91.227 98.079 m 91.227 96.825 90.207 95.801 88.945 95.801 c 80.973 
95.801 l 79.723 95.801 78.695 96.825 78.695 98.079 c 78.695 106.063 l 
78.695 107.321 79.723 108.337 80.973 108.337 c 88.945 108.337 l 90.207 
108.337 91.227 107.321 91.227 106.063 c h
91.227 98.079 m f
Q Q
showpage
%%Trailer
count op_count sub {pop} repeat
countdictstack dict_count sub {end} repeat
cairo_eps_state restore
%%EOF
