%!PS-Adobe-3.0 EPSF-3.0
%%Creator: cairo 1.10.2 (http://cairographics.org)
%%CreationDate: Wed Feb 25 11:07:54 2015
%%Pages: 1
%%BoundingBox: 0 0 216 228
%%DocumentData: Clean7Bit
%%LanguageLevel: 2
%%EndComments
%%BeginProlog
/cairo_eps_state save def
/dict_count countdictstack def
/op_count count 1 sub def
userdict begin
/q { gsave } bind def
/Q { grestore } bind def
/cm { 6 array astore concat } bind def
/w { setlinewidth } bind def
/J { setlinecap } bind def
/j { setlinejoin } bind def
/M { setmiterlimit } bind def
/d { setdash } bind def
/m { moveto } bind def
/l { lineto } bind def
/c { curveto } bind def
/h { closepath } bind def
/re { exch dup neg 3 1 roll 5 3 roll moveto 0 rlineto
      0 exch rlineto 0 rlineto closepath } bind def
/S { stroke } bind def
/f { fill } bind def
/f* { eofill } bind def
/n { newpath } bind def
/W { clip } bind def
/W* { eoclip } bind def
/BT { } bind def
/ET { } bind def
/pdfmark where { pop globaldict /?pdfmark /exec load put }
    { globaldict begin /?pdfmark /pop load def /pdfmark
    /cleartomark load def end } ifelse
/BDC { mark 3 1 roll /BDC pdfmark } bind def
/EMC { mark /EMC pdfmark } bind def
/cairo_store_point { /cairo_point_y exch def /cairo_point_x exch def } def
/Tj { show currentpoint cairo_store_point } bind def
/TJ {
  {
    dup
    type /stringtype eq
    { show } { -0.001 mul 0 cairo_font_matrix dtransform rmoveto } ifelse
  } forall
  currentpoint cairo_store_point
} bind def
/cairo_selectfont { cairo_font_matrix aload pop pop pop 0 0 6 array astore
    cairo_font exch selectfont cairo_point_x cairo_point_y moveto } bind def
/Tf { pop /cairo_font exch def /cairo_font_matrix where
      { pop cairo_selectfont } if } bind def
/Td { matrix translate cairo_font_matrix matrix concatmatrix dup
      /cairo_font_matrix exch def dup 4 get exch 5 get cairo_store_point
      /cairo_font where { pop cairo_selectfont } if } bind def
/Tm { 2 copy 8 2 roll 6 array astore /cairo_font_matrix exch def
      cairo_store_point /cairo_font where { pop cairo_selectfont } if } bind def
/g { setgray } bind def
/rg { setrgbcolor } bind def
/d1 { setcachedevice } bind def
%%EndProlog
%%Page: 1 1
%%BeginPageSetup
%%PageBoundingBox: 0 0 216 228
%%EndPageSetup
q 0 0 216 228 rectclip q
0 g
33.262 157.578 m 59.844 157.578 l 61.379 157.578 62.625 158.809 62.625 
160.348 c 62.625 161.887 61.379 163.137 59.844 163.137 c 40.57 163.137 
l 103.418 219.031 l 103.418 198.664 l 103.418 197.125 104.664 195.895 
106.199 195.895 c 107.742 195.895 108.98 197.125 108.98 198.664 c 
108.98 225.23 l 108.98 226.746 107.742 228 106.199 228 c 79.605 228 l 
78.062 228 76.828 226.75 76.828 225.23 c 76.828 223.691 78.062 222.438 
79.605 222.438 c 98.883 222.438 l 36.039 166.547 l 36.039 186.902 l 
36.039 188.441 34.789 189.691 33.262 189.691 c 31.723 189.691 30.48 
188.441 30.48 186.902 c 30.48 160.348 l 30.48 158.809 31.723 157.578 
33.262 157.578 c h
33.262 157.578 m f
213.113 136.254 m 137.867 200.934 l 134.742 203.637 130.125 203.637 127 
200.934 c 51.762 136.254 l 48.262 133.242 47.871 127.988 50.875 124.488 
c 52.523 122.559 54.859 121.586 57.203 121.586 c 59.121 121.586 61.059 
122.246 62.633 123.598 c 132.43 183.621 l 202.23 123.598 l 205.73 
120.605 210.996 120.98 213.996 124.488 c 217 127.988 216.602 133.242 
213.113 136.254 c h
213.113 136.254 m f
189.125 48.891 m 190.652 48.891 191.906 50.121 191.906 51.66 c 191.906 
122.398 l 191.906 123.191 191.543 123.969 190.938 124.496 c 134.254 
173.418 l 133.203 174.32 131.656 174.32 130.617 173.418 c 73.934 
124.496 l 73.312 123.969 72.969 123.191 72.969 122.398 c 72.969 51.66 l 
72.969 50.121 74.203 48.891 75.75 48.891 c h
138.289 124.043 m 138.289 126.34 140.16 128.223 142.457 128.223 c 
160.023 128.223 l 162.328 128.223 164.199 126.34 164.199 124.043 c 
164.199 106.461 l 164.199 104.164 162.328 102.285 160.023 102.285 c 
142.457 102.285 l 140.16 102.285 138.289 104.164 138.289 106.461 c h
138.289 86.41 m 138.289 88.707 140.16 90.586 142.457 90.586 c 160.023 
90.586 l 162.328 90.586 164.199 88.707 164.199 86.41 c 164.199 68.84 l 
164.199 66.543 162.328 64.664 160.023 64.664 c 142.457 64.664 l 140.16 
64.664 138.289 66.543 138.289 68.84 c h
100.664 124.043 m 100.664 126.34 102.535 128.223 104.84 128.223 c 
122.402 128.223 l 124.707 128.223 126.578 126.34 126.578 124.043 c 
126.578 106.461 l 126.578 104.164 124.707 102.285 122.402 102.285 c 
104.84 102.285 l 102.535 102.285 100.664 104.164 100.664 106.461 c h
100.664 86.41 m 100.664 88.707 102.535 90.586 104.84 90.586 c 122.402 
90.586 l 124.707 90.586 126.578 88.707 126.578 86.41 c 126.578 68.84 l 
126.578 66.543 124.707 64.664 122.402 64.664 c 104.84 64.664 l 102.535 
64.664 100.664 66.543 100.664 68.84 c h
100.664 86.41 m f
186.266 42.324 m 185.176 43.414 183.414 43.414 182.336 42.324 c 181.246 
41.234 181.246 39.473 182.336 38.387 c 196.379 24.332 l 68.496 24.332 l 
82.535 38.387 l 83.625 39.473 83.625 41.234 82.535 42.324 c 81.449 
43.414 79.695 43.414 78.609 42.324 c 59.805 23.523 l 59.281 22.988 
58.996 22.285 58.996 21.555 c 58.996 20.801 59.281 20.098 59.805 19.582 
c 78.59 0.82 l 79.133 0.266 79.836 0 80.547 0 c 81.262 0 81.973 0.266 
82.516 0.82 c 83.605 1.91 83.605 3.652 82.516 4.738 c 68.473 18.773 l 
196.398 18.773 l 182.355 4.738 l 181.266 3.652 181.266 1.91 182.355 
0.82 c 182.898 0.266 183.613 0 184.312 0 c 185.035 0 185.738 0.266 
186.281 0.82 c 205.066 19.582 l 205.578 20.098 205.875 20.801 205.875 
21.555 c 205.875 22.285 205.578 22.988 205.066 23.523 c h
186.266 42.324 m f
38.402 110.246 m 39.48 109.156 41.242 109.156 42.332 110.246 c 43.418 
111.332 43.418 113.094 42.332 114.184 c 23.547 132.953 l 22.469 134.039 
20.707 134.039 19.617 132.953 c 0.816 114.16 l -0.27 113.07 -0.27 
111.309 0.816 110.219 c 1.363 109.688 2.07 109.398 2.785 109.398 c 
3.496 109.398 4.211 109.688 4.746 110.219 c 18.797 124.262 l 18.797 
44.535 l 4.746 58.586 l 3.668 59.672 1.906 59.672 0.816 58.586 c -0.273 
57.496 -0.273 55.734 0.816 54.645 c 19.617 35.848 l 20.145 35.332 
20.844 35.027 21.586 35.027 c 22.32 35.027 23.031 35.336 23.547 35.848 
c 42.328 54.621 l 43.418 55.711 43.418 57.473 42.328 58.559 c 41.242 
59.648 39.48 59.648 38.402 58.559 c 24.359 44.516 l 24.359 124.281 l h
38.402 110.246 m f
Q Q
showpage
%%Trailer
count op_count sub {pop} repeat
countdictstack dict_count sub {end} repeat
cairo_eps_state restore
%%EOF
