%!PS-Adobe-3.0 EPSF-3.0
%%Creator: cairo 1.10.2 (http://cairographics.org)
%%CreationDate: Wed Feb 18 16:06:22 2015
%%Pages: 1
%%BoundingBox: 0 -1 228 213
%%DocumentData: Clean7Bit
%%LanguageLevel: 2
%%EndComments
%%BeginProlog
/cairo_eps_state save def
/dict_count countdictstack def
/op_count count 1 sub def
userdict begin
/q { gsave } bind def
/Q { grestore } bind def
/cm { 6 array astore concat } bind def
/w { setlinewidth } bind def
/J { setlinecap } bind def
/j { setlinejoin } bind def
/M { setmiterlimit } bind def
/d { setdash } bind def
/m { moveto } bind def
/l { lineto } bind def
/c { curveto } bind def
/h { closepath } bind def
/re { exch dup neg 3 1 roll 5 3 roll moveto 0 rlineto
      0 exch rlineto 0 rlineto closepath } bind def
/S { stroke } bind def
/f { fill } bind def
/f* { eofill } bind def
/n { newpath } bind def
/W { clip } bind def
/W* { eoclip } bind def
/BT { } bind def
/ET { } bind def
/pdfmark where { pop globaldict /?pdfmark /exec load put }
    { globaldict begin /?pdfmark /pop load def /pdfmark
    /cleartomark load def end } ifelse
/BDC { mark 3 1 roll /BDC pdfmark } bind def
/EMC { mark /EMC pdfmark } bind def
/cairo_store_point { /cairo_point_y exch def /cairo_point_x exch def } def
/Tj { show currentpoint cairo_store_point } bind def
/TJ {
  {
    dup
    type /stringtype eq
    { show } { -0.001 mul 0 cairo_font_matrix dtransform rmoveto } ifelse
  } forall
  currentpoint cairo_store_point
} bind def
/cairo_selectfont { cairo_font_matrix aload pop pop pop 0 0 6 array astore
    cairo_font exch selectfont cairo_point_x cairo_point_y moveto } bind def
/Tf { pop /cairo_font exch def /cairo_font_matrix where
      { pop cairo_selectfont } if } bind def
/Td { matrix translate cairo_font_matrix matrix concatmatrix dup
      /cairo_font_matrix exch def dup 4 get exch 5 get cairo_store_point
      /cairo_font where { pop cairo_selectfont } if } bind def
/Tm { 2 copy 8 2 roll 6 array astore /cairo_font_matrix exch def
      cairo_store_point /cairo_font where { pop cairo_selectfont } if } bind def
/g { setgray } bind def
/rg { setrgbcolor } bind def
/d1 { setcachedevice } bind def
%%EndProlog
%%Page: 1 1
%%BeginPageSetup
%%PageBoundingBox: 0 -1 228 213
%%EndPageSetup
q 0 -1 228 214 rectclip q
0 212.453 229 -213 re W n
0 g
224.395 120.828 m 120.758 209.949 l 116.871 213.289 111.129 213.289 
107.242 209.949 c 3.605 120.828 l -0.73 117.094 -1.227 110.551 2.504 
106.211 c 6.238 101.875 12.785 101.379 17.121 105.109 c 114 188.426 l 
210.879 105.109 l 212.836 103.426 215.242 102.601 217.629 102.601 c 
220.543 102.601 223.449 103.824 225.496 106.211 c 229.227 110.551 
228.73 117.094 224.395 120.828 c h
224.395 120.828 m f
151.367 95.437 m 76.633 95.437 l 64.91 62.609 l 163.09 62.609 l h
151.367 95.437 m f
167.98 41.867 m 142.066 41.867 l 140.871 41.867 139.906 40.914 139.906 
39.711 c 139.906 31.98 l 139.906 30.785 140.871 29.812 142.066 29.812 c 
167.98 29.812 l 169.168 29.812 170.141 30.785 170.141 31.98 c 170.141 
39.711 l 170.141 40.914 169.168 41.867 167.98 41.867 c h
167.98 41.867 m f
98.891 39.078 m 97.691 39.078 96.727 38.121 96.727 36.926 c 96.727 
34.766 l 96.727 33.574 97.691 32.601 98.891 32.601 c 129.109 32.601 l 
130.309 32.601 131.273 33.574 131.273 34.766 c 131.273 36.926 l 131.273 
38.121 130.309 39.078 129.109 39.078 c h
98.891 39.078 m f
88.094 31.98 m 88.094 39.711 l 88.094 40.914 87.129 41.867 85.934 
41.867 c 60.02 41.867 l 58.832 41.867 57.859 40.914 57.859 39.711 c 
57.859 31.98 l 57.859 30.785 58.832 29.812 60.02 29.812 c 85.934 29.812 
l 87.129 29.816 88.094 30.785 88.094 31.98 c h
88.094 31.98 m f
117.383 173.891 m 115.434 175.566 112.566 175.566 110.617 173.891 c 
32.52 106.527 l 31.375 105.543 30.727 104.113 30.727 102.601 c 30.727 
5.183 l 30.727 2.32 33.043 -0 35.902 -0 c 47.5 -0 l 47.5 16.641 l 
45.352 19.625 44.047 23.25 44.047 27.203 c 44.047 44.476 l 44.047 
51.105 47.66 56.855 52.984 60.016 c 68.102 102.359 l 68.836 104.422 
70.789 105.797 72.984 105.797 c 155.02 105.797 l 157.211 105.797 
159.164 104.422 159.898 102.359 c 175.02 60.016 l 180.34 56.855 183.953 
51.105 183.953 44.476 c 183.953 27.203 l 183.953 23.25 182.648 19.625 
180.5 16.641 c 180.5 -0 l 192.098 -0 l 194.957 -0 197.273 2.316 197.273 
5.183 c 197.273 102.601 l 197.273 104.113 196.625 105.547 195.484 
106.531 c h
117.383 173.891 m f
72.547 9.07 82.906 -9.07 re f
Q Q
showpage
%%Trailer
count op_count sub {pop} repeat
countdictstack dict_count sub {end} repeat
cairo_eps_state restore
%%EOF
