%!PS-Adobe-3.0 EPSF-3.0
%%Creator: cairo 1.10.2 (http://cairographics.org)
%%CreationDate: Mon Feb 23 17:31:35 2015
%%Pages: 1
%%BoundingBox: 0 -1 228 213
%%DocumentData: Clean7Bit
%%LanguageLevel: 2
%%EndComments
%%BeginProlog
/cairo_eps_state save def
/dict_count countdictstack def
/op_count count 1 sub def
userdict begin
/q { gsave } bind def
/Q { grestore } bind def
/cm { 6 array astore concat } bind def
/w { setlinewidth } bind def
/J { setlinecap } bind def
/j { setlinejoin } bind def
/M { setmiterlimit } bind def
/d { setdash } bind def
/m { moveto } bind def
/l { lineto } bind def
/c { curveto } bind def
/h { closepath } bind def
/re { exch dup neg 3 1 roll 5 3 roll moveto 0 rlineto
      0 exch rlineto 0 rlineto closepath } bind def
/S { stroke } bind def
/f { fill } bind def
/f* { eofill } bind def
/n { newpath } bind def
/W { clip } bind def
/W* { eoclip } bind def
/BT { } bind def
/ET { } bind def
/pdfmark where { pop globaldict /?pdfmark /exec load put }
    { globaldict begin /?pdfmark /pop load def /pdfmark
    /cleartomark load def end } ifelse
/BDC { mark 3 1 roll /BDC pdfmark } bind def
/EMC { mark /EMC pdfmark } bind def
/cairo_store_point { /cairo_point_y exch def /cairo_point_x exch def } def
/Tj { show currentpoint cairo_store_point } bind def
/TJ {
  {
    dup
    type /stringtype eq
    { show } { -0.001 mul 0 cairo_font_matrix dtransform rmoveto } ifelse
  } forall
  currentpoint cairo_store_point
} bind def
/cairo_selectfont { cairo_font_matrix aload pop pop pop 0 0 6 array astore
    cairo_font exch selectfont cairo_point_x cairo_point_y moveto } bind def
/Tf { pop /cairo_font exch def /cairo_font_matrix where
      { pop cairo_selectfont } if } bind def
/Td { matrix translate cairo_font_matrix matrix concatmatrix dup
      /cairo_font_matrix exch def dup 4 get exch 5 get cairo_store_point
      /cairo_font where { pop cairo_selectfont } if } bind def
/Tm { 2 copy 8 2 roll 6 array astore /cairo_font_matrix exch def
      cairo_store_point /cairo_font where { pop cairo_selectfont } if } bind def
/g { setgray } bind def
/rg { setrgbcolor } bind def
/d1 { setcachedevice } bind def
%%EndProlog
%%Page: 1 1
%%BeginPageSetup
%%PageBoundingBox: 0 -1 228 213
%%EndPageSetup
q 0 -1 228 214 rectclip q
0 212.459 229 -213 re W n
0 g
123.168 33.51 m 122.527 37.897 118.777 41.291 114.191 41.291 c 70.473 
41.291 l 65.902 41.291 62.152 37.905 61.504 33.51 c 56.871 32.053 
53.473 27.768 53.473 22.647 c 53.473 19.44 l 131.199 19.44 l 131.199 
22.647 l 131.199 27.768 127.812 32.049 123.168 33.51 c h
123.168 33.51 m f
131.305 84.592 m 131.352 84.737 131.438 84.897 131.473 85.037 c 134.496 
95.615 l 135.613 99.498 133.742 104.123 130.238 106.139 c 116.484 
114.092 l 113.098 116.049 107.926 115.307 105.234 112.514 c 97.59 104.6 
l 95.312 102.252 92.828 97.951 91.934 94.807 c 88.91 84.229 l 87.797 
80.346 89.656 75.725 93.164 73.705 c 106.922 65.764 l 108.23 65.002 
109.785 64.6 111.418 64.6 c 113.996 64.6 116.523 65.619 118.164 67.338 
c 125.82 75.244 l 125.922 75.354 126.023 75.502 126.129 75.615 c 
144.516 64.998 l 144.961 62.92 146.211 61.018 148.203 59.877 c 170.641 
46.924 l 171.867 46.217 173.203 45.877 174.523 45.877 c 177.207 45.877 
179.824 47.268 181.258 49.768 c 183.402 53.483 182.137 58.237 178.418 
60.381 c 155.973 73.338 l 153.988 74.483 151.719 74.631 149.699 73.975 
c h
131.305 84.592 m f
109.297 127.213 m 107.863 124.733 108.715 121.569 111.195 120.139 c 
138.121 104.588 l 138.934 104.115 139.824 103.893 140.707 103.893 c 
142.496 103.893 144.238 104.822 145.199 106.487 c 146.629 108.971 
145.777 112.131 143.297 113.569 c 116.371 129.115 l 113.898 130.537 
110.73 129.697 109.297 127.213 c h
109.297 127.213 m f
80.102 66.283 m 107.023 50.737 l 107.844 50.268 108.734 50.045 109.617 
50.045 c 111.406 50.045 113.145 50.975 114.109 52.635 c 115.539 55.115 
114.688 58.28 112.207 59.713 c 85.281 75.26 l 82.809 76.694 79.633 
75.842 78.203 73.365 c 76.773 70.885 77.617 67.713 80.102 66.283 c h
80.102 66.283 m f
117.383 173.893 m 115.445 175.569 112.555 175.569 110.617 173.893 c 
32.516 106.53 l 31.379 105.545 30.719 104.115 30.719 102.604 c 30.719 
5.182 l 30.719 2.315 33.039 -0.002 35.906 -0.002 c 192.094 -0.002 l 
194.957 -0.002 197.277 2.315 197.277 5.182 c 197.277 102.604 l 197.277 
104.115 196.621 105.545 195.484 106.53 c h
186.914 10.365 m 41.086 10.365 l 41.086 100.233 l 114 163.127 l 186.914 
100.233 l h
186.914 10.365 m f
224.395 120.826 m 120.758 209.955 l 116.871 213.295 111.133 213.295 
107.242 209.955 c 3.605 120.826 l -0.734 117.096 -1.223 110.553 2.504 
106.213 c 6.238 101.881 12.789 101.385 17.117 105.112 c 114 188.424 l 
210.883 105.112 l 212.836 103.432 215.242 102.6 217.633 102.6 c 220.547 
102.6 223.445 103.83 225.5 106.213 c 229.223 110.553 228.734 117.096 
224.395 120.826 c h
224.395 120.826 m f
Q Q
showpage
%%Trailer
count op_count sub {pop} repeat
countdictstack dict_count sub {end} repeat
cairo_eps_state restore
%%EOF
