%!PS-Adobe-3.0 EPSF-3.0
%%Creator: cairo 1.10.2 (http://cairographics.org)
%%CreationDate: Mon Feb 23 17:31:35 2015
%%Pages: 1
%%BoundingBox: 0 -1 228 213
%%DocumentData: Clean7Bit
%%LanguageLevel: 2
%%EndComments
%%BeginProlog
/cairo_eps_state save def
/dict_count countdictstack def
/op_count count 1 sub def
userdict begin
/q { gsave } bind def
/Q { grestore } bind def
/cm { 6 array astore concat } bind def
/w { setlinewidth } bind def
/J { setlinecap } bind def
/j { setlinejoin } bind def
/M { setmiterlimit } bind def
/d { setdash } bind def
/m { moveto } bind def
/l { lineto } bind def
/c { curveto } bind def
/h { closepath } bind def
/re { exch dup neg 3 1 roll 5 3 roll moveto 0 rlineto
      0 exch rlineto 0 rlineto closepath } bind def
/S { stroke } bind def
/f { fill } bind def
/f* { eofill } bind def
/n { newpath } bind def
/W { clip } bind def
/W* { eoclip } bind def
/BT { } bind def
/ET { } bind def
/pdfmark where { pop globaldict /?pdfmark /exec load put }
    { globaldict begin /?pdfmark /pop load def /pdfmark
    /cleartomark load def end } ifelse
/BDC { mark 3 1 roll /BDC pdfmark } bind def
/EMC { mark /EMC pdfmark } bind def
/cairo_store_point { /cairo_point_y exch def /cairo_point_x exch def } def
/Tj { show currentpoint cairo_store_point } bind def
/TJ {
  {
    dup
    type /stringtype eq
    { show } { -0.001 mul 0 cairo_font_matrix dtransform rmoveto } ifelse
  } forall
  currentpoint cairo_store_point
} bind def
/cairo_selectfont { cairo_font_matrix aload pop pop pop 0 0 6 array astore
    cairo_font exch selectfont cairo_point_x cairo_point_y moveto } bind def
/Tf { pop /cairo_font exch def /cairo_font_matrix where
      { pop cairo_selectfont } if } bind def
/Td { matrix translate cairo_font_matrix matrix concatmatrix dup
      /cairo_font_matrix exch def dup 4 get exch 5 get cairo_store_point
      /cairo_font where { pop cairo_selectfont } if } bind def
/Tm { 2 copy 8 2 roll 6 array astore /cairo_font_matrix exch def
      cairo_store_point /cairo_font where { pop cairo_selectfont } if } bind def
/g { setgray } bind def
/rg { setrgbcolor } bind def
/d1 { setcachedevice } bind def
%%EndProlog
%%Page: 1 1
%%BeginPageSetup
%%PageBoundingBox: 0 -1 228 213
%%EndPageSetup
q 0 -1 228 214 rectclip q
0 212.449 229 -213 re W n
0 g
117.387 173.891 m 115.438 175.57 112.562 175.57 110.613 173.891 c 
32.516 106.527 l 31.375 105.543 30.723 104.109 30.723 102.602 c 30.723 
5.187 l 30.723 2.316 33.043 -0 35.906 -0 c 192.094 -0 l 194.957 -0 
197.277 2.316 197.277 5.187 c 197.277 102.602 l 197.277 104.109 196.621 
105.543 195.48 106.527 c h
186.914 10.359 m 103.707 10.359 l 116.18 32.145 123.801 81.68 124.062 
106.621 c 133.426 89.309 132.328 55.984 120.426 32.719 c 119.938 31.75 
120.094 30.59 120.832 29.785 c 121.566 28.988 122.723 28.742 123.723 
29.141 c 131.883 32.504 147.078 38.754 153.77 59.559 c 163.227 88.973 
145.25 122.711 113.699 134.766 c 113.039 135.027 112.297 134.988 111.66 
134.687 c 111.02 134.387 110.531 133.832 110.309 133.16 c 106.066 
120.234 97.734 110.969 89.676 101.996 c 80.289 91.551 71.426 81.691 
71.75 67.945 c 72.129 51.801 84.59 35.703 96.676 26.988 c 97.355 26.238 
98.988 21.09 95.785 10.363 c 41.086 10.363 l 41.086 100.23 l 114 
163.129 l 186.914 100.23 l h
186.914 10.359 m f
224.391 120.824 m 120.754 209.945 l 116.871 213.285 111.125 213.285 
107.242 209.945 c 3.605 120.824 l -0.73 117.094 -1.227 110.551 2.508 
106.211 c 6.242 101.871 12.785 101.379 17.121 105.109 c 114 188.422 l 
210.879 105.109 l 212.84 103.43 215.238 102.598 217.629 102.598 c 
220.547 102.598 223.445 103.828 225.496 106.211 c 229.227 110.551 
228.73 117.094 224.391 120.824 c h
224.391 120.824 m f
Q Q
showpage
%%Trailer
count op_count sub {pop} repeat
countdictstack dict_count sub {end} repeat
cairo_eps_state restore
%%EOF
