%!PS-Adobe-3.0 EPSF-3.0
%%Creator: cairo 1.10.2 (http://cairographics.org)
%%CreationDate: Mon Feb 23 17:31:41 2015
%%Pages: 1
%%BoundingBox: 0 -1 228 201
%%DocumentData: Clean7Bit
%%LanguageLevel: 2
%%EndComments
%%BeginProlog
/cairo_eps_state save def
/dict_count countdictstack def
/op_count count 1 sub def
userdict begin
/q { gsave } bind def
/Q { grestore } bind def
/cm { 6 array astore concat } bind def
/w { setlinewidth } bind def
/J { setlinecap } bind def
/j { setlinejoin } bind def
/M { setmiterlimit } bind def
/d { setdash } bind def
/m { moveto } bind def
/l { lineto } bind def
/c { curveto } bind def
/h { closepath } bind def
/re { exch dup neg 3 1 roll 5 3 roll moveto 0 rlineto
      0 exch rlineto 0 rlineto closepath } bind def
/S { stroke } bind def
/f { fill } bind def
/f* { eofill } bind def
/n { newpath } bind def
/W { clip } bind def
/W* { eoclip } bind def
/BT { } bind def
/ET { } bind def
/pdfmark where { pop globaldict /?pdfmark /exec load put }
    { globaldict begin /?pdfmark /pop load def /pdfmark
    /cleartomark load def end } ifelse
/BDC { mark 3 1 roll /BDC pdfmark } bind def
/EMC { mark /EMC pdfmark } bind def
/cairo_store_point { /cairo_point_y exch def /cairo_point_x exch def } def
/Tj { show currentpoint cairo_store_point } bind def
/TJ {
  {
    dup
    type /stringtype eq
    { show } { -0.001 mul 0 cairo_font_matrix dtransform rmoveto } ifelse
  } forall
  currentpoint cairo_store_point
} bind def
/cairo_selectfont { cairo_font_matrix aload pop pop pop 0 0 6 array astore
    cairo_font exch selectfont cairo_point_x cairo_point_y moveto } bind def
/Tf { pop /cairo_font exch def /cairo_font_matrix where
      { pop cairo_selectfont } if } bind def
/Td { matrix translate cairo_font_matrix matrix concatmatrix dup
      /cairo_font_matrix exch def dup 4 get exch 5 get cairo_store_point
      /cairo_font where { pop cairo_selectfont } if } bind def
/Tm { 2 copy 8 2 roll 6 array astore /cairo_font_matrix exch def
      cairo_store_point /cairo_font where { pop cairo_selectfont } if } bind def
/g { setgray } bind def
/rg { setrgbcolor } bind def
/d1 { setcachedevice } bind def
%%EndProlog
%%Page: 1 1
%%BeginPageSetup
%%PageBoundingBox: 0 -1 228 201
%%EndPageSetup
q 0 -1 228 202 rectclip q
0 200.482 228 -201 re W n
0 g
134.727 176.373 m 137.59 176.373 139.91 178.693 139.91 181.553 c 139.91 
186.275 143.754 190.119 148.477 190.119 c 153.207 190.119 157.055 
186.275 157.055 181.553 c 157.055 115.033 l 157.055 112.17 159.375 
109.85 162.238 109.85 c 165.102 109.85 167.422 112.17 167.422 115.033 c 
167.422 130.627 l 212.453 130.627 l 212.453 108.127 l 212.453 105.264 
214.773 102.943 217.637 102.943 c 220.496 102.943 222.82 105.264 222.82 
108.127 c 222.82 181.553 l 222.82 191.99 214.324 200.482 203.887 
200.482 c 193.441 200.482 184.945 191.99 184.945 181.553 c 184.945 
178.693 187.266 176.373 190.129 176.373 c 192.992 176.373 195.309 
178.693 195.309 181.553 c 195.309 186.275 199.156 190.119 203.887 
190.119 c 208.613 190.119 212.457 186.275 212.457 181.553 c 212.457 
140.99 l 167.422 140.99 l 167.422 181.553 l 167.422 191.99 158.926 
200.482 148.48 200.482 c 138.039 200.482 129.547 191.99 129.547 181.553 
c 129.547 178.693 131.867 176.373 134.727 176.373 c h
134.727 176.373 m f
10.363 110.545 m 60.188 110.545 84.457 100.838 110.152 90.561 c 136.535 
80.006 163.82 69.092 217.637 69.092 c 223.359 69.092 228 73.732 228 
79.455 c 228 85.178 223.359 89.818 217.637 89.818 c 167.812 89.818 
143.543 99.525 117.848 109.807 c 91.465 120.361 64.18 131.275 10.363 
131.275 c 4.641 131.275 0 126.635 0 120.912 c 0 115.186 4.641 110.545 
10.363 110.545 c h
10.363 110.545 m f
217.637 55.275 m 167.812 55.275 143.543 64.982 117.848 75.26 c 91.465 
85.818 64.18 96.729 10.363 96.729 c 4.641 96.729 0 92.088 0 86.365 c 0 
80.643 4.641 76.002 10.363 76.002 c 60.188 76.002 84.457 66.291 110.152 
56.014 c 136.535 45.459 163.82 34.545 217.637 34.545 c 223.359 34.545 
228 39.186 228 44.912 c 228 50.635 223.359 55.275 217.637 55.275 c h
217.637 55.275 m f
217.637 20.729 m 167.812 20.729 143.543 30.436 117.848 40.713 c 91.465 
51.271 64.18 62.182 10.363 62.182 c 4.641 62.182 0 57.541 0 51.818 c 0 
46.096 4.641 41.455 10.363 41.455 c 60.188 41.455 84.457 31.744 110.152 
21.471 c 136.535 10.912 163.82 0.002 217.637 0.002 c 223.359 0.002 228 
4.643 228 10.365 c 228 16.088 223.359 20.729 217.637 20.729 c h
217.637 20.729 m f
Q Q
showpage
%%Trailer
count op_count sub {pop} repeat
countdictstack dict_count sub {end} repeat
cairo_eps_state restore
%%EOF
