%!PS-Adobe-3.0 EPSF-3.0
%%Creator: cairo 1.10.2 (http://cairographics.org)
%%CreationDate: Wed Feb 25 11:07:31 2015
%%Pages: 1
%%BoundingBox: 0 0 195 229
%%DocumentData: Clean7Bit
%%LanguageLevel: 2
%%EndComments
%%BeginProlog
/cairo_eps_state save def
/dict_count countdictstack def
/op_count count 1 sub def
userdict begin
/q { gsave } bind def
/Q { grestore } bind def
/cm { 6 array astore concat } bind def
/w { setlinewidth } bind def
/J { setlinecap } bind def
/j { setlinejoin } bind def
/M { setmiterlimit } bind def
/d { setdash } bind def
/m { moveto } bind def
/l { lineto } bind def
/c { curveto } bind def
/h { closepath } bind def
/re { exch dup neg 3 1 roll 5 3 roll moveto 0 rlineto
      0 exch rlineto 0 rlineto closepath } bind def
/S { stroke } bind def
/f { fill } bind def
/f* { eofill } bind def
/n { newpath } bind def
/W { clip } bind def
/W* { eoclip } bind def
/BT { } bind def
/ET { } bind def
/pdfmark where { pop globaldict /?pdfmark /exec load put }
    { globaldict begin /?pdfmark /pop load def /pdfmark
    /cleartomark load def end } ifelse
/BDC { mark 3 1 roll /BDC pdfmark } bind def
/EMC { mark /EMC pdfmark } bind def
/cairo_store_point { /cairo_point_y exch def /cairo_point_x exch def } def
/Tj { show currentpoint cairo_store_point } bind def
/TJ {
  {
    dup
    type /stringtype eq
    { show } { -0.001 mul 0 cairo_font_matrix dtransform rmoveto } ifelse
  } forall
  currentpoint cairo_store_point
} bind def
/cairo_selectfont { cairo_font_matrix aload pop pop pop 0 0 6 array astore
    cairo_font exch selectfont cairo_point_x cairo_point_y moveto } bind def
/Tf { pop /cairo_font exch def /cairo_font_matrix where
      { pop cairo_selectfont } if } bind def
/Td { matrix translate cairo_font_matrix matrix concatmatrix dup
      /cairo_font_matrix exch def dup 4 get exch 5 get cairo_store_point
      /cairo_font where { pop cairo_selectfont } if } bind def
/Tm { 2 copy 8 2 roll 6 array astore /cairo_font_matrix exch def
      cairo_store_point /cairo_font where { pop cairo_selectfont } if } bind def
/g { setgray } bind def
/rg { setrgbcolor } bind def
/d1 { setcachedevice } bind def
%%EndProlog
%%Page: 1 1
%%BeginPageSetup
%%PageBoundingBox: 0 0 195 229
%%EndPageSetup
q 0 0 195 229 rectclip q
0 g
9.699 114.002 m 9.699 160.963 47 199.279 93.512 201.142 c 82.117 
193.166 l 79.918 191.623 79.387 188.603 80.918 186.408 c 81.863 185.056 
83.367 184.342 84.898 184.342 c 85.863 184.342 86.836 184.623 87.68 
185.217 c 111.934 202.193 l 113.23 203.103 114.004 204.588 114.004 
206.17 c 114.004 207.752 113.23 209.236 111.934 210.142 c 87.676 
227.119 l 85.48 228.662 82.445 228.131 80.918 225.928 c 79.383 223.736 
79.918 220.705 82.113 219.174 c 93.984 210.869 l 41.898 209.236 0 
166.467 0 114.002 c 0 70.623 28.613 33.814 67.965 21.435 c 67.961 
21.564 67.914 21.701 67.914 21.83 c 67.914 25.068 68.926 28.123 70.602 
30.795 c 35.328 42.013 9.699 75.064 9.699 114.002 c h
9.699 114.002 m f
194.035 114.002 m 194.035 157.373 165.43 194.181 126.078 206.56 c 
126.082 206.428 126.129 206.303 126.129 206.17 c 126.129 202.935 
125.117 199.877 123.441 197.205 c 158.711 185.982 184.34 152.935 184.34 
114.002 c 184.34 67.045 147.043 28.728 100.531 26.869 c 111.926 34.838 
l 114.125 36.373 114.656 39.396 113.125 41.588 c 111.59 43.783 108.547 
44.318 106.367 42.783 c 82.109 25.799 l 80.812 24.888 80.039 23.416 
80.039 21.83 c 80.039 20.248 80.812 18.763 82.109 17.853 c 106.367 
0.873 l 107.211 0.287 108.18 0.002 109.145 0.002 c 110.676 0.002 112.18 
0.72 113.125 2.068 c 114.66 4.263 114.125 7.283 111.926 8.826 c 100.059 
17.131 l 152.145 18.763 194.035 61.533 194.035 114.002 c h
194.035 114.002 m f
157.656 116.717 m 159.695 116.717 161.734 117.572 163.176 119.244 c 
165.793 122.295 165.453 126.885 162.395 129.51 c 101.762 181.638 l 
99.031 183.986 95.004 183.986 92.273 181.638 c 31.641 129.51 l 28.586 
126.885 28.242 122.295 30.859 119.244 c 33.48 116.201 38.078 115.845 
41.121 118.474 c 97.02 166.529 l 152.914 118.474 l 154.289 117.291 
155.973 116.717 157.656 116.717 c h
157.656 116.717 m f
95.434 159.174 m 49.746 119.748 l 49.219 119.283 48.906 118.623 48.906 
117.916 c 48.906 60.92 l 48.906 59.58 49.988 58.486 51.328 58.486 c 
142.707 58.486 l 144.047 58.486 145.133 59.58 145.133 60.92 c 145.133 
117.916 l 145.133 118.623 144.82 119.283 144.293 119.748 c 98.602 
159.174 l 97.691 159.955 96.344 159.955 95.434 159.174 c h
92.574 74.76 m 92.574 72.748 90.941 71.127 88.934 71.127 c 74.781 
71.127 l 72.773 71.127 71.141 72.748 71.141 74.76 c 71.141 88.924 l 
71.141 90.931 72.773 92.556 74.781 92.556 c 88.934 92.556 l 90.941 
92.556 92.574 90.931 92.574 88.924 c h
92.574 105.08 m 92.574 103.072 90.941 101.439 88.934 101.439 c 74.781 
101.439 l 72.773 101.439 71.141 103.072 71.141 105.08 c 71.141 119.256 
l 71.141 121.263 72.773 122.892 74.781 122.892 c 88.934 122.892 l 
90.941 122.892 92.574 121.263 92.574 119.256 c h
101.461 119.256 m 101.461 121.263 103.094 122.892 105.105 122.892 c 
119.254 122.892 l 121.262 122.892 122.895 121.263 122.895 119.256 c 
122.895 105.08 l 122.895 103.068 121.262 101.435 119.254 101.435 c 
105.105 101.435 l 103.094 101.435 101.461 103.068 101.461 105.08 c h
101.461 88.924 m 101.461 90.931 103.094 92.556 105.105 92.556 c 119.254 
92.556 l 121.262 92.556 122.895 90.931 122.895 88.924 c 122.895 74.76 l 
122.895 72.748 121.262 71.127 119.254 71.127 c 105.105 71.127 l 103.094 
71.127 101.461 72.748 101.461 74.76 c h
101.461 88.924 m f
Q Q
showpage
%%Trailer
count op_count sub {pop} repeat
countdictstack dict_count sub {end} repeat
cairo_eps_state restore
%%EOF
