%!PS-Adobe-3.0 EPSF-3.0
%%Creator: cairo 1.10.2 (http://cairographics.org)
%%CreationDate: Thu Feb 19 08:56:46 2015
%%Pages: 1
%%BoundingBox: 0 0 226 229
%%DocumentData: Clean7Bit
%%LanguageLevel: 2
%%EndComments
%%BeginProlog
/cairo_eps_state save def
/dict_count countdictstack def
/op_count count 1 sub def
userdict begin
/q { gsave } bind def
/Q { grestore } bind def
/cm { 6 array astore concat } bind def
/w { setlinewidth } bind def
/J { setlinecap } bind def
/j { setlinejoin } bind def
/M { setmiterlimit } bind def
/d { setdash } bind def
/m { moveto } bind def
/l { lineto } bind def
/c { curveto } bind def
/h { closepath } bind def
/re { exch dup neg 3 1 roll 5 3 roll moveto 0 rlineto
      0 exch rlineto 0 rlineto closepath } bind def
/S { stroke } bind def
/f { fill } bind def
/f* { eofill } bind def
/n { newpath } bind def
/W { clip } bind def
/W* { eoclip } bind def
/BT { } bind def
/ET { } bind def
/pdfmark where { pop globaldict /?pdfmark /exec load put }
    { globaldict begin /?pdfmark /pop load def /pdfmark
    /cleartomark load def end } ifelse
/BDC { mark 3 1 roll /BDC pdfmark } bind def
/EMC { mark /EMC pdfmark } bind def
/cairo_store_point { /cairo_point_y exch def /cairo_point_x exch def } def
/Tj { show currentpoint cairo_store_point } bind def
/TJ {
  {
    dup
    type /stringtype eq
    { show } { -0.001 mul 0 cairo_font_matrix dtransform rmoveto } ifelse
  } forall
  currentpoint cairo_store_point
} bind def
/cairo_selectfont { cairo_font_matrix aload pop pop pop 0 0 6 array astore
    cairo_font exch selectfont cairo_point_x cairo_point_y moveto } bind def
/Tf { pop /cairo_font exch def /cairo_font_matrix where
      { pop cairo_selectfont } if } bind def
/Td { matrix translate cairo_font_matrix matrix concatmatrix dup
      /cairo_font_matrix exch def dup 4 get exch 5 get cairo_store_point
      /cairo_font where { pop cairo_selectfont } if } bind def
/Tm { 2 copy 8 2 roll 6 array astore /cairo_font_matrix exch def
      cairo_store_point /cairo_font where { pop cairo_selectfont } if } bind def
/g { setgray } bind def
/rg { setrgbcolor } bind def
/d1 { setcachedevice } bind def
%%EndProlog
%%Page: 1 1
%%BeginPageSetup
%%PageBoundingBox: 0 0 226 229
%%EndPageSetup
q 0 0 226 229 rectclip q
0 g
222.473 39.599 m 222.363 41.013 221.73 42.377 220.691 43.396 c 130.895 
133.189 l 134.43 141.513 136.293 150.525 136.293 159.838 c 136.293 
178.041 129.195 195.17 116.344 208.052 c 103.477 220.908 86.359 228.002 
68.145 228.002 c 49.922 228.002 32.84 220.908 19.949 208.041 c -6.645 
181.463 -6.652 138.228 19.945 111.65 c 32.832 98.759 49.926 91.658 
68.137 91.658 c 77.453 91.658 86.445 93.541 94.785 97.076 c 124.285 
67.556 l 125.512 66.341 127.133 65.701 128.879 65.756 c 144.953 66.322 
l 144.43 50.205 l 144.379 48.506 144.992 46.849 146.227 45.638 c 
147.414 44.431 149.082 43.771 150.773 43.841 c 166.91 44.392 l 166.328 
28.295 l 166.277 26.591 166.934 24.935 168.121 23.724 c 169.348 22.513 
170.777 21.865 172.711 21.923 c 188.809 22.47 l 188.27 6.369 l 188.172 
4.584 188.926 2.869 190.203 1.646 c 191.379 0.576 192.848 0.002 194.398 
0.002 c 194.621 0.002 194.848 0.009 195.074 0.029 c 219.758 2.771 l 
223.09 3.134 225.52 6.111 225.234 9.455 c h
59.914 168.068 m 52.332 160.498 40.078 160.498 32.512 168.068 c 24.938 
175.646 24.938 187.9 32.512 195.466 c 40.078 203.033 52.328 203.041 
59.914 195.47 c 67.48 187.9 67.473 175.638 59.914 168.068 c h
201.406 37.541 m 200.504 36.642 199.297 36.193 198.125 36.193 c 196.949 
36.193 195.742 36.642 194.844 37.541 c 118.441 113.966 l 120.57 116.259 
122.504 118.673 124.262 121.213 c 201.402 44.084 l 203.207 42.283 
203.207 39.341 201.406 37.541 c h
201.406 37.541 m f
Q Q
showpage
%%Trailer
count op_count sub {pop} repeat
countdictstack dict_count sub {end} repeat
cairo_eps_state restore
%%EOF
