%!PS-Adobe-3.0 EPSF-3.0
%%Creator: cairo 1.10.2 (http://cairographics.org)
%%CreationDate: Mon Feb 23 17:31:34 2015
%%Pages: 1
%%BoundingBox: 0 -1 228 213
%%DocumentData: Clean7Bit
%%LanguageLevel: 2
%%EndComments
%%BeginProlog
/cairo_eps_state save def
/dict_count countdictstack def
/op_count count 1 sub def
userdict begin
/q { gsave } bind def
/Q { grestore } bind def
/cm { 6 array astore concat } bind def
/w { setlinewidth } bind def
/J { setlinecap } bind def
/j { setlinejoin } bind def
/M { setmiterlimit } bind def
/d { setdash } bind def
/m { moveto } bind def
/l { lineto } bind def
/c { curveto } bind def
/h { closepath } bind def
/re { exch dup neg 3 1 roll 5 3 roll moveto 0 rlineto
      0 exch rlineto 0 rlineto closepath } bind def
/S { stroke } bind def
/f { fill } bind def
/f* { eofill } bind def
/n { newpath } bind def
/W { clip } bind def
/W* { eoclip } bind def
/BT { } bind def
/ET { } bind def
/pdfmark where { pop globaldict /?pdfmark /exec load put }
    { globaldict begin /?pdfmark /pop load def /pdfmark
    /cleartomark load def end } ifelse
/BDC { mark 3 1 roll /BDC pdfmark } bind def
/EMC { mark /EMC pdfmark } bind def
/cairo_store_point { /cairo_point_y exch def /cairo_point_x exch def } def
/Tj { show currentpoint cairo_store_point } bind def
/TJ {
  {
    dup
    type /stringtype eq
    { show } { -0.001 mul 0 cairo_font_matrix dtransform rmoveto } ifelse
  } forall
  currentpoint cairo_store_point
} bind def
/cairo_selectfont { cairo_font_matrix aload pop pop pop 0 0 6 array astore
    cairo_font exch selectfont cairo_point_x cairo_point_y moveto } bind def
/Tf { pop /cairo_font exch def /cairo_font_matrix where
      { pop cairo_selectfont } if } bind def
/Td { matrix translate cairo_font_matrix matrix concatmatrix dup
      /cairo_font_matrix exch def dup 4 get exch 5 get cairo_store_point
      /cairo_font where { pop cairo_selectfont } if } bind def
/Tm { 2 copy 8 2 roll 6 array astore /cairo_font_matrix exch def
      cairo_store_point /cairo_font where { pop cairo_selectfont } if } bind def
/g { setgray } bind def
/rg { setrgbcolor } bind def
/d1 { setcachedevice } bind def
%%EndProlog
%%Page: 1 1
%%BeginPageSetup
%%PageBoundingBox: 0 -1 228 213
%%EndPageSetup
q 0 -1 228 214 rectclip q
0 212.451 229 -213 re W n
0 g
117.383 173.889 m 115.434 175.572 112.566 175.572 110.617 173.889 c 
32.52 106.529 l 31.379 105.549 30.723 104.115 30.723 102.599 c 30.723 
5.185 l 30.723 2.314 33.043 0.002 35.902 0.002 c 192.098 0.002 l 
194.957 0.002 197.277 2.314 197.277 5.185 c 197.277 102.599 l 197.277 
104.115 196.621 105.549 195.484 106.529 c h
186.914 10.361 m 41.086 10.361 l 41.086 100.236 l 114 163.135 l 186.914 
100.236 l h
186.914 10.361 m f
224.395 120.83 m 120.758 209.951 l 116.871 213.283 111.129 213.283 
107.242 209.951 c 3.605 120.83 l -0.73 117.099 -1.227 110.556 2.504 
106.213 c 6.246 101.877 12.785 101.381 17.121 105.115 c 114 188.428 l 
210.879 105.115 l 212.84 103.431 215.238 102.599 217.629 102.599 c 
220.547 102.599 223.449 103.826 225.496 106.213 c 229.227 110.556 
228.73 117.099 224.395 120.83 c h
224.395 120.83 m f
88.863 115.584 m 76.137 115.584 61.82 108.627 59.801 89.123 c 55.754 
50.006 110.457 20.693 112.785 19.455 c 113.164 19.256 113.582 19.158 
113.996 19.158 c 114.406 19.158 114.828 19.256 115.207 19.455 c 117.535 
20.693 172.238 50.006 168.199 89.123 c 166.188 108.627 151.863 115.584 
139.133 115.584 c 130.109 115.584 120.887 112.389 113.996 106.963 c 
107.102 112.389 97.875 115.584 88.863 115.584 c h
88.863 115.584 m f
Q Q
showpage
%%Trailer
count op_count sub {pop} repeat
countdictstack dict_count sub {end} repeat
cairo_eps_state restore
%%EOF
