%!PS-Adobe-3.0 EPSF-3.0
%%Creator: cairo 1.10.2 (http://cairographics.org)
%%CreationDate: Wed Feb 25 11:07:24 2015
%%Pages: 1
%%BoundingBox: 0 -1 228 169
%%DocumentData: Clean7Bit
%%LanguageLevel: 2
%%EndComments
%%BeginProlog
/cairo_eps_state save def
/dict_count countdictstack def
/op_count count 1 sub def
userdict begin
/q { gsave } bind def
/Q { grestore } bind def
/cm { 6 array astore concat } bind def
/w { setlinewidth } bind def
/J { setlinecap } bind def
/j { setlinejoin } bind def
/M { setmiterlimit } bind def
/d { setdash } bind def
/m { moveto } bind def
/l { lineto } bind def
/c { curveto } bind def
/h { closepath } bind def
/re { exch dup neg 3 1 roll 5 3 roll moveto 0 rlineto
      0 exch rlineto 0 rlineto closepath } bind def
/S { stroke } bind def
/f { fill } bind def
/f* { eofill } bind def
/n { newpath } bind def
/W { clip } bind def
/W* { eoclip } bind def
/BT { } bind def
/ET { } bind def
/pdfmark where { pop globaldict /?pdfmark /exec load put }
    { globaldict begin /?pdfmark /pop load def /pdfmark
    /cleartomark load def end } ifelse
/BDC { mark 3 1 roll /BDC pdfmark } bind def
/EMC { mark /EMC pdfmark } bind def
/cairo_store_point { /cairo_point_y exch def /cairo_point_x exch def } def
/Tj { show currentpoint cairo_store_point } bind def
/TJ {
  {
    dup
    type /stringtype eq
    { show } { -0.001 mul 0 cairo_font_matrix dtransform rmoveto } ifelse
  } forall
  currentpoint cairo_store_point
} bind def
/cairo_selectfont { cairo_font_matrix aload pop pop pop 0 0 6 array astore
    cairo_font exch selectfont cairo_point_x cairo_point_y moveto } bind def
/Tf { pop /cairo_font exch def /cairo_font_matrix where
      { pop cairo_selectfont } if } bind def
/Td { matrix translate cairo_font_matrix matrix concatmatrix dup
      /cairo_font_matrix exch def dup 4 get exch 5 get cairo_store_point
      /cairo_font where { pop cairo_selectfont } if } bind def
/Tm { 2 copy 8 2 roll 6 array astore /cairo_font_matrix exch def
      cairo_store_point /cairo_font where { pop cairo_selectfont } if } bind def
/g { setgray } bind def
/rg { setrgbcolor } bind def
/d1 { setcachedevice } bind def
%%EndProlog
%%Page: 1 1
%%BeginPageSetup
%%PageBoundingBox: 0 -1 228 169
%%EndPageSetup
q 0 -1 228 170 rectclip q
0 168.789 229 -169 re W n
0 g
194.863 71.801 m 171.844 71.801 l 168.969 71.801 166.633 69.468 166.633 
66.59 c 166.633 63.711 168.969 61.379 171.844 61.379 c 182.031 61.379 l 
129.598 10.426 l 15.207 10.426 l 12.32 10.426 9.992 8.09 9.992 5.211 c 
9.992 2.347 12.32 -0 15.207 -0 c 131.715 -0 l 133.07 -0 134.371 0.535 
135.348 1.484 c 189.656 54.258 l 189.656 43.601 l 189.656 40.718 
191.988 38.386 194.863 38.386 c 197.75 38.386 200.078 40.715 200.078 
43.601 c 200.078 66.59 l 200.078 69.468 197.75 71.801 194.863 71.801 c 
h
194.863 71.801 m f
178.902 143.093 m 178.902 140.301 179.75 138.894 183.559 135.875 c 
183.559 149.226 l 180.441 148.668 178.902 146.347 178.902 143.093 c h
178.902 143.093 m f
187.121 122.293 m 187.121 107.218 l 190.137 107.687 192.008 110.957 
192.008 114.379 c 192.008 118.172 190.375 120.511 187.121 122.293 c h
187.121 122.293 m f
185.5 168.789 m 162.051 168.789 142.977 149.726 142.977 126.293 c 
142.977 102.851 162.051 83.777 185.5 83.777 c 208.934 83.777 228 
102.851 228 126.293 c 228 149.726 208.93 168.789 185.5 168.789 c h
187.121 99.746 m 187.121 93.793 l 187.121 92.636 186.586 91.785 185.328 
91.785 c 184.102 91.785 183.559 92.636 183.559 93.793 c 183.559 99.746 
l 175.395 99.746 169.496 105.738 169.496 113.586 c 169.496 116.386 
170.824 118.879 173.77 118.879 c 176.48 118.879 177.957 117.332 178.352 
113.742 c 178.73 109.933 180.293 107.543 183.559 107.218 c 183.559 
124.144 l 178.582 127.332 l 173.008 130.894 170.039 135.57 170.039 
142.082 c 170.039 150.222 175.02 156.441 183.559 156.683 c 183.559 
158.687 l 183.559 159.937 184.102 160.789 185.328 160.789 c 186.586 
160.789 187.121 159.937 187.121 158.687 c 187.121 156.683 l 194.176 
156.683 200.004 152.019 200.004 144.949 c 200.004 142.461 198.301 
140.441 195.746 140.441 c 192.395 140.441 191.691 142.461 191.168 
145.023 c 190.539 147.976 188.824 149.226 187.121 149.226 c 187.121 
133.937 l 191.633 131.285 l 197.531 127.871 201.48 123.457 201.48 
116.16 c 201.48 106.203 196.273 100.215 187.121 99.746 c h
187.121 99.746 m f
72.961 132.035 m 133.012 80.41 l 134.484 79.136 136.305 78.519 138.105 
78.519 c 140.305 78.519 142.492 79.445 144.035 81.242 c 146.855 84.515 
146.48 89.449 143.203 92.265 c 78.059 148.273 l 75.129 150.789 70.797 
150.789 67.867 148.273 c 2.723 92.265 l -0.555 89.449 -0.926 84.515 
1.891 81.242 c 4.703 77.968 9.641 77.59 12.914 80.41 c h
72.961 132.035 m f
71.262 124.133 m 22.176 81.781 l 21.602 81.285 21.277 80.562 21.277 
79.808 c 21.277 18.562 l 21.277 17.129 22.445 15.961 23.883 15.961 c 
122.047 15.961 l 123.492 15.961 124.652 17.129 124.652 18.562 c 124.652 
79.808 l 124.652 80.562 124.32 81.285 123.746 81.781 c 74.664 124.133 l 
73.691 124.976 72.238 124.976 71.262 124.133 c h
68.191 33.445 m 68.191 31.297 66.441 29.539 64.285 29.539 c 49.074 
29.539 l 46.918 29.539 45.164 31.297 45.164 33.445 c 45.164 48.664 l 
45.164 50.816 46.914 52.566 49.074 52.566 c 64.285 52.566 l 66.441 
52.566 68.191 50.816 68.191 48.664 c h
68.191 66.015 m 68.191 63.863 66.441 62.113 64.285 62.113 c 49.074 
62.113 l 46.918 62.113 45.164 63.863 45.164 66.015 c 45.164 81.246 l 
45.164 83.406 46.914 85.156 49.074 85.156 c 64.285 85.156 l 66.441 
85.156 68.191 83.406 68.191 81.246 c h
77.738 81.246 m 77.738 83.406 79.488 85.156 81.645 85.156 c 96.852 
85.156 l 99.008 85.156 100.762 83.406 100.762 81.246 c 100.762 66.015 l 
100.762 63.863 99.008 62.113 96.852 62.113 c 81.645 62.113 l 79.488 
62.113 77.738 63.863 77.738 66.015 c h
77.738 48.664 m 77.738 50.816 79.488 52.566 81.645 52.566 c 96.852 
52.566 l 99.008 52.566 100.762 50.816 100.762 48.664 c 100.762 33.445 l 
100.762 31.297 99.008 29.539 96.852 29.539 c 81.645 29.539 l 79.488 
29.539 77.738 31.297 77.738 33.445 c h
77.738 48.664 m f
Q Q
showpage
%%Trailer
count op_count sub {pop} repeat
countdictstack dict_count sub {end} repeat
cairo_eps_state restore
%%EOF
