%!PS-Adobe-3.0 EPSF-3.0
%%Creator: cairo 1.10.2 (http://cairographics.org)
%%CreationDate: Wed Feb 25 11:07:32 2015
%%Pages: 1
%%BoundingBox: 0 -1 228 202
%%DocumentData: Clean7Bit
%%LanguageLevel: 2
%%EndComments
%%BeginProlog
/cairo_eps_state save def
/dict_count countdictstack def
/op_count count 1 sub def
userdict begin
/q { gsave } bind def
/Q { grestore } bind def
/cm { 6 array astore concat } bind def
/w { setlinewidth } bind def
/J { setlinecap } bind def
/j { setlinejoin } bind def
/M { setmiterlimit } bind def
/d { setdash } bind def
/m { moveto } bind def
/l { lineto } bind def
/c { curveto } bind def
/h { closepath } bind def
/re { exch dup neg 3 1 roll 5 3 roll moveto 0 rlineto
      0 exch rlineto 0 rlineto closepath } bind def
/S { stroke } bind def
/f { fill } bind def
/f* { eofill } bind def
/n { newpath } bind def
/W { clip } bind def
/W* { eoclip } bind def
/BT { } bind def
/ET { } bind def
/pdfmark where { pop globaldict /?pdfmark /exec load put }
    { globaldict begin /?pdfmark /pop load def /pdfmark
    /cleartomark load def end } ifelse
/BDC { mark 3 1 roll /BDC pdfmark } bind def
/EMC { mark /EMC pdfmark } bind def
/cairo_store_point { /cairo_point_y exch def /cairo_point_x exch def } def
/Tj { show currentpoint cairo_store_point } bind def
/TJ {
  {
    dup
    type /stringtype eq
    { show } { -0.001 mul 0 cairo_font_matrix dtransform rmoveto } ifelse
  } forall
  currentpoint cairo_store_point
} bind def
/cairo_selectfont { cairo_font_matrix aload pop pop pop 0 0 6 array astore
    cairo_font exch selectfont cairo_point_x cairo_point_y moveto } bind def
/Tf { pop /cairo_font exch def /cairo_font_matrix where
      { pop cairo_selectfont } if } bind def
/Td { matrix translate cairo_font_matrix matrix concatmatrix dup
      /cairo_font_matrix exch def dup 4 get exch 5 get cairo_store_point
      /cairo_font where { pop cairo_selectfont } if } bind def
/Tm { 2 copy 8 2 roll 6 array astore /cairo_font_matrix exch def
      cairo_store_point /cairo_font where { pop cairo_selectfont } if } bind def
/g { setgray } bind def
/rg { setrgbcolor } bind def
/d1 { setcachedevice } bind def
%%EndProlog
%%Page: 1 1
%%BeginPageSetup
%%PageBoundingBox: 0 -1 228 202
%%EndPageSetup
q 0 -1 228 203 rectclip q
0 201.972 229 -202 re W n
0 g
67.688 111.527 m 160.312 111.527 l 168.164 111.527 174.562 117.898 
174.562 125.777 c 174.562 187.722 l 174.562 195.601 168.164 201.972 
160.312 201.972 c 67.688 201.972 l 59.836 201.972 53.438 195.601 53.438 
187.722 c 53.438 125.777 l 53.438 117.898 59.836 111.527 67.688 111.527 
c h
67.688 111.527 m f
206.625 149.624 m 194.82 149.624 185.25 140.054 185.25 128.249 c 185.25 
97.386 l 181.75 98.882 177.938 99.749 173.91 99.749 c 54.09 99.749 l 
50.062 99.749 46.246 98.882 42.75 97.386 c 42.75 128.249 l 42.75 
140.054 33.18 149.624 21.375 149.624 c 9.57 149.624 0 140.054 0 128.249 
c 0 35.624 l 0 23.824 9.57 14.249 21.375 14.249 c 23.879 14.249 l 
23.879 6.37 30.277 -0.001 38.129 -0.001 c 46.031 -0.001 52.379 6.37 
52.379 14.249 c 175.633 14.249 l 175.633 6.37 181.977 -0.001 189.883 
-0.001 c 197.73 -0.001 204.133 6.37 204.133 14.249 c 206.625 14.249 l 
218.434 14.249 228 23.824 228 35.624 c 228 128.249 l 228 140.054 218.43 
149.624 206.625 149.624 c h
206.625 149.624 m f
Q Q
showpage
%%Trailer
count op_count sub {pop} repeat
countdictstack dict_count sub {end} repeat
cairo_eps_state restore
%%EOF
