%!PS-Adobe-3.0 EPSF-3.0
%%Creator: cairo 1.10.2 (http://cairographics.org)
%%CreationDate: Wed Feb 18 16:06:28 2015
%%Pages: 1
%%BoundingBox: 0 -1 228 146
%%DocumentData: Clean7Bit
%%LanguageLevel: 2
%%EndComments
%%BeginProlog
/cairo_eps_state save def
/dict_count countdictstack def
/op_count count 1 sub def
userdict begin
/q { gsave } bind def
/Q { grestore } bind def
/cm { 6 array astore concat } bind def
/w { setlinewidth } bind def
/J { setlinecap } bind def
/j { setlinejoin } bind def
/M { setmiterlimit } bind def
/d { setdash } bind def
/m { moveto } bind def
/l { lineto } bind def
/c { curveto } bind def
/h { closepath } bind def
/re { exch dup neg 3 1 roll 5 3 roll moveto 0 rlineto
      0 exch rlineto 0 rlineto closepath } bind def
/S { stroke } bind def
/f { fill } bind def
/f* { eofill } bind def
/n { newpath } bind def
/W { clip } bind def
/W* { eoclip } bind def
/BT { } bind def
/ET { } bind def
/pdfmark where { pop globaldict /?pdfmark /exec load put }
    { globaldict begin /?pdfmark /pop load def /pdfmark
    /cleartomark load def end } ifelse
/BDC { mark 3 1 roll /BDC pdfmark } bind def
/EMC { mark /EMC pdfmark } bind def
/cairo_store_point { /cairo_point_y exch def /cairo_point_x exch def } def
/Tj { show currentpoint cairo_store_point } bind def
/TJ {
  {
    dup
    type /stringtype eq
    { show } { -0.001 mul 0 cairo_font_matrix dtransform rmoveto } ifelse
  } forall
  currentpoint cairo_store_point
} bind def
/cairo_selectfont { cairo_font_matrix aload pop pop pop 0 0 6 array astore
    cairo_font exch selectfont cairo_point_x cairo_point_y moveto } bind def
/Tf { pop /cairo_font exch def /cairo_font_matrix where
      { pop cairo_selectfont } if } bind def
/Td { matrix translate cairo_font_matrix matrix concatmatrix dup
      /cairo_font_matrix exch def dup 4 get exch 5 get cairo_store_point
      /cairo_font where { pop cairo_selectfont } if } bind def
/Tm { 2 copy 8 2 roll 6 array astore /cairo_font_matrix exch def
      cairo_store_point /cairo_font where { pop cairo_selectfont } if } bind def
/g { setgray } bind def
/rg { setrgbcolor } bind def
/d1 { setcachedevice } bind def
%%EndProlog
%%Page: 1 1
%%BeginPageSetup
%%PageBoundingBox: 0 -1 228 146
%%EndPageSetup
q 0 -1 228 147 rectclip q
0 145.092 228 -146 re W n
0 g
217.637 46.631 m 217.113 46.631 l 217.449 48.311 217.637 50.041 217.637 
51.819 c 217.637 62.436 211.23 71.541 202.086 75.545 c 202.086 119.186 
l 202.086 133.49 190.488 145.092 176.184 145.092 c 51.812 145.092 l 
37.508 145.092 25.91 133.49 25.91 119.186 c 25.91 75.545 l 16.77 71.541 
10.359 62.436 10.359 51.819 c 10.359 50.041 10.547 48.311 10.887 46.635 
c 10.359 46.635 l 4.641 46.635 0 41.998 0 36.272 c 0 30.553 4.641 
25.908 10.359 25.908 c 15.547 25.908 l 15.547 10.362 l 15.547 4.639 
20.184 -0.002 25.91 -0.002 c 31.633 -0.002 36.273 4.639 36.273 10.362 c 
36.273 25.908 l 191.727 25.908 l 191.727 10.362 l 191.727 4.639 196.367 
-0.002 202.086 -0.002 c 207.816 -0.002 212.453 4.639 212.453 10.362 c 
212.453 25.908 l 217.637 25.908 l 223.355 25.908 228 30.553 228 36.272 
c 228 41.998 223.359 46.631 217.637 46.631 c h
128.25 108.733 m 180.066 108.733 l 185.793 108.733 190.434 104.092 
190.434 98.373 c 190.434 77.729 l 117.891 77.729 l 117.891 98.373 l 
117.887 104.092 122.531 108.733 128.25 108.733 c h
47.934 108.733 m 99.75 108.733 l 105.469 108.733 110.109 104.092 
110.109 98.373 c 110.109 77.729 l 37.562 77.729 l 37.562 98.373 l 
37.562 104.092 42.203 108.733 47.934 108.733 c h
47.934 108.733 m f
Q Q
showpage
%%Trailer
count op_count sub {pop} repeat
countdictstack dict_count sub {end} repeat
cairo_eps_state restore
%%EOF
