%!PS-Adobe-3.0 EPSF-3.0
%%Creator: cairo 1.10.2 (http://cairographics.org)
%%CreationDate: Thu Feb 19 08:37:37 2015
%%Pages: 1
%%BoundingBox: 0 0 218 229
%%DocumentData: Clean7Bit
%%LanguageLevel: 2
%%EndComments
%%BeginProlog
/cairo_eps_state save def
/dict_count countdictstack def
/op_count count 1 sub def
userdict begin
/q { gsave } bind def
/Q { grestore } bind def
/cm { 6 array astore concat } bind def
/w { setlinewidth } bind def
/J { setlinecap } bind def
/j { setlinejoin } bind def
/M { setmiterlimit } bind def
/d { setdash } bind def
/m { moveto } bind def
/l { lineto } bind def
/c { curveto } bind def
/h { closepath } bind def
/re { exch dup neg 3 1 roll 5 3 roll moveto 0 rlineto
      0 exch rlineto 0 rlineto closepath } bind def
/S { stroke } bind def
/f { fill } bind def
/f* { eofill } bind def
/n { newpath } bind def
/W { clip } bind def
/W* { eoclip } bind def
/BT { } bind def
/ET { } bind def
/pdfmark where { pop globaldict /?pdfmark /exec load put }
    { globaldict begin /?pdfmark /pop load def /pdfmark
    /cleartomark load def end } ifelse
/BDC { mark 3 1 roll /BDC pdfmark } bind def
/EMC { mark /EMC pdfmark } bind def
/cairo_store_point { /cairo_point_y exch def /cairo_point_x exch def } def
/Tj { show currentpoint cairo_store_point } bind def
/TJ {
  {
    dup
    type /stringtype eq
    { show } { -0.001 mul 0 cairo_font_matrix dtransform rmoveto } ifelse
  } forall
  currentpoint cairo_store_point
} bind def
/cairo_selectfont { cairo_font_matrix aload pop pop pop 0 0 6 array astore
    cairo_font exch selectfont cairo_point_x cairo_point_y moveto } bind def
/Tf { pop /cairo_font exch def /cairo_font_matrix where
      { pop cairo_selectfont } if } bind def
/Td { matrix translate cairo_font_matrix matrix concatmatrix dup
      /cairo_font_matrix exch def dup 4 get exch 5 get cairo_store_point
      /cairo_font where { pop cairo_selectfont } if } bind def
/Tm { 2 copy 8 2 roll 6 array astore /cairo_font_matrix exch def
      cairo_store_point /cairo_font where { pop cairo_selectfont } if } bind def
/g { setgray } bind def
/rg { setrgbcolor } bind def
/d1 { setcachedevice } bind def
%%EndProlog
%%Page: 1 1
%%BeginPageSetup
%%PageBoundingBox: 0 0 218 229
%%EndPageSetup
q 0 0 218 229 rectclip q
0 g
207.273 10.364 m 114 10.364 l 114 115.973 l 112.379 117.27 110.801 
118.634 109.316 120.126 c 107.207 122.231 105.348 124.509 103.641 
126.872 c 103.641 10.364 l 10.363 10.364 l 10.363 217.638 l 103.641 
217.638 l 103.641 190.813 l 105.352 193.18 107.211 195.462 109.32 
197.567 c 110.809 199.055 112.383 200.415 114 201.712 c 114 222.821 l 
114 225.68 111.68 228.001 108.82 228.001 c 5.184 228.001 l 2.324 
228.001 0 225.68 0 222.821 c 0 5.18 l 0 2.321 2.324 0.001 5.184 0.001 c 
212.461 0.001 l 215.32 0.001 217.641 2.321 217.641 5.18 c 217.641 
88.102 l 214.781 85.524 211.152 84.067 207.273 84.067 c h
207.273 10.364 m f
98.457 158.845 m 98.457 145.602 103.613 133.153 112.98 123.79 c 122.348 
114.411 134.801 109.255 148.047 109.255 c 159.547 109.255 170.445 
113.157 179.25 120.313 c 183.125 116.446 l 182.211 112.997 183.066 
109.18 185.77 106.481 c 199.941 92.29 l 201.965 90.263 204.621 89.251 
207.273 89.251 c 209.926 89.251 212.578 90.259 214.598 92.282 c 218.645 
96.329 218.656 102.888 214.605 106.938 c 200.438 121.13 l 197.727 
123.841 193.906 124.696 190.453 123.778 c 186.582 127.645 l 202.355 
147.098 201.207 175.809 183.117 193.903 c 173.746 203.27 161.293 208.43 
148.047 208.43 c 134.801 208.43 122.348 203.27 112.984 193.903 c 
103.613 184.54 98.457 172.091 98.457 158.845 c h
148.047 198.067 m 158.523 198.067 168.375 193.985 175.785 186.579 c 
191.074 171.286 191.074 146.407 175.785 131.114 c 168.375 123.7 158.523 
119.618 148.047 119.618 c 137.57 119.618 127.723 123.7 120.309 131.114 
c 112.898 138.524 108.82 148.368 108.82 158.845 c 108.82 169.321 
112.898 179.169 120.309 186.579 c 127.715 193.985 137.566 198.067 
148.047 198.067 c h
148.047 198.067 m f
51.82 84.2 m 51.82 87.059 49.5 89.38 46.641 89.38 c 28.5 89.38 l 25.641 
89.38 23.32 87.059 23.32 84.2 c 23.32 66.048 l 23.32 63.184 25.641 
60.864 28.5 60.864 c 46.641 60.864 l 49.5 60.864 51.82 63.184 51.82 
66.048 c h
51.82 84.2 m f
90.684 84.2 m 90.684 87.059 88.363 89.38 85.5 89.38 c 67.363 89.38 l 
64.504 89.38 62.184 87.059 62.184 84.2 c 62.184 66.048 l 62.184 63.184 
64.504 60.864 67.363 60.864 c 85.5 60.864 l 88.363 60.864 90.684 63.184 
90.684 66.048 c h
90.684 84.2 m f
46.641 50.501 m 28.5 50.501 l 25.641 50.501 23.32 48.18 23.32 45.317 c 
23.32 27.169 l 23.32 24.305 25.641 21.985 28.5 21.985 c 46.641 21.985 l 
49.5 21.985 51.82 24.305 51.82 27.169 c 51.82 45.317 l 51.82 48.18 49.5 
50.501 46.641 50.501 c h
46.641 50.501 m f
85.5 50.501 m 67.363 50.501 l 64.504 50.501 62.184 48.18 62.184 45.317 
c 62.184 27.169 l 62.184 24.305 64.504 21.985 67.363 21.985 c 85.5 
21.985 l 88.363 21.985 90.684 24.305 90.684 27.169 c 90.684 45.317 l 
90.684 48.18 88.363 50.501 85.5 50.501 c h
85.5 50.501 m f
51.82 123.075 m 51.82 125.938 49.5 128.259 46.641 128.259 c 28.5 
128.259 l 25.641 128.259 23.32 125.938 23.32 123.075 c 23.32 104.927 l 
23.32 102.063 25.641 99.743 28.5 99.743 c 46.641 99.743 l 49.5 99.743 
51.82 102.063 51.82 104.927 c h
51.82 123.075 m f
90.684 123.075 m 90.684 125.938 88.363 128.259 85.5 128.259 c 67.363 
128.259 l 64.504 128.259 62.184 125.938 62.184 123.075 c 62.184 104.927 
l 62.184 102.063 64.504 99.743 67.363 99.743 c 85.5 99.743 l 88.363 
99.743 90.684 102.063 90.684 104.927 c h
90.684 123.075 m f
51.82 161.954 m 51.82 164.817 49.5 167.138 46.641 167.138 c 28.5 
167.138 l 25.641 167.138 23.32 164.817 23.32 161.954 c 23.32 143.802 l 
23.32 140.942 25.641 138.622 28.5 138.622 c 46.641 138.622 l 49.5 
138.622 51.82 140.942 51.82 143.802 c h
51.82 161.954 m f
90.684 161.954 m 90.684 164.817 88.363 167.138 85.5 167.138 c 67.363 
167.138 l 64.504 167.138 62.184 164.817 62.184 161.954 c 62.184 143.802 
l 62.184 140.942 64.504 138.622 67.363 138.622 c 85.5 138.622 l 88.363 
138.622 90.684 140.942 90.684 143.802 c h
90.684 161.954 m f
51.82 200.833 m 51.82 203.696 49.5 206.016 46.641 206.016 c 28.5 
206.016 l 25.641 206.016 23.32 203.696 23.32 200.833 c 23.32 182.684 l 
23.32 179.821 25.641 177.501 28.5 177.501 c 46.641 177.501 l 49.5 
177.501 51.82 179.821 51.82 182.684 c h
51.82 200.833 m f
90.684 200.833 m 90.684 203.696 88.363 206.016 85.5 206.016 c 67.363 
206.016 l 64.504 206.016 62.184 203.696 62.184 200.833 c 62.184 182.684 
l 62.184 179.821 64.504 177.501 67.363 177.501 c 85.5 177.501 l 88.363 
177.501 90.684 179.821 90.684 182.684 c h
90.684 200.833 m f
155.457 84.2 m 155.457 87.059 153.137 89.38 150.277 89.38 c 132.141 
89.38 l 129.273 89.38 126.957 87.059 126.957 84.2 c 126.957 66.048 l 
126.957 63.184 129.273 60.864 132.141 60.864 c 150.277 60.864 l 153.137 
60.864 155.457 63.184 155.457 66.048 c h
155.457 84.2 m f
194.32 84.2 m 194.32 87.059 192 89.38 189.141 89.38 c 171 89.38 l 
168.141 89.38 165.82 87.059 165.82 84.2 c 165.82 66.048 l 165.82 63.184 
168.141 60.864 171 60.864 c 189.141 60.864 l 192 60.864 194.32 63.184 
194.32 66.048 c h
194.32 84.2 m f
150.277 50.501 m 132.141 50.501 l 129.273 50.501 126.957 48.18 126.957 
45.317 c 126.957 27.169 l 126.957 24.305 129.273 21.985 132.141 21.985 
c 150.277 21.985 l 153.137 21.985 155.457 24.305 155.457 27.169 c 
155.457 45.317 l 155.457 48.18 153.137 50.501 150.277 50.501 c h
150.277 50.501 m f
189.141 50.501 m 171 50.501 l 168.141 50.501 165.82 48.18 165.82 45.317 
c 165.82 27.169 l 165.82 24.305 168.141 21.985 171 21.985 c 189.141 
21.985 l 192 21.985 194.32 24.305 194.32 27.169 c 194.32 45.317 l 
194.32 48.18 192 50.501 189.141 50.501 c h
189.141 50.501 m f
Q Q
showpage
%%Trailer
count op_count sub {pop} repeat
countdictstack dict_count sub {end} repeat
cairo_eps_state restore
%%EOF
