%!PS-Adobe-3.0 EPSF-3.0
%%Creator: cairo 1.10.2 (http://cairographics.org)
%%CreationDate: Wed Feb 25 11:07:27 2015
%%Pages: 1
%%BoundingBox: 0 -1 228 222
%%DocumentData: Clean7Bit
%%LanguageLevel: 2
%%EndComments
%%BeginProlog
/cairo_eps_state save def
/dict_count countdictstack def
/op_count count 1 sub def
userdict begin
/q { gsave } bind def
/Q { grestore } bind def
/cm { 6 array astore concat } bind def
/w { setlinewidth } bind def
/J { setlinecap } bind def
/j { setlinejoin } bind def
/M { setmiterlimit } bind def
/d { setdash } bind def
/m { moveto } bind def
/l { lineto } bind def
/c { curveto } bind def
/h { closepath } bind def
/re { exch dup neg 3 1 roll 5 3 roll moveto 0 rlineto
      0 exch rlineto 0 rlineto closepath } bind def
/S { stroke } bind def
/f { fill } bind def
/f* { eofill } bind def
/n { newpath } bind def
/W { clip } bind def
/W* { eoclip } bind def
/BT { } bind def
/ET { } bind def
/pdfmark where { pop globaldict /?pdfmark /exec load put }
    { globaldict begin /?pdfmark /pop load def /pdfmark
    /cleartomark load def end } ifelse
/BDC { mark 3 1 roll /BDC pdfmark } bind def
/EMC { mark /EMC pdfmark } bind def
/cairo_store_point { /cairo_point_y exch def /cairo_point_x exch def } def
/Tj { show currentpoint cairo_store_point } bind def
/TJ {
  {
    dup
    type /stringtype eq
    { show } { -0.001 mul 0 cairo_font_matrix dtransform rmoveto } ifelse
  } forall
  currentpoint cairo_store_point
} bind def
/cairo_selectfont { cairo_font_matrix aload pop pop pop 0 0 6 array astore
    cairo_font exch selectfont cairo_point_x cairo_point_y moveto } bind def
/Tf { pop /cairo_font exch def /cairo_font_matrix where
      { pop cairo_selectfont } if } bind def
/Td { matrix translate cairo_font_matrix matrix concatmatrix dup
      /cairo_font_matrix exch def dup 4 get exch 5 get cairo_store_point
      /cairo_font where { pop cairo_selectfont } if } bind def
/Tm { 2 copy 8 2 roll 6 array astore /cairo_font_matrix exch def
      cairo_store_point /cairo_font where { pop cairo_selectfont } if } bind def
/g { setgray } bind def
/rg { setrgbcolor } bind def
/d1 { setcachedevice } bind def
%%EndProlog
%%Page: 1 1
%%BeginPageSetup
%%PageBoundingBox: 0 -1 228 222
%%EndPageSetup
q 0 -1 228 223 rectclip q
0 221.115 229 -222 re W n
0 g
97.535 45.076 m 96.617 44.396 95.547 43.916 94.324 43.916 c 71.875 
43.916 l 68.832 43.916 66.371 46.373 66.371 49.408 c 66.371 71.857 l 
66.371 74.892 68.832 77.353 71.875 77.353 c 90.828 77.353 l 91.105 
82.369 91.91 87.283 93.309 92.002 c 71.875 92.002 l 68.832 92.002 
66.371 94.463 66.371 97.502 c 66.371 119.943 l 66.371 122.982 68.832 
125.443 71.875 125.443 c 94.324 125.443 l 97.352 125.443 99.805 122.986 
99.805 119.943 c 99.805 106.541 l 102.449 110.908 105.57 115.017 
109.277 118.72 c 121.285 130.728 137.242 137.342 154.23 137.342 c 
158.508 137.342 162.723 136.916 166.82 136.088 c 110.715 184.498 l 
108.656 186.271 105.594 186.271 103.543 184.498 c 31.102 122.002 l 
29.891 120.955 29.188 119.439 29.188 117.838 c 29.188 27.463 l 29.188 
24.435 31.648 21.974 34.691 21.974 c 117.488 21.974 l 114.598 24.033 
111.824 26.291 109.277 28.845 c 104.445 33.67 100.547 39.162 97.535 
45.076 c h
97.535 45.076 m f
224.793 18.748 m 209.758 33.795 l 206.891 36.666 202.836 37.576 199.172 
36.607 c 195.074 40.701 l 211.801 61.33 210.586 91.767 191.402 110.955 
c 181.473 120.885 168.27 126.353 154.227 126.353 c 140.188 126.353 
126.969 120.885 117.047 110.955 c 107.113 101.021 101.641 87.822 
101.641 73.787 c 101.641 59.74 107.113 46.545 117.047 36.615 c 126.969 
26.674 140.188 21.201 154.227 21.201 c 166.41 21.201 177.969 25.338 
187.305 32.935 c 191.406 28.834 l 190.441 25.178 191.344 21.135 194.207 
18.267 c 209.238 3.224 l 211.383 1.068 214.199 0.002 217.012 0.002 c 
219.824 0.002 222.641 1.068 224.781 3.217 c 229.07 7.502 229.07 14.459 
224.793 18.748 c h
124.816 44.381 m 116.953 52.236 112.633 62.678 112.633 73.787 c 112.633 
84.885 116.953 95.326 124.816 103.185 c 132.672 111.033 143.113 115.365 
154.227 115.365 c 165.336 115.365 175.766 111.033 183.641 103.185 c 
199.844 86.974 199.844 60.603 183.645 44.392 c 183.645 44.388 183.641 
44.388 183.641 44.381 c 183.641 44.381 183.641 44.377 183.629 44.377 c 
175.762 36.521 165.332 32.189 154.227 32.189 c 143.121 32.193 132.676 
36.521 124.816 44.381 c h
124.816 44.381 m f
196.109 119.123 m 198.176 117.342 200.73 116.467 203.266 116.467 c 
206.355 116.467 209.426 117.767 211.594 120.291 c 215.555 124.896 
215.035 131.83 210.434 135.791 c 114.289 218.459 l 110.172 222.002 
104.082 222.002 99.969 218.459 c 3.828 135.791 l -0.781 131.83 -1.297 
124.896 2.656 120.291 c 6.621 115.689 13.551 115.178 18.148 119.123 c 
107.129 195.638 l h
196.109 119.123 m f
Q Q
showpage
%%Trailer
count op_count sub {pop} repeat
countdictstack dict_count sub {end} repeat
cairo_eps_state restore
%%EOF
