%!PS-Adobe-3.0 EPSF-3.0
%%Creator: cairo 1.10.2 (http://cairographics.org)
%%CreationDate: Mon Feb 23 17:31:36 2015
%%Pages: 1
%%BoundingBox: 0 0 228 228
%%DocumentData: Clean7Bit
%%LanguageLevel: 2
%%EndComments
%%BeginProlog
/cairo_eps_state save def
/dict_count countdictstack def
/op_count count 1 sub def
userdict begin
/q { gsave } bind def
/Q { grestore } bind def
/cm { 6 array astore concat } bind def
/w { setlinewidth } bind def
/J { setlinecap } bind def
/j { setlinejoin } bind def
/M { setmiterlimit } bind def
/d { setdash } bind def
/m { moveto } bind def
/l { lineto } bind def
/c { curveto } bind def
/h { closepath } bind def
/re { exch dup neg 3 1 roll 5 3 roll moveto 0 rlineto
      0 exch rlineto 0 rlineto closepath } bind def
/S { stroke } bind def
/f { fill } bind def
/f* { eofill } bind def
/n { newpath } bind def
/W { clip } bind def
/W* { eoclip } bind def
/BT { } bind def
/ET { } bind def
/pdfmark where { pop globaldict /?pdfmark /exec load put }
    { globaldict begin /?pdfmark /pop load def /pdfmark
    /cleartomark load def end } ifelse
/BDC { mark 3 1 roll /BDC pdfmark } bind def
/EMC { mark /EMC pdfmark } bind def
/cairo_store_point { /cairo_point_y exch def /cairo_point_x exch def } def
/Tj { show currentpoint cairo_store_point } bind def
/TJ {
  {
    dup
    type /stringtype eq
    { show } { -0.001 mul 0 cairo_font_matrix dtransform rmoveto } ifelse
  } forall
  currentpoint cairo_store_point
} bind def
/cairo_selectfont { cairo_font_matrix aload pop pop pop 0 0 6 array astore
    cairo_font exch selectfont cairo_point_x cairo_point_y moveto } bind def
/Tf { pop /cairo_font exch def /cairo_font_matrix where
      { pop cairo_selectfont } if } bind def
/Td { matrix translate cairo_font_matrix matrix concatmatrix dup
      /cairo_font_matrix exch def dup 4 get exch 5 get cairo_store_point
      /cairo_font where { pop cairo_selectfont } if } bind def
/Tm { 2 copy 8 2 roll 6 array astore /cairo_font_matrix exch def
      cairo_store_point /cairo_font where { pop cairo_selectfont } if } bind def
/g { setgray } bind def
/rg { setrgbcolor } bind def
/d1 { setcachedevice } bind def
%%EndProlog
%%Page: 1 1
%%BeginPageSetup
%%PageBoundingBox: 0 0 228 228
%%EndPageSetup
q 0 0 228 228 rectclip q
0 g
114 228 m 51.148 228 0 176.852 0 114 c 0 51.148 51.148 0 114 0 c 
176.852 0 228 51.148 228 114 c 228 176.852 176.852 228 114 228 c h
114 10.859 m 57.133 10.859 10.859 57.133 10.859 114 c 10.859 170.867 
57.133 217.141 114 217.141 c 170.867 217.141 217.141 170.867 217.141 
114 c 217.141 57.133 170.867 10.859 114 10.859 c h
114 10.859 m f
122.512 177.664 m 78.91 177.664 l 68.84 177.664 62.246 173.672 62.246 
160.992 c 62.246 64.586 l 62.246 56.078 67.789 50.34 76.477 50.34 c 
85.16 50.34 90.723 56.078 90.723 64.586 c 90.723 98.453 l 122.332 
98.453 l 149.953 98.453 165.758 115.305 165.758 138.059 c 165.754 
165.855 146.488 177.664 122.512 177.664 c h
117.305 120.332 m 90.719 120.332 l 90.719 155.785 l 114.355 155.785 l 
128.422 155.785 137.285 150.566 137.285 138.059 c 137.285 127.297 
128.766 120.332 117.305 120.332 c h
117.305 120.332 m f
Q Q
showpage
%%Trailer
count op_count sub {pop} repeat
countdictstack dict_count sub {end} repeat
cairo_eps_state restore
%%EOF
