%!PS-Adobe-3.0 EPSF-3.0
%%Creator: cairo 1.10.2 (http://cairographics.org)
%%CreationDate: Thu Feb 19 08:56:46 2015
%%Pages: 1
%%BoundingBox: 0 -1 228 213
%%DocumentData: Clean7Bit
%%LanguageLevel: 2
%%EndComments
%%BeginProlog
/cairo_eps_state save def
/dict_count countdictstack def
/op_count count 1 sub def
userdict begin
/q { gsave } bind def
/Q { grestore } bind def
/cm { 6 array astore concat } bind def
/w { setlinewidth } bind def
/J { setlinecap } bind def
/j { setlinejoin } bind def
/M { setmiterlimit } bind def
/d { setdash } bind def
/m { moveto } bind def
/l { lineto } bind def
/c { curveto } bind def
/h { closepath } bind def
/re { exch dup neg 3 1 roll 5 3 roll moveto 0 rlineto
      0 exch rlineto 0 rlineto closepath } bind def
/S { stroke } bind def
/f { fill } bind def
/f* { eofill } bind def
/n { newpath } bind def
/W { clip } bind def
/W* { eoclip } bind def
/BT { } bind def
/ET { } bind def
/pdfmark where { pop globaldict /?pdfmark /exec load put }
    { globaldict begin /?pdfmark /pop load def /pdfmark
    /cleartomark load def end } ifelse
/BDC { mark 3 1 roll /BDC pdfmark } bind def
/EMC { mark /EMC pdfmark } bind def
/cairo_store_point { /cairo_point_y exch def /cairo_point_x exch def } def
/Tj { show currentpoint cairo_store_point } bind def
/TJ {
  {
    dup
    type /stringtype eq
    { show } { -0.001 mul 0 cairo_font_matrix dtransform rmoveto } ifelse
  } forall
  currentpoint cairo_store_point
} bind def
/cairo_selectfont { cairo_font_matrix aload pop pop pop 0 0 6 array astore
    cairo_font exch selectfont cairo_point_x cairo_point_y moveto } bind def
/Tf { pop /cairo_font exch def /cairo_font_matrix where
      { pop cairo_selectfont } if } bind def
/Td { matrix translate cairo_font_matrix matrix concatmatrix dup
      /cairo_font_matrix exch def dup 4 get exch 5 get cairo_store_point
      /cairo_font where { pop cairo_selectfont } if } bind def
/Tm { 2 copy 8 2 roll 6 array astore /cairo_font_matrix exch def
      cairo_store_point /cairo_font where { pop cairo_selectfont } if } bind def
/g { setgray } bind def
/rg { setrgbcolor } bind def
/d1 { setcachedevice } bind def
%%EndProlog
%%Page: 1 1
%%BeginPageSetup
%%PageBoundingBox: 0 -1 228 213
%%EndPageSetup
q 0 -1 228 214 rectclip q
0 212.454 229 -213 re W n
0 g
224.395 120.825 m 120.758 209.95 l 116.871 213.29 111.129 213.29 
107.242 209.95 c 3.605 120.825 l -0.738 117.094 -1.223 110.551 2.508 
106.212 c 6.238 101.868 12.789 101.387 17.121 105.11 c 114 188.423 l 
210.879 105.11 l 212.836 103.426 215.234 102.606 217.629 102.606 c 
220.547 102.606 223.445 103.829 225.492 106.212 c 229.223 110.551 
228.738 117.094 224.395 120.825 c h
224.395 120.825 m f
84.918 0.001 m 84.918 25.372 l 79.27 0.001 l h
84.918 0.001 m f
143.086 0.001 m 148.73 0.001 l 143.086 25.372 l h
143.086 0.001 m f
117.383 173.895 m 115.445 175.567 112.555 175.567 110.613 173.895 c 
32.516 106.528 l 31.379 105.544 30.723 104.114 30.723 102.606 c 30.723 
5.184 l 30.723 2.321 33.039 0.001 35.906 0.001 c 57.984 0.001 l 70.703 
56.891 l 71.332 59.626 72.988 62.106 75.621 63.61 c 76.27 63.977 90.863 
72.012 110.016 73.063 c 112.598 67.88 l 112.688 67.88 l 105.688 13.395 
l 113.355 0.001 l 114.641 0.001 l 122.312 13.395 l 115.309 67.88 l 
115.375 67.88 l 117.973 73.063 l 137.117 72.012 151.727 63.977 152.375 
63.61 c 155.012 62.106 156.664 59.626 157.293 56.891 c 170.012 0.001 l 
192.094 0.001 l 194.957 0.001 197.277 2.321 197.277 5.184 c 197.277 
102.606 l 197.277 104.11 196.621 105.544 195.48 106.528 c h
114 75.403 m 99.492 75.403 87.723 92.223 87.723 106.731 c 87.723 
121.235 99.492 132.997 114 132.997 c 128.496 132.997 140.266 121.235 
140.266 106.731 c 140.266 92.223 128.496 75.403 114 75.403 c h
114 75.403 m f
Q Q
showpage
%%Trailer
count op_count sub {pop} repeat
countdictstack dict_count sub {end} repeat
cairo_eps_state restore
%%EOF
