%!PS-Adobe-3.0 EPSF-3.0
%%Creator: cairo 1.10.2 (http://cairographics.org)
%%CreationDate: Mon Feb 23 17:31:39 2015
%%Pages: 1
%%BoundingBox: 0 -1 228 213
%%DocumentData: Clean7Bit
%%LanguageLevel: 2
%%EndComments
%%BeginProlog
/cairo_eps_state save def
/dict_count countdictstack def
/op_count count 1 sub def
userdict begin
/q { gsave } bind def
/Q { grestore } bind def
/cm { 6 array astore concat } bind def
/w { setlinewidth } bind def
/J { setlinecap } bind def
/j { setlinejoin } bind def
/M { setmiterlimit } bind def
/d { setdash } bind def
/m { moveto } bind def
/l { lineto } bind def
/c { curveto } bind def
/h { closepath } bind def
/re { exch dup neg 3 1 roll 5 3 roll moveto 0 rlineto
      0 exch rlineto 0 rlineto closepath } bind def
/S { stroke } bind def
/f { fill } bind def
/f* { eofill } bind def
/n { newpath } bind def
/W { clip } bind def
/W* { eoclip } bind def
/BT { } bind def
/ET { } bind def
/pdfmark where { pop globaldict /?pdfmark /exec load put }
    { globaldict begin /?pdfmark /pop load def /pdfmark
    /cleartomark load def end } ifelse
/BDC { mark 3 1 roll /BDC pdfmark } bind def
/EMC { mark /EMC pdfmark } bind def
/cairo_store_point { /cairo_point_y exch def /cairo_point_x exch def } def
/Tj { show currentpoint cairo_store_point } bind def
/TJ {
  {
    dup
    type /stringtype eq
    { show } { -0.001 mul 0 cairo_font_matrix dtransform rmoveto } ifelse
  } forall
  currentpoint cairo_store_point
} bind def
/cairo_selectfont { cairo_font_matrix aload pop pop pop 0 0 6 array astore
    cairo_font exch selectfont cairo_point_x cairo_point_y moveto } bind def
/Tf { pop /cairo_font exch def /cairo_font_matrix where
      { pop cairo_selectfont } if } bind def
/Td { matrix translate cairo_font_matrix matrix concatmatrix dup
      /cairo_font_matrix exch def dup 4 get exch 5 get cairo_store_point
      /cairo_font where { pop cairo_selectfont } if } bind def
/Tm { 2 copy 8 2 roll 6 array astore /cairo_font_matrix exch def
      cairo_store_point /cairo_font where { pop cairo_selectfont } if } bind def
/g { setgray } bind def
/rg { setrgbcolor } bind def
/d1 { setcachedevice } bind def
%%EndProlog
%%Page: 1 1
%%BeginPageSetup
%%PageBoundingBox: 0 -1 228 213
%%EndPageSetup
q 0 -1 228 214 rectclip q
0 212.453 229 -213 re W n
0 g
104.387 104.969 m 101.621 104.516 97.52 101.996 91.57 98.207 c 88.383 
96.168 83.559 93.09 82.645 92.883 c 79.676 93.621 56.172 99.734 56.172 
99.734 c 55.453 99.941 54.707 99.793 54.102 99.394 c 53.488 98.988 
53.07 98.348 52.961 97.625 c 46.664 57.058 l 46.465 55.746 47.277 54.5 
48.559 54.156 c 69.301 48.594 l 67.707 46.242 67.5 43.062 68.914 40.336 
c 70.75 36.808 74.68 34.273 78.688 33.961 c 78.918 33.527 79.195 33.086 
79.508 32.656 c 81.793 29.574 85.746 27.555 89.66 27.441 c 89.996 
26.848 90.406 26.258 90.883 25.683 c 93.211 22.922 96.773 21.121 
100.359 20.859 c 100.699 20.156 101.129 19.484 101.645 18.836 c 103.82 
16.183 107.125 14.601 110.484 14.601 c 113.422 14.601 116.008 15.898 
117.621 18.203 c 118.488 19.5 123.004 27.336 123.004 27.336 c 124.531 
26.687 125.43 26.305 125.504 26.273 c 129.762 24.605 134.137 26.828 
135.875 31.414 c 136.176 32.226 136.379 33.023 136.488 33.808 c 140.973 
32.141 146.152 34.508 147.91 38.891 c 148.5 40.355 148.668 41.859 
148.438 43.301 c 149.227 43.453 179.469 51.98 179.469 51.98 c 180.742 
52.336 181.539 53.586 181.336 54.883 c 173.941 100.848 l 173.828 
101.566 173.414 102.203 172.805 102.605 c 172.207 102.996 171.465 
103.129 170.742 102.945 c 145.062 96.394 l 143.863 96.746 140.43 98.414 
131.223 103.926 c 123.492 108.566 121.293 109.75 119.07 109.75 c 
116.359 109.75 110.633 106.801 106.785 104.445 c 106.051 104.82 105.293 
104.984 104.387 104.969 c h
167.359 94.332 m 173.207 58.023 l 162.125 54.922 l 163.238 56.098 
164.133 57.516 164.727 59.113 c 166.215 63.465 164.988 67.859 161.441 
70.656 c 161.359 70.715 141.867 81.664 126.527 91.113 c 126.117 91.367 
125.648 91.5 125.168 91.5 c 125.133 91.5 120.426 91.32 120.426 91.32 c 
120.082 91.305 119.738 91.223 119.422 91.074 c 114.008 88.527 113.422 
86.437 113.234 85.746 c 112.734 83.937 110.406 75.453 109.266 71.016 c 
106.52 70.531 101.176 73.023 100.289 74.894 c 100.586 76.308 100.973 
78.301 101.398 80.465 c 102.309 85.137 103.441 90.949 103.996 92.867 c 
105.152 95.055 116.703 101.891 118.766 102.262 c 119.801 101.996 
123.977 99.508 127.324 97.508 c 136.043 92.297 142.016 88.879 145.688 
88.879 c 147.273 88.879 161.777 92.906 167.359 94.332 c h
110.488 22.133 m 109.434 22.133 108.191 22.75 107.484 23.637 c 106.91 
24.344 106.727 25.121 106.918 26 c 107.137 26.996 106.75 28.023 105.938 
28.633 c 105.48 28.976 104.934 29.148 104.391 29.148 c 103.961 29.148 
103.523 29.039 103.133 28.82 c 101.254 27.777 98.145 28.715 96.613 
30.558 c 96.156 31.098 95.652 31.949 95.836 32.918 c 96.027 33.961 
95.559 35.027 94.656 35.59 c 93.746 36.141 92.594 36.101 91.742 35.469 
c 91.191 35.051 90.488 34.969 89.996 34.969 c 88.359 34.969 86.488 
35.879 85.562 37.129 c 84.812 38.148 85.043 38.91 85.121 39.156 c 
85.453 40.23 85.047 41.398 84.129 42.047 c 83.203 42.68 81.973 42.656 
81.078 41.988 c 79.68 40.933 77.523 41.582 76.16 43.043 c 75.535 43.711 
75.434 44.195 75.426 44.226 c 79.77 50.601 l 80.406 51.641 82.145 
50.676 83.234 49.433 c 83.773 48.816 83.93 48.301 83.898 48.105 c 
83.742 46.887 84.461 45.719 85.621 45.312 c 86.773 44.918 88.07 45.387 
88.695 46.441 c 90.371 49.258 91.781 50.801 92.805 51.008 c 94.465 
51.258 95.891 50.66 97.062 49.461 c 97.875 48.617 98.219 47.738 98.199 
47.242 c 98.16 46.058 98.922 45 100.059 44.664 c 101.191 44.332 102.402 
44.805 103.012 45.816 c 105.094 49.273 109.371 47.488 110.82 45.293 c 
111.258 44.629 111.426 43.992 111.266 43.609 c 110.793 42.492 111.152 
41.191 112.148 40.484 c 113.148 39.769 114.492 39.859 115.395 40.687 c 
116.41 41.605 118.922 40.672 119.773 39.168 c 120.254 38.316 120.191 
37.41 119.574 36.394 c 118.73 35 112.348 23.867 111.367 22.418 c 
111.195 22.172 110.75 22.133 110.488 22.133 c h
110.488 22.133 m f
117.383 173.887 m 115.445 175.566 112.555 175.566 110.613 173.887 c 
32.52 106.523 l 31.379 105.543 30.723 104.109 30.723 102.605 c 30.723 
5.18 l 30.723 2.316 33.039 -0 35.902 -0 c 192.098 -0 l 194.961 -0 
197.277 2.316 197.277 5.18 c 197.277 102.605 l 197.277 104.109 196.621 
105.543 195.484 106.523 c h
186.918 10.359 m 41.082 10.359 l 41.082 100.23 l 114 163.121 l 186.918 
100.23 l h
186.918 10.359 m f
224.391 120.828 m 120.754 209.949 l 116.871 213.289 111.129 213.289 
107.246 209.949 c 3.609 120.828 l -0.73 117.09 -1.227 110.547 2.504 
106.211 c 6.238 101.867 12.785 101.383 17.121 105.105 c 114 188.422 l 
210.879 105.105 l 212.836 103.426 215.238 102.601 217.629 102.601 c 
220.547 102.601 223.441 103.824 225.496 106.211 c 229.227 110.547 
228.73 117.09 224.391 120.828 c h
224.391 120.828 m f
Q Q
showpage
%%Trailer
count op_count sub {pop} repeat
countdictstack dict_count sub {end} repeat
cairo_eps_state restore
%%EOF
