%!PS-Adobe-3.0 EPSF-3.0
%%Creator: cairo 1.10.2 (http://cairographics.org)
%%CreationDate: Wed Feb 18 16:06:08 2015
%%Pages: 1
%%BoundingBox: 0 0 228 228
%%DocumentData: Clean7Bit
%%LanguageLevel: 2
%%EndComments
%%BeginProlog
/cairo_eps_state save def
/dict_count countdictstack def
/op_count count 1 sub def
userdict begin
/q { gsave } bind def
/Q { grestore } bind def
/cm { 6 array astore concat } bind def
/w { setlinewidth } bind def
/J { setlinecap } bind def
/j { setlinejoin } bind def
/M { setmiterlimit } bind def
/d { setdash } bind def
/m { moveto } bind def
/l { lineto } bind def
/c { curveto } bind def
/h { closepath } bind def
/re { exch dup neg 3 1 roll 5 3 roll moveto 0 rlineto
      0 exch rlineto 0 rlineto closepath } bind def
/S { stroke } bind def
/f { fill } bind def
/f* { eofill } bind def
/n { newpath } bind def
/W { clip } bind def
/W* { eoclip } bind def
/BT { } bind def
/ET { } bind def
/pdfmark where { pop globaldict /?pdfmark /exec load put }
    { globaldict begin /?pdfmark /pop load def /pdfmark
    /cleartomark load def end } ifelse
/BDC { mark 3 1 roll /BDC pdfmark } bind def
/EMC { mark /EMC pdfmark } bind def
/cairo_store_point { /cairo_point_y exch def /cairo_point_x exch def } def
/Tj { show currentpoint cairo_store_point } bind def
/TJ {
  {
    dup
    type /stringtype eq
    { show } { -0.001 mul 0 cairo_font_matrix dtransform rmoveto } ifelse
  } forall
  currentpoint cairo_store_point
} bind def
/cairo_selectfont { cairo_font_matrix aload pop pop pop 0 0 6 array astore
    cairo_font exch selectfont cairo_point_x cairo_point_y moveto } bind def
/Tf { pop /cairo_font exch def /cairo_font_matrix where
      { pop cairo_selectfont } if } bind def
/Td { matrix translate cairo_font_matrix matrix concatmatrix dup
      /cairo_font_matrix exch def dup 4 get exch 5 get cairo_store_point
      /cairo_font where { pop cairo_selectfont } if } bind def
/Tm { 2 copy 8 2 roll 6 array astore /cairo_font_matrix exch def
      cairo_store_point /cairo_font where { pop cairo_selectfont } if } bind def
/g { setgray } bind def
/rg { setrgbcolor } bind def
/d1 { setcachedevice } bind def
%%EndProlog
%%Page: 1 1
%%BeginPageSetup
%%PageBoundingBox: 0 0 228 228
%%EndPageSetup
q 0 0 228 228 rectclip q
0 g
114 228 m 51.137 228 0 176.863 0 114 c 0 51.148 51.137 0 114 0 c 
176.863 0 228 51.148 228 114 c 228 176.863 176.863 228 114 228 c h
114 10.859 m 57.129 10.859 10.859 57.133 10.859 114 c 10.859 170.875 
57.129 217.141 114 217.141 c 170.871 217.141 217.141 170.875 217.141 
114 c 217.141 57.133 170.871 10.859 114 10.859 c h
114 10.859 m f
187.164 133.375 m 119.312 191.711 l 116.258 194.34 111.742 194.34 
108.688 191.711 c 40.836 133.375 l 37.426 130.445 37.039 125.305 39.969 
121.891 c 42.898 118.484 48.043 118.094 51.449 121.027 c 114 174.801 l 
176.551 121.027 l 178.086 119.703 179.977 119.055 181.852 119.055 c 
184.141 119.055 186.426 120.02 188.031 121.891 c 190.961 125.305 
190.574 130.445 187.164 133.375 c h
187.164 133.375 m f
114 134.258 m 108.902 134.258 104.758 130.109 104.758 125.012 c 104.758 
108.719 l 123.242 108.719 l 123.242 125.012 l 123.242 130.109 119.098 
134.258 114 134.258 c h
114 134.258 m f
115.77 166.57 m 114.758 167.449 113.242 167.449 112.227 166.57 c 61.102 
122.453 l 60.504 121.938 60.156 121.191 60.156 120.395 c 60.156 56.609 
l 60.156 55.121 61.371 53.898 62.879 53.898 c 165.121 53.898 l 166.625 
53.898 167.844 55.117 167.844 56.609 c 167.844 120.395 l 167.844 
121.191 167.496 121.934 166.898 122.453 c h
138.422 73.312 m 138.422 71.824 137.215 70.602 135.711 70.602 c 92.289 
70.602 l 90.785 70.602 89.578 71.824 89.578 73.312 c 89.578 106.004 l 
89.578 107.508 90.785 108.723 92.289 108.723 c 99.324 108.723 l 99.324 
125.012 l 99.324 133.105 105.906 139.688 114 139.688 c 122.094 139.688 
128.676 133.105 128.676 125.012 c 128.676 108.719 l 135.711 108.719 l 
137.215 108.719 138.422 107.508 138.422 106.004 c h
138.422 73.312 m f
Q Q
showpage
%%Trailer
count op_count sub {pop} repeat
countdictstack dict_count sub {end} repeat
cairo_eps_state restore
%%EOF
