%!PS-Adobe-3.0 EPSF-3.0
%%Creator: cairo 1.10.2 (http://cairographics.org)
%%CreationDate: Wed Feb 18 16:05:35 2015
%%Pages: 1
%%BoundingBox: 0 -1 228 213
%%DocumentData: Clean7Bit
%%LanguageLevel: 2
%%EndComments
%%BeginProlog
/cairo_eps_state save def
/dict_count countdictstack def
/op_count count 1 sub def
userdict begin
/q { gsave } bind def
/Q { grestore } bind def
/cm { 6 array astore concat } bind def
/w { setlinewidth } bind def
/J { setlinecap } bind def
/j { setlinejoin } bind def
/M { setmiterlimit } bind def
/d { setdash } bind def
/m { moveto } bind def
/l { lineto } bind def
/c { curveto } bind def
/h { closepath } bind def
/re { exch dup neg 3 1 roll 5 3 roll moveto 0 rlineto
      0 exch rlineto 0 rlineto closepath } bind def
/S { stroke } bind def
/f { fill } bind def
/f* { eofill } bind def
/n { newpath } bind def
/W { clip } bind def
/W* { eoclip } bind def
/BT { } bind def
/ET { } bind def
/pdfmark where { pop globaldict /?pdfmark /exec load put }
    { globaldict begin /?pdfmark /pop load def /pdfmark
    /cleartomark load def end } ifelse
/BDC { mark 3 1 roll /BDC pdfmark } bind def
/EMC { mark /EMC pdfmark } bind def
/cairo_store_point { /cairo_point_y exch def /cairo_point_x exch def } def
/Tj { show currentpoint cairo_store_point } bind def
/TJ {
  {
    dup
    type /stringtype eq
    { show } { -0.001 mul 0 cairo_font_matrix dtransform rmoveto } ifelse
  } forall
  currentpoint cairo_store_point
} bind def
/cairo_selectfont { cairo_font_matrix aload pop pop pop 0 0 6 array astore
    cairo_font exch selectfont cairo_point_x cairo_point_y moveto } bind def
/Tf { pop /cairo_font exch def /cairo_font_matrix where
      { pop cairo_selectfont } if } bind def
/Td { matrix translate cairo_font_matrix matrix concatmatrix dup
      /cairo_font_matrix exch def dup 4 get exch 5 get cairo_store_point
      /cairo_font where { pop cairo_selectfont } if } bind def
/Tm { 2 copy 8 2 roll 6 array astore /cairo_font_matrix exch def
      cairo_store_point /cairo_font where { pop cairo_selectfont } if } bind def
/g { setgray } bind def
/rg { setrgbcolor } bind def
/d1 { setcachedevice } bind def
%%EndProlog
%%Page: 1 1
%%BeginPageSetup
%%PageBoundingBox: 0 -1 228 213
%%EndPageSetup
q 0 -1 228 214 rectclip q
0 212.455 229 -213 re W n
0 g
117.383 173.896 m 115.445 175.572 112.555 175.572 110.617 173.896 c 
32.516 106.525 l 31.379 105.544 30.719 104.111 30.719 102.603 c 30.719 
5.181 l 30.719 2.318 33.039 0.001 35.906 0.001 c 192.094 0.001 l 
194.957 0.001 197.277 2.318 197.277 5.181 c 197.277 102.603 l 197.277 
104.111 196.621 105.544 195.484 106.525 c h
186.914 10.365 m 41.086 10.365 l 41.086 100.228 l 114 163.123 l 186.914 
100.228 l h
186.914 10.365 m f
224.395 120.826 m 120.758 209.951 l 116.871 213.291 111.133 213.291 
107.242 209.951 c 3.605 120.826 l -0.734 117.091 -1.223 110.548 2.504 
106.209 c 6.234 101.869 12.789 101.38 17.117 105.107 c 114 188.423 l 
210.883 105.107 l 212.836 103.427 215.242 102.603 217.633 102.603 c 
220.547 102.603 223.445 103.826 225.5 106.209 c 229.223 110.548 228.734 
117.091 224.395 120.826 c h
224.395 120.826 m f
68.184 53.779 m 61.801 55.228 l 59.371 55.787 56.57 56.533 56.57 58.869 
c 56.57 61.201 58.527 62.83 62.078 62.83 c 69.215 62.83 68.559 57.841 
72.105 57.841 c 73.973 57.841 75.605 58.962 75.605 60.873 c 75.605 
65.353 68.559 68.709 62.586 68.709 c 56.105 68.709 49.199 65.912 49.199 
58.447 c 49.199 54.853 50.465 51.029 57.41 49.255 c 66.039 47.064 l 
68.656 46.412 69.312 44.916 69.312 43.564 c 69.312 41.326 67.109 39.134 
63.152 39.134 c 55.402 39.134 56.477 45.201 52.324 45.201 c 50.465 
45.201 49.109 43.892 49.109 42.025 c 49.109 38.388 53.449 33.537 63.152 
33.537 c 72.383 33.537 76.957 38.06 76.957 44.123 c 76.953 48.044 
75.184 52.197 68.184 53.779 c h
68.184 53.779 m f
98.039 68.709 m 87.023 68.709 81.051 61.384 81.051 51.544 c 81.051 
41.373 85.996 33.537 98.039 33.537 c 109.508 33.537 115.012 42.076 
115.012 51.544 c 115.012 61.384 109.039 68.709 98.039 68.709 c h
98.039 39.693 m 90.848 39.693 88.707 45.103 88.707 51.544 c 88.707 
57.982 91.785 62.552 98.039 62.552 c 104.289 62.552 107.359 57.982 
107.359 51.544 c 107.359 45.103 104.984 39.693 98.039 39.693 c h
98.039 39.693 m f
125.074 34.326 m 141.035 34.326 l 143.223 34.326 145 35.447 145 37.544 
c 145 39.646 143.223 40.763 141.035 40.763 c 128.25 40.763 l 128.25 
64.697 l 128.25 66.982 126.762 68.521 124.426 68.521 c 122.098 68.521 
120.598 66.982 120.598 64.697 c 120.598 38.806 l 120.598 35.404 122.367 
34.326 125.074 34.326 c h
125.074 34.326 m f
153.57 34.326 m 162.762 34.326 l 172.98 34.326 178.902 40.49 178.902 
51.123 c 178.902 64.279 171.254 67.916 162.902 67.916 c 153.57 67.916 l 
150.875 67.916 149.09 66.845 149.09 63.439 c 149.09 38.806 l 149.09 
35.404 150.875 34.326 153.57 34.326 c h
156.746 61.759 m 163.133 61.759 l 168.734 61.759 171.254 57.748 171.254 
51.123 c 171.254 45.943 169.293 40.49 163.184 40.49 c 156.746 40.49 l h
156.746 61.759 m f
Q Q
showpage
%%Trailer
count op_count sub {pop} repeat
countdictstack dict_count sub {end} repeat
cairo_eps_state restore
%%EOF
