%!PS-Adobe-3.0 EPSF-3.0
%%Creator: cairo 1.10.2 (http://cairographics.org)
%%CreationDate: Mon Feb 23 17:31:45 2015
%%Pages: 1
%%BoundingBox: 0 -1 228 180
%%DocumentData: Clean7Bit
%%LanguageLevel: 2
%%EndComments
%%BeginProlog
/cairo_eps_state save def
/dict_count countdictstack def
/op_count count 1 sub def
userdict begin
/q { gsave } bind def
/Q { grestore } bind def
/cm { 6 array astore concat } bind def
/w { setlinewidth } bind def
/J { setlinecap } bind def
/j { setlinejoin } bind def
/M { setmiterlimit } bind def
/d { setdash } bind def
/m { moveto } bind def
/l { lineto } bind def
/c { curveto } bind def
/h { closepath } bind def
/re { exch dup neg 3 1 roll 5 3 roll moveto 0 rlineto
      0 exch rlineto 0 rlineto closepath } bind def
/S { stroke } bind def
/f { fill } bind def
/f* { eofill } bind def
/n { newpath } bind def
/W { clip } bind def
/W* { eoclip } bind def
/BT { } bind def
/ET { } bind def
/pdfmark where { pop globaldict /?pdfmark /exec load put }
    { globaldict begin /?pdfmark /pop load def /pdfmark
    /cleartomark load def end } ifelse
/BDC { mark 3 1 roll /BDC pdfmark } bind def
/EMC { mark /EMC pdfmark } bind def
/cairo_store_point { /cairo_point_y exch def /cairo_point_x exch def } def
/Tj { show currentpoint cairo_store_point } bind def
/TJ {
  {
    dup
    type /stringtype eq
    { show } { -0.001 mul 0 cairo_font_matrix dtransform rmoveto } ifelse
  } forall
  currentpoint cairo_store_point
} bind def
/cairo_selectfont { cairo_font_matrix aload pop pop pop 0 0 6 array astore
    cairo_font exch selectfont cairo_point_x cairo_point_y moveto } bind def
/Tf { pop /cairo_font exch def /cairo_font_matrix where
      { pop cairo_selectfont } if } bind def
/Td { matrix translate cairo_font_matrix matrix concatmatrix dup
      /cairo_font_matrix exch def dup 4 get exch 5 get cairo_store_point
      /cairo_font where { pop cairo_selectfont } if } bind def
/Tm { 2 copy 8 2 roll 6 array astore /cairo_font_matrix exch def
      cairo_store_point /cairo_font where { pop cairo_selectfont } if } bind def
/g { setgray } bind def
/rg { setrgbcolor } bind def
/d1 { setcachedevice } bind def
%%EndProlog
%%Page: 1 1
%%BeginPageSetup
%%PageBoundingBox: 0 -1 228 180
%%EndPageSetup
q 0 -1 228 181 rectclip q
0 179.281 228 -180 re W n
0 g
186.543 15.543 m 186.543 12.683 184.223 10.359 181.363 10.359 c 145.09 
10.359 l 142.227 10.359 139.906 12.679 139.906 15.543 c 139.906 90.718 
l 133.348 90.437 126.414 90.273 119.18 90.21 c 119.18 36.273 l 119.18 
33.41 116.859 31.089 114 31.089 c 51.82 31.089 l 48.957 31.089 46.637 
33.41 46.637 36.273 c 46.637 94.003 l 38.629 94.964 31.699 95.984 25.91 
96.964 c 25.91 10.359 l 25.91 4.64 30.551 -0 36.273 -0 c 191.727 -0 l 
197.449 -0 202.09 4.64 202.09 10.359 c 202.09 96.964 l 197.57 96.203 
192.422 95.41 186.543 94.648 c h
186.543 15.543 m f
225.879 127.527 m 189.609 175.195 l 187.648 177.773 184.598 179.281 
181.363 179.281 c 46.637 179.281 l 43.398 179.281 40.348 177.773 38.387 
175.195 c 2.113 127.527 l 0.027 124.781 -0.559 121.168 0.555 117.91 c 
1.672 114.644 4.34 112.14 7.672 111.242 c 9.301 110.808 48.289 100.527 
114 100.527 c 179.711 100.527 218.695 110.808 220.328 111.242 c 223.66 
112.14 226.328 114.644 227.445 117.91 c 228.559 121.168 227.969 124.781 
225.879 127.527 c h
225.879 127.527 m f
181.363 62.179 m 181.363 59.32 179.043 57 176.18 57 c 173.32 57 171 
59.32 171 62.179 c 171 65.043 173.32 67.363 176.18 67.363 c 179.043 
67.363 181.363 65.043 181.363 62.179 c h
181.363 62.179 m f
Q Q
showpage
%%Trailer
count op_count sub {pop} repeat
countdictstack dict_count sub {end} repeat
cairo_eps_state restore
%%EOF
