%!PS-Adobe-3.0 EPSF-3.0
%%Creator: cairo 1.10.2 (http://cairographics.org)
%%CreationDate: Wed Feb 18 16:05:50 2015
%%Pages: 1
%%BoundingBox: 0 -1 228 209
%%DocumentData: Clean7Bit
%%LanguageLevel: 2
%%EndComments
%%BeginProlog
/cairo_eps_state save def
/dict_count countdictstack def
/op_count count 1 sub def
userdict begin
/q { gsave } bind def
/Q { grestore } bind def
/cm { 6 array astore concat } bind def
/w { setlinewidth } bind def
/J { setlinecap } bind def
/j { setlinejoin } bind def
/M { setmiterlimit } bind def
/d { setdash } bind def
/m { moveto } bind def
/l { lineto } bind def
/c { curveto } bind def
/h { closepath } bind def
/re { exch dup neg 3 1 roll 5 3 roll moveto 0 rlineto
      0 exch rlineto 0 rlineto closepath } bind def
/S { stroke } bind def
/f { fill } bind def
/f* { eofill } bind def
/n { newpath } bind def
/W { clip } bind def
/W* { eoclip } bind def
/BT { } bind def
/ET { } bind def
/pdfmark where { pop globaldict /?pdfmark /exec load put }
    { globaldict begin /?pdfmark /pop load def /pdfmark
    /cleartomark load def end } ifelse
/BDC { mark 3 1 roll /BDC pdfmark } bind def
/EMC { mark /EMC pdfmark } bind def
/cairo_store_point { /cairo_point_y exch def /cairo_point_x exch def } def
/Tj { show currentpoint cairo_store_point } bind def
/TJ {
  {
    dup
    type /stringtype eq
    { show } { -0.001 mul 0 cairo_font_matrix dtransform rmoveto } ifelse
  } forall
  currentpoint cairo_store_point
} bind def
/cairo_selectfont { cairo_font_matrix aload pop pop pop 0 0 6 array astore
    cairo_font exch selectfont cairo_point_x cairo_point_y moveto } bind def
/Tf { pop /cairo_font exch def /cairo_font_matrix where
      { pop cairo_selectfont } if } bind def
/Td { matrix translate cairo_font_matrix matrix concatmatrix dup
      /cairo_font_matrix exch def dup 4 get exch 5 get cairo_store_point
      /cairo_font where { pop cairo_selectfont } if } bind def
/Tm { 2 copy 8 2 roll 6 array astore /cairo_font_matrix exch def
      cairo_store_point /cairo_font where { pop cairo_selectfont } if } bind def
/g { setgray } bind def
/rg { setrgbcolor } bind def
/d1 { setcachedevice } bind def
%%EndProlog
%%Page: 1 1
%%BeginPageSetup
%%PageBoundingBox: 0 -1 228 209
%%EndPageSetup
q 0 -1 228 210 rectclip q
0 208.119 228 -209 re W n
0 g
218.367 112.842 m 218.223 113.732 217.988 114.654 217.621 115.549 c 
190.516 181.748 l 188.16 187.502 181.711 191.838 175.523 191.838 c 
141.145 191.838 l 141.145 202.697 l 141.145 205.69 138.711 208.119 
135.711 208.119 c 92.289 208.119 l 89.293 208.119 86.855 205.69 86.855 
202.697 c 86.855 191.838 l 52.477 191.838 l 46.289 191.838 39.84 
187.502 37.488 181.748 c 10.371 115.51 l 10.016 114.619 9.77 113.725 
9.625 112.838 c 3.789 107.865 0 100.553 0 92.299 c 0 63.322 l 0 58.479 
1.375 53.998 3.613 50.053 c 3.613 12.647 l 3.613 5.67 9.293 -0.002 
16.273 -0.002 c 30.762 -0.002 l 37.742 -0.002 43.422 5.67 43.422 12.647 
c 43.422 36.197 l 184.578 36.197 l 184.578 12.647 l 184.578 5.67 
190.258 -0.002 197.238 -0.002 c 211.727 -0.002 l 218.707 -0.002 224.387 
5.67 224.387 12.647 c 224.387 50.053 l 226.625 53.998 228 58.479 228 
63.322 c 228 92.299 l 228 100.553 224.211 107.865 218.367 112.842 c h
47.535 177.627 m 48.211 179.291 50.707 180.975 52.477 180.975 c 175.523 
180.975 l 177.293 180.975 179.789 179.291 180.473 177.627 c 204.41 
119.057 l 203.242 119.221 202.074 119.424 200.852 119.424 c 27.152 
119.424 l 25.918 119.424 24.742 119.221 23.555 119.053 c h
72.375 71.334 m 72.375 68.342 69.945 65.912 66.945 65.912 c 23.535 
65.912 l 20.535 65.912 18.109 68.342 18.109 71.334 c 18.109 84.291 l 
18.109 87.303 20.535 89.732 23.535 89.732 c 66.945 89.732 l 69.945 
89.732 72.375 87.303 72.375 84.291 c h
144.762 76.006 m 144.762 73.014 142.336 70.584 139.34 70.584 c 88.664 
70.584 l 85.664 70.584 83.238 73.014 83.238 76.006 c 83.238 79.619 l 
83.238 82.627 85.664 85.057 88.664 85.057 c 139.34 85.057 l 142.336 
85.057 144.762 82.627 144.762 79.619 c h
209.891 71.334 m 209.891 68.342 207.469 65.912 204.469 65.912 c 161.055 
65.912 l 158.059 65.912 155.629 68.342 155.629 71.334 c 155.629 84.291 
l 155.629 87.303 158.059 89.732 161.055 89.732 c 204.469 89.732 l 
207.469 89.732 209.891 87.303 209.891 84.291 c h
209.891 71.334 m f
Q Q
showpage
%%Trailer
count op_count sub {pop} repeat
countdictstack dict_count sub {end} repeat
cairo_eps_state restore
%%EOF
