%!PS-Adobe-3.0 EPSF-3.0
%%Creator: cairo 1.10.2 (http://cairographics.org)
%%CreationDate: Wed Feb 25 11:06:57 2015
%%Pages: 1
%%BoundingBox: 0 -1 228 147
%%DocumentData: Clean7Bit
%%LanguageLevel: 2
%%EndComments
%%BeginProlog
/cairo_eps_state save def
/dict_count countdictstack def
/op_count count 1 sub def
userdict begin
/q { gsave } bind def
/Q { grestore } bind def
/cm { 6 array astore concat } bind def
/w { setlinewidth } bind def
/J { setlinecap } bind def
/j { setlinejoin } bind def
/M { setmiterlimit } bind def
/d { setdash } bind def
/m { moveto } bind def
/l { lineto } bind def
/c { curveto } bind def
/h { closepath } bind def
/re { exch dup neg 3 1 roll 5 3 roll moveto 0 rlineto
      0 exch rlineto 0 rlineto closepath } bind def
/S { stroke } bind def
/f { fill } bind def
/f* { eofill } bind def
/n { newpath } bind def
/W { clip } bind def
/W* { eoclip } bind def
/BT { } bind def
/ET { } bind def
/pdfmark where { pop globaldict /?pdfmark /exec load put }
    { globaldict begin /?pdfmark /pop load def /pdfmark
    /cleartomark load def end } ifelse
/BDC { mark 3 1 roll /BDC pdfmark } bind def
/EMC { mark /EMC pdfmark } bind def
/cairo_store_point { /cairo_point_y exch def /cairo_point_x exch def } def
/Tj { show currentpoint cairo_store_point } bind def
/TJ {
  {
    dup
    type /stringtype eq
    { show } { -0.001 mul 0 cairo_font_matrix dtransform rmoveto } ifelse
  } forall
  currentpoint cairo_store_point
} bind def
/cairo_selectfont { cairo_font_matrix aload pop pop pop 0 0 6 array astore
    cairo_font exch selectfont cairo_point_x cairo_point_y moveto } bind def
/Tf { pop /cairo_font exch def /cairo_font_matrix where
      { pop cairo_selectfont } if } bind def
/Td { matrix translate cairo_font_matrix matrix concatmatrix dup
      /cairo_font_matrix exch def dup 4 get exch 5 get cairo_store_point
      /cairo_font where { pop cairo_selectfont } if } bind def
/Tm { 2 copy 8 2 roll 6 array astore /cairo_font_matrix exch def
      cairo_store_point /cairo_font where { pop cairo_selectfont } if } bind def
/g { setgray } bind def
/rg { setrgbcolor } bind def
/d1 { setcachedevice } bind def
%%EndProlog
%%Page: 1 1
%%BeginPageSetup
%%PageBoundingBox: 0 -1 228 147
%%EndPageSetup
q 0 -1 228 148 rectclip q
0 146.892 229 -147 re W n
0 g
128.25 81.103 m 180.066 81.103 l 185.797 81.103 190.438 85.747 190.438 
91.466 c 190.438 136.529 l 190.438 142.255 185.797 146.892 180.066 
146.892 c 128.25 146.892 l 122.531 146.892 117.891 142.255 117.891 
136.529 c 117.891 91.466 l 117.891 85.747 122.531 81.103 128.25 81.103 
c h
128.25 81.103 m f
47.934 81.103 m 99.75 81.103 l 105.469 81.103 110.109 85.747 110.109 
91.466 c 110.109 136.529 l 110.109 142.255 105.469 146.892 99.75 
146.892 c 47.934 146.892 l 42.207 146.892 37.566 142.255 37.566 136.529 
c 37.566 91.466 l 37.566 85.747 42.207 81.103 47.934 81.103 c h
47.934 81.103 m f
212.453 108.814 m 203.863 108.814 196.91 101.857 196.91 93.271 c 196.91 
68.947 l 193.586 71.212 189.578 72.544 185.25 72.544 c 42.75 72.544 l 
38.422 72.544 34.414 71.212 31.09 68.947 c 31.09 93.271 l 31.09 101.857 
24.137 108.814 15.547 108.814 c 6.961 108.814 0 101.857 0 93.271 c 0 
25.908 l 0 17.322 6.961 10.365 15.547 10.365 c 20.727 10.365 l 20.727 
4.638 25.367 0.001 31.09 0.001 c 36.816 0.001 41.453 4.638 41.453 
10.365 c 186.547 10.365 l 186.547 4.638 191.184 0.001 196.914 0.001 c 
202.633 0.001 207.273 4.638 207.273 10.365 c 212.453 10.365 l 221.039 
10.365 228 17.322 228 25.908 c 228 93.271 l 228 101.857 221.039 108.814 
212.453 108.814 c h
212.453 108.814 m f
Q Q
showpage
%%Trailer
count op_count sub {pop} repeat
countdictstack dict_count sub {end} repeat
cairo_eps_state restore
%%EOF
