%!PS-Adobe-3.0 EPSF-3.0
%%Creator: cairo 1.10.2 (http://cairographics.org)
%%CreationDate: Wed Feb 25 11:07:55 2015
%%Pages: 1
%%BoundingBox: 0 -1 228 179
%%DocumentData: Clean7Bit
%%LanguageLevel: 2
%%EndComments
%%BeginProlog
/cairo_eps_state save def
/dict_count countdictstack def
/op_count count 1 sub def
userdict begin
/q { gsave } bind def
/Q { grestore } bind def
/cm { 6 array astore concat } bind def
/w { setlinewidth } bind def
/J { setlinecap } bind def
/j { setlinejoin } bind def
/M { setmiterlimit } bind def
/d { setdash } bind def
/m { moveto } bind def
/l { lineto } bind def
/c { curveto } bind def
/h { closepath } bind def
/re { exch dup neg 3 1 roll 5 3 roll moveto 0 rlineto
      0 exch rlineto 0 rlineto closepath } bind def
/S { stroke } bind def
/f { fill } bind def
/f* { eofill } bind def
/n { newpath } bind def
/W { clip } bind def
/W* { eoclip } bind def
/BT { } bind def
/ET { } bind def
/pdfmark where { pop globaldict /?pdfmark /exec load put }
    { globaldict begin /?pdfmark /pop load def /pdfmark
    /cleartomark load def end } ifelse
/BDC { mark 3 1 roll /BDC pdfmark } bind def
/EMC { mark /EMC pdfmark } bind def
/cairo_store_point { /cairo_point_y exch def /cairo_point_x exch def } def
/Tj { show currentpoint cairo_store_point } bind def
/TJ {
  {
    dup
    type /stringtype eq
    { show } { -0.001 mul 0 cairo_font_matrix dtransform rmoveto } ifelse
  } forall
  currentpoint cairo_store_point
} bind def
/cairo_selectfont { cairo_font_matrix aload pop pop pop 0 0 6 array astore
    cairo_font exch selectfont cairo_point_x cairo_point_y moveto } bind def
/Tf { pop /cairo_font exch def /cairo_font_matrix where
      { pop cairo_selectfont } if } bind def
/Td { matrix translate cairo_font_matrix matrix concatmatrix dup
      /cairo_font_matrix exch def dup 4 get exch 5 get cairo_store_point
      /cairo_font where { pop cairo_selectfont } if } bind def
/Tm { 2 copy 8 2 roll 6 array astore /cairo_font_matrix exch def
      cairo_store_point /cairo_font where { pop cairo_selectfont } if } bind def
/g { setgray } bind def
/rg { setrgbcolor } bind def
/d1 { setcachedevice } bind def
%%EndProlog
%%Page: 1 1
%%BeginPageSetup
%%PageBoundingBox: 0 -1 228 179
%%EndPageSetup
q 0 -1 228 180 rectclip q
0 178.48 228 -179 re W n
0 g
223.117 133.261 m 193.953 162.421 155.203 178.48 114 178.48 c 72.797 
178.48 34.047 162.425 4.883 133.261 c -1.629 126.742 -1.629 116.175 
4.883 109.671 c 11.398 103.144 21.965 103.144 28.48 109.671 c 51.34 
132.519 81.711 145.113 114 145.113 c 146.289 145.113 176.66 132.519 
199.52 109.671 c 202.785 106.406 207.047 104.781 211.32 104.781 c 
215.582 104.781 219.848 106.406 223.113 109.671 c 229.625 116.175 
229.625 126.734 223.117 133.261 c h
223.117 133.261 m f
114 123.441 m 85.031 123.441 57.801 112.144 37.328 91.636 c 30.816 
85.105 30.824 74.55 37.348 68.042 c 43.859 61.531 54.426 61.546 60.938 
68.062 c 75.098 82.257 93.949 90.07 114 90.07 c 134.047 90.07 152.898 
82.257 167.059 68.062 c 170.32 64.792 174.59 63.164 178.863 63.164 c 
183.125 63.164 187.406 64.781 190.652 68.042 c 197.172 74.55 197.184 
85.105 190.668 91.636 c 170.195 112.144 142.969 123.441 114 123.441 c h
114 123.441 m f
114 66.679 m 95.594 66.679 80.629 51.695 80.629 33.308 c 80.629 14.937 
95.594 -0 114 -0 c 132.406 -0 147.367 14.937 147.367 33.308 c 147.367 
51.695 132.406 66.679 114 66.679 c h
114 66.679 m f
Q Q
showpage
%%Trailer
count op_count sub {pop} repeat
countdictstack dict_count sub {end} repeat
cairo_eps_state restore
%%EOF
