<?xml version="1.0" encoding="iso-8859-1"?>
<!-- Generator: Adobe Illustrator 18.1.1, SVG Export Plug-In . SVG Version: 6.00 Build 0)  -->
<svg version="1.1" id="Capa_1" xmlns="http://www.w3.org/2000/svg" xmlns:xlink="http://www.w3.org/1999/xlink" x="0px" y="0px"
	 viewBox="0 0 284.999 284.999" style="enable-background:new 0 0 284.999 284.999;" xml:space="preserve">
<g>
	<g>
		<path d="M282.995,133.884l-11.411-21.239c-1.144-2.14-2.294-6.47-2.375-8.906l-0.735-24.109
			c-0.167-5.64-3.779-11.893-8.585-14.862l-20.516-12.654c-2.071-1.28-5.226-4.447-6.506-6.513L220.2,25.08
			c-2.969-4.824-9.233-8.436-14.868-8.597l-24.097-0.717c-2.424-0.074-6.766-1.237-8.905-2.381L151.085,1.974
			c-4.787-2.573-12.383-2.573-17.17,0l-21.238,11.405c-2.14,1.15-6.488,2.313-8.919,2.387l-24.077,0.717
			c-5.647,0.161-11.906,3.779-14.875,8.585l-12.66,20.521c-1.293,2.072-4.447,5.245-6.519,6.519l-20.51,12.654
			c-4.806,2.969-8.417,9.215-8.591,14.868l-0.735,24.096c-0.081,2.449-1.231,6.779-2.375,8.919L1.998,133.897
			c-2.665,4.966-2.665,12.172,0.007,17.15l11.411,21.251c1.144,2.128,2.294,6.47,2.375,8.906l0.724,24.097
			c0.167,5.646,3.778,11.899,8.578,14.856l20.527,12.666c2.072,1.28,5.239,4.459,6.525,6.519l12.654,20.51
			c2.962,4.806,9.215,8.417,14.868,8.597l24.084,0.729c2.449,0.081,6.791,1.237,8.918,2.375l21.252,11.411
			c2.394,1.287,5.43,1.992,8.578,1.992s6.185-0.705,8.585-1.992l21.238-11.411c2.128-1.138,6.47-2.294,8.912-2.375l24.097-0.729
			c5.646-0.18,11.899-3.791,14.862-8.597l12.647-20.503c1.293-2.066,4.46-5.245,6.525-6.519l20.516-12.667
			c4.806-2.956,8.417-9.209,8.591-14.862l0.735-24.084c0.081-2.449,1.231-6.791,2.375-8.919L283,151.041
			C285.667,146.068,285.667,138.863,282.995,133.884z M142.5,262.294c-66.073,0-119.825-53.752-119.825-119.825
			c0-66.073,53.752-119.826,119.825-119.826s119.825,53.753,119.825,119.826S208.573,262.294,142.5,262.294z"/>
		<path d="M172.188,128.837h-18.901c-2.678,0-4.849,2.177-4.849,4.861v18.925c0,2.679,2.171,4.85,4.849,4.85h18.901
			c2.684,0,4.861-2.171,4.861-4.85v-18.925C177.049,131.015,174.871,128.837,172.188,128.837z"/>
		<path d="M131.714,169.342h-18.901c-2.684,0-4.861,2.171-4.861,4.849v18.907c0,2.685,2.178,4.861,4.861,4.861h18.901
			c2.678,0,4.849-2.177,4.849-4.861v-18.907C136.563,171.513,134.392,169.342,131.714,169.342z"/>
		<path d="M131.714,128.837h-18.901c-2.684,0-4.861,2.177-4.861,4.861v18.925c0,2.679,2.178,4.85,4.861,4.85h18.901
			c2.678,0,4.849-2.171,4.849-4.85v-18.925C136.563,131.015,134.392,128.837,131.714,128.837z"/>
		<path d="M172.188,169.342h-18.901c-2.678,0-4.849,2.171-4.849,4.849v18.907c0,2.685,2.171,4.861,4.849,4.861h18.901
			c2.684,0,4.861-2.177,4.861-4.861v-18.907C177.049,171.513,174.871,169.342,172.188,169.342z"/>
		<path d="M142.5,35.601c-58.923,0-106.868,47.939-106.868,106.868c0,58.923,47.945,106.868,106.868,106.868
			s106.868-47.945,106.868-106.868C249.368,83.54,201.423,35.601,142.5,35.601z M206.736,211.591c0,1.787-1.447,3.234-3.235,3.234
			H81.499c-1.788,0-3.235-1.447-3.235-3.234V135.48c0-0.94,0.408-1.831,1.126-2.449l61.001-52.633c1.213-1.051,3.006-1.051,4.219,0
			l61.001,52.633c0.718,0.619,1.126,1.509,1.126,2.449v76.111H206.736z M230.832,133.705c-1.924,2.232-4.645,3.383-7.379,3.383
			c-2.238,0-4.489-0.779-6.32-2.35L142.5,70.576l-74.633,64.162c-4.063,3.5-10.199,3.03-13.699-1.033
			c-3.494-4.076-3.037-10.199,1.045-13.7l80.96-69.604c3.643-3.129,9.012-3.129,12.654,0l80.96,69.604
			C233.869,123.506,234.326,129.629,230.832,133.705z"/>
	</g>
</g>
<g>
</g>
<g>
</g>
<g>
</g>
<g>
</g>
<g>
</g>
<g>
</g>
<g>
</g>
<g>
</g>
<g>
</g>
<g>
</g>
<g>
</g>
<g>
</g>
<g>
</g>
<g>
</g>
<g>
</g>
</svg>
