%!PS-Adobe-3.0 EPSF-3.0
%%Creator: cairo 1.10.2 (http://cairographics.org)
%%CreationDate: Mon Feb 23 17:31:40 2015
%%Pages: 1
%%BoundingBox: 0 -1 218 228
%%DocumentData: Clean7Bit
%%LanguageLevel: 2
%%EndComments
%%BeginProlog
/cairo_eps_state save def
/dict_count countdictstack def
/op_count count 1 sub def
userdict begin
/q { gsave } bind def
/Q { grestore } bind def
/cm { 6 array astore concat } bind def
/w { setlinewidth } bind def
/J { setlinecap } bind def
/j { setlinejoin } bind def
/M { setmiterlimit } bind def
/d { setdash } bind def
/m { moveto } bind def
/l { lineto } bind def
/c { curveto } bind def
/h { closepath } bind def
/re { exch dup neg 3 1 roll 5 3 roll moveto 0 rlineto
      0 exch rlineto 0 rlineto closepath } bind def
/S { stroke } bind def
/f { fill } bind def
/f* { eofill } bind def
/n { newpath } bind def
/W { clip } bind def
/W* { eoclip } bind def
/BT { } bind def
/ET { } bind def
/pdfmark where { pop globaldict /?pdfmark /exec load put }
    { globaldict begin /?pdfmark /pop load def /pdfmark
    /cleartomark load def end } ifelse
/BDC { mark 3 1 roll /BDC pdfmark } bind def
/EMC { mark /EMC pdfmark } bind def
/cairo_store_point { /cairo_point_y exch def /cairo_point_x exch def } def
/Tj { show currentpoint cairo_store_point } bind def
/TJ {
  {
    dup
    type /stringtype eq
    { show } { -0.001 mul 0 cairo_font_matrix dtransform rmoveto } ifelse
  } forall
  currentpoint cairo_store_point
} bind def
/cairo_selectfont { cairo_font_matrix aload pop pop pop 0 0 6 array astore
    cairo_font exch selectfont cairo_point_x cairo_point_y moveto } bind def
/Tf { pop /cairo_font exch def /cairo_font_matrix where
      { pop cairo_selectfont } if } bind def
/Td { matrix translate cairo_font_matrix matrix concatmatrix dup
      /cairo_font_matrix exch def dup 4 get exch 5 get cairo_store_point
      /cairo_font where { pop cairo_selectfont } if } bind def
/Tm { 2 copy 8 2 roll 6 array astore /cairo_font_matrix exch def
      cairo_store_point /cairo_font where { pop cairo_selectfont } if } bind def
/g { setgray } bind def
/rg { setrgbcolor } bind def
/d1 { setcachedevice } bind def
%%EndProlog
%%Page: 1 1
%%BeginPageSetup
%%PageBoundingBox: 0 -1 218 228
%%EndPageSetup
q 0 -1 218 229 rectclip q
0 227.999 218 -228 re W n
0 g
28.5 60.87 m 46.641 60.87 l 49.5 60.87 51.82 63.187 51.82 66.042 c 
51.82 84.195 l 51.82 87.058 49.5 89.378 46.641 89.378 c 28.5 89.378 l 
25.641 89.378 23.32 87.058 23.32 84.195 c 23.32 66.042 l 23.32 63.183 
25.641 60.87 28.5 60.87 c h
28.5 60.87 m f
67.363 60.87 m 85.5 60.87 l 88.367 60.87 90.684 63.187 90.684 66.042 c 
90.684 84.195 l 90.684 87.058 88.367 89.378 85.5 89.378 c 67.363 89.378 
l 64.504 89.378 62.184 87.058 62.184 84.195 c 62.184 66.042 l 62.184 
63.183 64.504 60.87 67.363 60.87 c h
67.363 60.87 m f
28.5 21.98 m 46.641 21.98 l 49.5 21.98 51.82 24.3 51.82 27.163 c 51.82 
45.316 l 51.82 48.187 49.5 50.503 46.641 50.503 c 28.5 50.503 l 25.641 
50.503 23.32 48.187 23.32 45.316 c 23.32 27.163 l 23.32 24.3 25.641 
21.98 28.5 21.98 c h
28.5 21.98 m f
67.363 21.98 m 85.5 21.98 l 88.367 21.98 90.684 24.3 90.684 27.163 c 
90.684 45.316 l 90.684 48.187 88.367 50.503 85.5 50.503 c 67.363 50.503 
l 64.504 50.503 62.184 48.187 62.184 45.316 c 62.184 27.163 l 62.184 
24.3 64.504 21.98 67.363 21.98 c h
67.363 21.98 m f
28.5 99.737 m 46.641 99.737 l 49.5 99.737 51.82 102.062 51.82 104.921 c 
51.82 123.077 l 51.82 125.937 49.5 128.261 46.641 128.261 c 28.5 
128.261 l 25.641 128.261 23.32 125.941 23.32 123.077 c 23.32 104.921 l 
23.32 102.062 25.641 99.737 28.5 99.737 c h
28.5 99.737 m f
67.363 99.737 m 85.5 99.737 l 88.367 99.737 90.684 102.062 90.684 
104.921 c 90.684 123.077 l 90.684 125.937 88.367 128.261 85.5 128.261 c 
67.363 128.261 l 64.504 128.261 62.184 125.941 62.184 123.077 c 62.184 
104.921 l 62.184 102.062 64.504 99.737 67.363 99.737 c h
67.363 99.737 m f
28.5 138.62 m 46.641 138.62 l 49.5 138.62 51.82 140.941 51.82 143.804 c 
51.82 161.956 l 51.82 164.812 49.5 167.128 46.641 167.128 c 28.5 
167.128 l 25.641 167.128 23.32 164.812 23.32 161.956 c 23.32 143.804 l 
23.32 140.941 25.641 138.62 28.5 138.62 c h
28.5 138.62 m f
67.363 138.62 m 85.5 138.62 l 88.367 138.62 90.684 140.941 90.684 
143.804 c 90.684 161.956 l 90.684 164.812 88.367 167.128 85.5 167.128 c 
67.363 167.128 l 64.504 167.128 62.184 164.812 62.184 161.956 c 62.184 
143.804 l 62.184 140.941 64.504 138.62 67.363 138.62 c h
67.363 138.62 m f
28.5 177.495 m 46.641 177.495 l 49.5 177.495 51.82 179.812 51.82 
182.679 c 51.82 200.835 l 51.82 203.698 49.5 206.019 46.641 206.019 c 
28.5 206.019 l 25.641 206.019 23.32 203.698 23.32 200.835 c 23.32 
182.683 l 23.32 179.812 25.641 177.495 28.5 177.495 c h
28.5 177.495 m f
67.363 177.495 m 85.5 177.495 l 88.367 177.495 90.684 179.812 90.684 
182.679 c 90.684 200.835 l 90.684 203.698 88.367 206.019 85.5 206.019 c 
67.363 206.019 l 64.504 206.019 62.184 203.698 62.184 200.835 c 62.184 
182.683 l 62.184 179.812 64.504 177.495 67.363 177.495 c h
67.363 177.495 m f
150.277 89.378 m 132.141 89.378 l 129.273 89.378 126.957 87.058 126.957 
84.195 c 126.957 66.042 l 126.957 63.187 129.273 60.87 132.141 60.87 c 
150.277 60.87 l 153.137 60.87 155.457 63.187 155.457 66.042 c 155.457 
84.195 l 155.457 87.058 153.137 89.378 150.277 89.378 c h
150.277 89.378 m f
171 89.378 m 168.141 89.378 165.82 87.058 165.82 84.195 c 165.82 66.042 
l 165.82 63.187 168.141 60.87 171 60.87 c 189.141 60.87 l 192 60.87 
194.32 63.187 194.32 66.042 c 194.32 84.195 l 194.32 87.058 192 89.378 
189.141 89.378 c h
171 89.378 m f
150.277 50.503 m 132.141 50.503 l 129.273 50.503 126.957 48.187 126.957 
45.32 c 126.957 27.163 l 126.957 24.3 129.273 21.98 132.141 21.98 c 
150.277 21.98 l 153.137 21.98 155.457 24.3 155.457 27.163 c 155.457 
45.32 l 155.457 48.187 153.137 50.503 150.277 50.503 c h
150.277 50.503 m f
189.141 50.503 m 171 50.503 l 168.141 50.503 165.82 48.187 165.82 45.32 
c 165.82 27.163 l 165.82 24.3 168.141 21.98 171 21.98 c 189.141 21.98 l 
192 21.98 194.32 24.3 194.32 27.163 c 194.32 45.32 l 194.32 48.187 192 
50.503 189.141 50.503 c h
189.141 50.503 m f
173.164 128.585 m 173.164 132.351 171.547 134.679 168.309 136.452 c 
168.309 121.46 l 171.312 121.921 173.164 125.171 173.164 128.585 c h
173.164 128.585 m f
164.766 163.226 m 161.668 162.667 160.141 160.374 160.141 157.132 c 
160.141 154.347 160.984 152.96 164.766 149.952 c h
164.766 163.226 m f
214.773 105.691 m 199.219 113.468 l 205.293 120.792 208.953 130.183 
208.953 140.421 c 208.953 163.726 189.996 182.679 166.699 182.679 c 
146.781 182.679 130.078 168.827 125.621 150.273 c 114 156.081 l 114 
222.816 l 114 225.679 111.68 227.999 108.82 227.999 c 5.184 227.999 l 
2.324 227.999 0 225.679 0 222.816 c 0 5.187 l 0 2.32 2.324 -0.001 5.184 
-0.001 c 212.457 -0.001 l 215.316 -0.001 217.641 2.32 217.641 5.187 c 
217.641 101.062 l 217.641 103.019 216.531 104.812 214.773 105.691 c h
103.641 10.359 m 10.363 10.359 l 10.363 217.64 l 103.641 217.64 l h
159.816 141.46 m 154.281 144.999 151.332 149.648 151.332 156.12 c 
151.332 164.214 156.277 170.405 164.766 170.648 c 164.766 172.64 l 
164.766 173.882 165.312 174.722 166.527 174.722 c 167.77 174.722 
168.309 173.882 168.309 172.64 c 168.309 170.648 l 175.324 170.648 
181.121 166.007 181.121 158.976 c 181.121 156.507 179.426 154.495 
176.887 154.495 c 173.555 154.495 172.852 156.507 172.332 159.058 c 
171.711 161.984 169.996 163.226 168.309 163.226 c 168.309 148.027 l 
172.797 145.394 l 178.664 141.995 182.582 137.601 182.582 130.355 c 
182.582 120.452 177.406 114.491 168.309 114.027 c 168.309 108.109 l 
168.309 106.964 167.77 106.112 166.527 106.112 c 165.312 106.112 
164.766 106.964 164.766 108.109 c 164.766 114.027 l 156.656 114.027 
150.789 119.991 150.789 127.792 c 150.789 130.577 152.105 133.046 
155.027 133.046 c 157.734 133.046 159.203 131.507 159.594 127.941 c 
159.969 124.155 161.523 121.78 164.766 121.46 c 164.766 138.288 l h
207.277 10.359 m 114 10.359 l 114 144.491 l 124.469 139.257 l 125.098 
116.487 143.777 98.152 166.699 98.152 c 175.781 98.152 184.18 101.062 
191.078 105.96 c 207.277 97.859 l h
207.277 10.359 m f
Q Q
showpage
%%Trailer
count op_count sub {pop} repeat
countdictstack dict_count sub {end} repeat
cairo_eps_state restore
%%EOF
