%!PS-Adobe-3.0 EPSF-3.0
%%Creator: cairo 1.10.2 (http://cairographics.org)
%%CreationDate: Wed Feb 18 16:05:45 2015
%%Pages: 1
%%BoundingBox: 0 0 197 228
%%DocumentData: Clean7Bit
%%LanguageLevel: 2
%%EndComments
%%BeginProlog
/cairo_eps_state save def
/dict_count countdictstack def
/op_count count 1 sub def
userdict begin
/q { gsave } bind def
/Q { grestore } bind def
/cm { 6 array astore concat } bind def
/w { setlinewidth } bind def
/J { setlinecap } bind def
/j { setlinejoin } bind def
/M { setmiterlimit } bind def
/d { setdash } bind def
/m { moveto } bind def
/l { lineto } bind def
/c { curveto } bind def
/h { closepath } bind def
/re { exch dup neg 3 1 roll 5 3 roll moveto 0 rlineto
      0 exch rlineto 0 rlineto closepath } bind def
/S { stroke } bind def
/f { fill } bind def
/f* { eofill } bind def
/n { newpath } bind def
/W { clip } bind def
/W* { eoclip } bind def
/BT { } bind def
/ET { } bind def
/pdfmark where { pop globaldict /?pdfmark /exec load put }
    { globaldict begin /?pdfmark /pop load def /pdfmark
    /cleartomark load def end } ifelse
/BDC { mark 3 1 roll /BDC pdfmark } bind def
/EMC { mark /EMC pdfmark } bind def
/cairo_store_point { /cairo_point_y exch def /cairo_point_x exch def } def
/Tj { show currentpoint cairo_store_point } bind def
/TJ {
  {
    dup
    type /stringtype eq
    { show } { -0.001 mul 0 cairo_font_matrix dtransform rmoveto } ifelse
  } forall
  currentpoint cairo_store_point
} bind def
/cairo_selectfont { cairo_font_matrix aload pop pop pop 0 0 6 array astore
    cairo_font exch selectfont cairo_point_x cairo_point_y moveto } bind def
/Tf { pop /cairo_font exch def /cairo_font_matrix where
      { pop cairo_selectfont } if } bind def
/Td { matrix translate cairo_font_matrix matrix concatmatrix dup
      /cairo_font_matrix exch def dup 4 get exch 5 get cairo_store_point
      /cairo_font where { pop cairo_selectfont } if } bind def
/Tm { 2 copy 8 2 roll 6 array astore /cairo_font_matrix exch def
      cairo_store_point /cairo_font where { pop cairo_selectfont } if } bind def
/g { setgray } bind def
/rg { setrgbcolor } bind def
/d1 { setcachedevice } bind def
%%EndProlog
%%Page: 1 1
%%BeginPageSetup
%%PageBoundingBox: 0 0 197 228
%%EndPageSetup
q 0 0 197 228 rectclip q
0 g
193.695 121.598 m 168.594 151.727 l 164.656 156.453 156.609 156.453 
152.676 151.727 c 127.566 121.598 l 123.906 117.199 124.5 110.664 
128.891 107.004 c 133.301 103.34 139.828 103.941 143.488 108.328 c 
150.266 116.465 l 150.266 10.367 l 150.266 4.645 154.906 0 160.633 0 c 
166.359 0 170.992 4.645 170.992 10.367 c 170.992 116.465 l 177.777 
108.328 l 179.828 105.875 182.77 104.598 185.742 104.598 c 188.078 
104.598 190.434 105.391 192.367 107.004 c 196.766 110.664 197.359 
117.199 193.695 121.598 c h
193.695 121.598 m f
28.5 177.5 m 46.633 177.5 l 49.5 177.5 51.82 179.816 51.82 182.684 c 
51.82 200.832 l 51.82 203.695 49.5 206.016 46.633 206.016 c 28.5 
206.016 l 25.637 206.016 23.32 203.695 23.32 200.832 c 23.32 182.684 l 
23.32 179.816 25.633 177.5 28.5 177.5 c h
28.5 177.5 m f
67.359 177.5 m 85.496 177.5 l 88.363 177.5 90.68 179.816 90.68 182.684 
c 90.68 200.832 l 90.68 203.695 88.363 206.016 85.496 206.016 c 67.359 
206.016 l 64.5 206.016 62.18 203.695 62.18 200.832 c 62.18 182.684 l 
62.18 179.816 64.5 177.5 67.359 177.5 c h
67.359 177.5 m f
108.82 228 m 5.18 228 l 2.316 228 0 225.676 0 222.816 c 0 5.188 l 0 
2.32 2.316 0 5.18 0 c 108.82 0 l 111.68 0 113.996 2.32 113.996 5.188 c 
113.996 222.816 l 113.996 225.676 111.68 228 108.82 228 c h
51.82 27.164 m 51.82 24.301 49.5 21.98 46.633 21.98 c 28.5 21.98 l 
25.637 21.98 23.32 24.301 23.32 27.164 c 23.32 45.324 l 23.32 48.188 
25.637 50.504 28.5 50.504 c 46.633 50.504 l 49.5 50.504 51.82 48.188 
51.82 45.324 c h
51.82 66.043 m 51.82 63.184 49.5 60.867 46.633 60.867 c 28.5 60.867 l 
25.637 60.867 23.32 63.184 23.32 66.043 c 23.32 84.195 l 23.32 87.059 
25.637 89.379 28.5 89.379 c 46.633 89.379 l 49.5 89.379 51.82 87.059 
51.82 84.195 c h
51.82 104.918 m 51.82 102.059 49.5 99.738 46.633 99.738 c 28.5 99.738 l 
25.637 99.738 23.32 102.059 23.32 104.918 c 23.32 123.074 l 23.32 
125.938 25.637 128.258 28.5 128.258 c 46.633 128.258 l 49.5 128.258 
51.82 125.938 51.82 123.074 c h
90.68 27.164 m 90.68 24.301 88.363 21.98 85.496 21.98 c 67.359 21.98 l 
64.5 21.98 62.18 24.301 62.18 27.164 c 62.18 45.324 l 62.18 48.188 64.5 
50.504 67.359 50.504 c 85.496 50.504 l 88.363 50.504 90.68 48.188 90.68 
45.324 c h
90.68 66.043 m 90.68 63.184 88.363 60.867 85.496 60.867 c 67.359 60.867 
l 64.5 60.867 62.18 63.184 62.18 66.043 c 62.18 84.195 l 62.18 87.059 
64.5 89.379 67.359 89.379 c 85.496 89.379 l 88.363 89.379 90.68 87.059 
90.68 84.195 c h
90.68 104.918 m 90.68 102.059 88.363 99.738 85.496 99.738 c 67.359 
99.738 l 64.5 99.738 62.18 102.059 62.18 104.918 c 62.18 123.074 l 
62.18 125.938 64.5 128.258 67.359 128.258 c 85.496 128.258 l 88.363 
128.258 90.68 125.938 90.68 123.074 c h
103.633 144.941 m 90.68 147.535 l 90.68 161.957 l 90.68 164.816 88.363 
167.137 85.496 167.137 c 67.359 167.137 l 64.5 167.137 62.18 164.816 
62.18 161.957 c 62.18 153.234 l 51.82 155.305 l 51.82 161.957 l 51.82 
164.816 49.5 167.137 46.633 167.137 c 28.5 167.137 l 25.637 167.137 
23.32 164.816 23.32 161.957 c 23.32 161.008 l 10.359 163.598 l 10.359 
217.637 l 103.633 217.637 l h
103.633 144.941 m f
Q Q
showpage
%%Trailer
count op_count sub {pop} repeat
countdictstack dict_count sub {end} repeat
cairo_eps_state restore
%%EOF
