%!PS-Adobe-3.0 EPSF-3.0
%%Creator: cairo 1.10.2 (http://cairographics.org)
%%CreationDate: Wed Feb 25 11:07:19 2015
%%Pages: 1
%%BoundingBox: 0 -1 228 227
%%DocumentData: Clean7Bit
%%LanguageLevel: 2
%%EndComments
%%BeginProlog
/cairo_eps_state save def
/dict_count countdictstack def
/op_count count 1 sub def
userdict begin
/q { gsave } bind def
/Q { grestore } bind def
/cm { 6 array astore concat } bind def
/w { setlinewidth } bind def
/J { setlinecap } bind def
/j { setlinejoin } bind def
/M { setmiterlimit } bind def
/d { setdash } bind def
/m { moveto } bind def
/l { lineto } bind def
/c { curveto } bind def
/h { closepath } bind def
/re { exch dup neg 3 1 roll 5 3 roll moveto 0 rlineto
      0 exch rlineto 0 rlineto closepath } bind def
/S { stroke } bind def
/f { fill } bind def
/f* { eofill } bind def
/n { newpath } bind def
/W { clip } bind def
/W* { eoclip } bind def
/BT { } bind def
/ET { } bind def
/pdfmark where { pop globaldict /?pdfmark /exec load put }
    { globaldict begin /?pdfmark /pop load def /pdfmark
    /cleartomark load def end } ifelse
/BDC { mark 3 1 roll /BDC pdfmark } bind def
/EMC { mark /EMC pdfmark } bind def
/cairo_store_point { /cairo_point_y exch def /cairo_point_x exch def } def
/Tj { show currentpoint cairo_store_point } bind def
/TJ {
  {
    dup
    type /stringtype eq
    { show } { -0.001 mul 0 cairo_font_matrix dtransform rmoveto } ifelse
  } forall
  currentpoint cairo_store_point
} bind def
/cairo_selectfont { cairo_font_matrix aload pop pop pop 0 0 6 array astore
    cairo_font exch selectfont cairo_point_x cairo_point_y moveto } bind def
/Tf { pop /cairo_font exch def /cairo_font_matrix where
      { pop cairo_selectfont } if } bind def
/Td { matrix translate cairo_font_matrix matrix concatmatrix dup
      /cairo_font_matrix exch def dup 4 get exch 5 get cairo_store_point
      /cairo_font where { pop cairo_selectfont } if } bind def
/Tm { 2 copy 8 2 roll 6 array astore /cairo_font_matrix exch def
      cairo_store_point /cairo_font where { pop cairo_selectfont } if } bind def
/g { setgray } bind def
/rg { setrgbcolor } bind def
/d1 { setcachedevice } bind def
%%EndProlog
%%Page: 1 1
%%BeginPageSetup
%%PageBoundingBox: 0 -1 228 227
%%EndPageSetup
q 0 -1 228 228 rectclip q
0 226.654 228 -227 re W n
0 g
126.836 38.807 m 128.906 41.537 130.195 44.897 130.195 48.584 c 130.195 
57.51 122.941 64.775 114 64.775 c 105.059 64.775 97.805 57.51 97.805 
48.584 c 97.805 44.897 99.09 41.537 101.164 38.807 c 91.559 40.213 
82.473 43.15 74.125 47.358 c 66.602 38.979 l 80.719 31.334 96.855 
26.983 114 26.983 c 131.145 26.983 147.277 31.334 161.395 38.979 c 
153.875 47.358 l 145.527 43.15 136.438 40.213 126.836 38.807 c h
126.836 38.807 m f
65.43 86.143 m 59.445 88.9 52.145 87.861 47.219 82.943 c 44.625 80.35 
43.16 77.088 42.695 73.721 c 34.047 85.307 28.172 99.029 25.996 113.971 
c 28.719 111.9 32.07 110.619 35.754 110.619 c 44.688 110.631 51.945 
117.865 51.945 126.811 c 51.945 135.76 44.695 143.002 35.754 143.002 c 
32.07 143.002 28.719 141.733 25.996 139.654 c 28.172 154.596 34.047 
168.326 42.695 179.916 c 43.16 176.545 44.625 173.279 47.219 170.697 c 
53.535 164.381 63.801 164.358 70.121 170.686 c 76.445 177.01 76.43 
187.272 70.117 193.588 c 67.523 196.178 64.266 197.654 60.887 198.123 c 
72.484 206.779 86.207 212.65 101.16 214.826 c 99.09 212.108 97.805 
208.748 97.805 205.065 c 97.805 196.131 105.059 188.858 114 188.858 c 
122.941 188.858 130.195 196.131 130.195 205.065 c 130.195 208.748 
128.906 212.108 126.84 214.826 c 141.793 212.65 155.52 206.779 167.113 
198.119 c 163.727 197.65 160.461 196.174 157.867 193.572 c 151.555 
187.264 151.543 177.002 157.867 170.682 c 164.188 164.354 174.461 
164.358 180.77 170.678 c 183.367 173.268 184.832 176.545 185.293 179.92 
c 193.953 168.334 199.84 154.596 202.004 139.643 c 199.281 141.729 
195.918 143.002 192.227 143.002 c 183.293 143.002 176.043 135.76 
176.043 126.815 c 176.043 117.865 183.293 110.619 192.227 110.619 c 
195.918 110.623 199.277 111.904 202.004 113.983 c 199.824 99.033 
193.953 85.299 185.293 73.709 c 184.828 77.084 183.363 80.354 180.766 
82.951 c 175.844 87.869 168.547 88.904 162.562 86.15 c 186.992 58.936 l 
203.586 76.768 213.828 100.592 213.828 126.818 c 213.828 181.873 
169.043 226.654 114 226.654 c 58.953 226.654 14.172 181.873 14.172 
126.818 c 14.172 100.592 24.414 76.768 41.008 58.936 c h
65.43 86.143 m f
217.211 21.588 m 213.254 21.588 l 138.125 105.295 l 143.242 111.029 
146.375 118.568 146.375 126.83 c 146.375 144.709 131.887 159.197 114 
159.197 c 96.113 159.197 81.625 144.709 81.625 126.83 c 81.625 118.568 
84.758 111.029 89.875 105.295 c 14.742 21.588 l 10.785 21.588 l 4.836 
21.588 0 16.752 0 10.803 c 0 4.838 4.836 -0.002 10.785 -0.002 c 43.168 
-0.002 l 49.133 -0.002 53.961 4.838 53.961 10.803 c 53.961 16.572 49.41 
21.248 43.695 21.537 c 109.453 94.803 l 110.938 94.588 112.449 94.436 
114 94.436 c 115.547 94.436 117.062 94.588 118.547 94.803 c 184.305 
21.537 l 178.59 21.248 174.039 16.572 174.039 10.803 c 174.039 4.838 
178.867 -0.002 184.828 -0.002 c 217.211 -0.002 l 223.164 -0.002 228 
4.838 228 10.803 c 228 16.752 223.164 21.588 217.211 21.588 c h
217.211 21.588 m f
Q Q
showpage
%%Trailer
count op_count sub {pop} repeat
countdictstack dict_count sub {end} repeat
cairo_eps_state restore
%%EOF
