%!PS-Adobe-3.0 EPSF-3.0
%%Creator: cairo 1.10.2 (http://cairographics.org)
%%CreationDate: Mon Feb 23 17:31:45 2015
%%Pages: 1
%%BoundingBox: 0 -1 228 211
%%DocumentData: Clean7Bit
%%LanguageLevel: 2
%%EndComments
%%BeginProlog
/cairo_eps_state save def
/dict_count countdictstack def
/op_count count 1 sub def
userdict begin
/q { gsave } bind def
/Q { grestore } bind def
/cm { 6 array astore concat } bind def
/w { setlinewidth } bind def
/J { setlinecap } bind def
/j { setlinejoin } bind def
/M { setmiterlimit } bind def
/d { setdash } bind def
/m { moveto } bind def
/l { lineto } bind def
/c { curveto } bind def
/h { closepath } bind def
/re { exch dup neg 3 1 roll 5 3 roll moveto 0 rlineto
      0 exch rlineto 0 rlineto closepath } bind def
/S { stroke } bind def
/f { fill } bind def
/f* { eofill } bind def
/n { newpath } bind def
/W { clip } bind def
/W* { eoclip } bind def
/BT { } bind def
/ET { } bind def
/pdfmark where { pop globaldict /?pdfmark /exec load put }
    { globaldict begin /?pdfmark /pop load def /pdfmark
    /cleartomark load def end } ifelse
/BDC { mark 3 1 roll /BDC pdfmark } bind def
/EMC { mark /EMC pdfmark } bind def
/cairo_store_point { /cairo_point_y exch def /cairo_point_x exch def } def
/Tj { show currentpoint cairo_store_point } bind def
/TJ {
  {
    dup
    type /stringtype eq
    { show } { -0.001 mul 0 cairo_font_matrix dtransform rmoveto } ifelse
  } forall
  currentpoint cairo_store_point
} bind def
/cairo_selectfont { cairo_font_matrix aload pop pop pop 0 0 6 array astore
    cairo_font exch selectfont cairo_point_x cairo_point_y moveto } bind def
/Tf { pop /cairo_font exch def /cairo_font_matrix where
      { pop cairo_selectfont } if } bind def
/Td { matrix translate cairo_font_matrix matrix concatmatrix dup
      /cairo_font_matrix exch def dup 4 get exch 5 get cairo_store_point
      /cairo_font where { pop cairo_selectfont } if } bind def
/Tm { 2 copy 8 2 roll 6 array astore /cairo_font_matrix exch def
      cairo_store_point /cairo_font where { pop cairo_selectfont } if } bind def
/g { setgray } bind def
/rg { setrgbcolor } bind def
/d1 { setcachedevice } bind def
%%EndProlog
%%Page: 1 1
%%BeginPageSetup
%%PageBoundingBox: 0 -1 228 211
%%EndPageSetup
q 0 -1 228 212 rectclip q
0 210.544 229 -211 re W n
0 g
227.789 6.923 m 206.094 82.634 l 205.426 84.962 203.293 86.564 200.871 
86.564 c 191.66 86.564 l 191.66 47.771 l 191.66 38.798 184.355 31.489 
175.379 31.489 c 52.73 31.489 l 43.75 31.489 36.449 38.798 36.449 
47.771 c 36.449 47.771 36.371 47.657 36.355 47.638 c 36.355 47.681 
36.34 47.724 36.34 47.771 c 36.34 86.564 l 27.129 86.564 l 24.711 
86.564 22.578 84.962 21.91 82.634 c 0.211 6.923 l -0.258 5.282 0.062 
3.525 1.094 2.161 c 2.113 0.802 3.727 0.001 5.422 0.001 c 5.441 -0.003 
222.578 0.001 222.578 0.001 c 224.277 0.001 225.891 0.802 226.91 2.161 
c 227.938 3.525 228.258 5.282 227.789 6.923 c h
227.789 6.923 m f
37.859 126.247 m 113.949 191.673 l 190.039 126.247 l 191.574 124.931 
193.457 124.282 195.328 124.282 c 197.625 124.282 199.902 125.243 
201.512 127.114 c 204.438 130.525 204.062 135.665 200.645 138.591 c 
119.254 208.575 l 116.211 211.2 111.688 211.2 108.641 208.575 c 27.246 
138.591 l 23.836 135.661 23.449 130.525 26.379 127.11 c 29.32 123.704 
34.465 123.314 37.859 126.247 c h
37.859 126.247 m f
110.402 181.302 m 49.074 128.384 l 47.887 127.345 47.195 125.849 47.195 
124.271 c 47.195 47.767 l 47.195 44.771 49.625 42.345 52.621 42.345 c 
175.27 42.345 l 178.273 42.345 180.703 44.771 180.703 47.767 c 180.703 
124.271 l 180.703 125.849 180.016 127.345 178.812 128.384 c 117.492 
181.302 l 115.461 183.056 112.438 183.056 110.402 181.302 c h
108.52 66.341 m 108.52 63.345 106.09 60.911 103.094 60.911 c 84.105 
60.911 l 81.102 60.911 78.672 63.345 78.672 66.341 c 78.672 85.349 l 
78.672 88.345 81.102 90.775 84.105 90.775 c 103.094 90.775 l 106.09 
90.775 108.52 88.345 108.52 85.349 c h
108.52 107.056 m 108.52 104.06 106.09 101.63 103.094 101.63 c 84.105 
101.63 l 81.102 101.63 78.672 104.06 78.672 107.056 c 78.672 126.064 l 
78.672 129.064 81.102 131.493 84.105 131.493 c 103.094 131.493 l 106.09 
131.493 108.52 129.064 108.52 126.064 c h
119.375 126.064 m 119.375 129.064 121.797 131.493 124.805 131.493 c 
143.793 131.493 l 146.785 131.493 149.215 129.064 149.215 126.064 c 
149.215 107.056 l 149.215 104.06 146.785 101.63 143.793 101.63 c 
124.805 101.63 l 121.797 101.63 119.375 104.06 119.375 107.056 c h
119.375 85.353 m 119.375 88.349 121.797 90.778 124.805 90.778 c 143.793 
90.778 l 146.785 90.778 149.215 88.349 149.215 85.353 c 149.215 66.341 
l 149.215 63.345 146.785 60.915 143.793 60.915 c 124.805 60.915 l 
121.797 60.915 119.375 63.345 119.375 66.341 c h
119.375 85.353 m f
Q Q
showpage
%%Trailer
count op_count sub {pop} repeat
countdictstack dict_count sub {end} repeat
cairo_eps_state restore
%%EOF
