%!PS-Adobe-3.0 EPSF-3.0
%%Creator: cairo 1.10.2 (http://cairographics.org)
%%CreationDate: Mon Feb 23 17:31:35 2015
%%Pages: 1
%%BoundingBox: 0 -1 228 168
%%DocumentData: Clean7Bit
%%LanguageLevel: 2
%%EndComments
%%BeginProlog
/cairo_eps_state save def
/dict_count countdictstack def
/op_count count 1 sub def
userdict begin
/q { gsave } bind def
/Q { grestore } bind def
/cm { 6 array astore concat } bind def
/w { setlinewidth } bind def
/J { setlinecap } bind def
/j { setlinejoin } bind def
/M { setmiterlimit } bind def
/d { setdash } bind def
/m { moveto } bind def
/l { lineto } bind def
/c { curveto } bind def
/h { closepath } bind def
/re { exch dup neg 3 1 roll 5 3 roll moveto 0 rlineto
      0 exch rlineto 0 rlineto closepath } bind def
/S { stroke } bind def
/f { fill } bind def
/f* { eofill } bind def
/n { newpath } bind def
/W { clip } bind def
/W* { eoclip } bind def
/BT { } bind def
/ET { } bind def
/pdfmark where { pop globaldict /?pdfmark /exec load put }
    { globaldict begin /?pdfmark /pop load def /pdfmark
    /cleartomark load def end } ifelse
/BDC { mark 3 1 roll /BDC pdfmark } bind def
/EMC { mark /EMC pdfmark } bind def
/cairo_store_point { /cairo_point_y exch def /cairo_point_x exch def } def
/Tj { show currentpoint cairo_store_point } bind def
/TJ {
  {
    dup
    type /stringtype eq
    { show } { -0.001 mul 0 cairo_font_matrix dtransform rmoveto } ifelse
  } forall
  currentpoint cairo_store_point
} bind def
/cairo_selectfont { cairo_font_matrix aload pop pop pop 0 0 6 array astore
    cairo_font exch selectfont cairo_point_x cairo_point_y moveto } bind def
/Tf { pop /cairo_font exch def /cairo_font_matrix where
      { pop cairo_selectfont } if } bind def
/Td { matrix translate cairo_font_matrix matrix concatmatrix dup
      /cairo_font_matrix exch def dup 4 get exch 5 get cairo_store_point
      /cairo_font where { pop cairo_selectfont } if } bind def
/Tm { 2 copy 8 2 roll 6 array astore /cairo_font_matrix exch def
      cairo_store_point /cairo_font where { pop cairo_selectfont } if } bind def
/g { setgray } bind def
/rg { setrgbcolor } bind def
/d1 { setcachedevice } bind def
%%EndProlog
%%Page: 1 1
%%BeginPageSetup
%%PageBoundingBox: 0 -1 228 168
%%EndPageSetup
q 0 -1 228 169 rectclip q
0 167.45 229 -168 re W n
0 g
124.109 26.778 m 124.109 23.739 l 124.109 20.871 121.789 18.543 118.918 
18.543 c 99.945 18.543 l 97.074 18.543 94.754 20.871 94.754 23.739 c 
94.754 42.727 l 94.754 45.594 97.074 47.914 99.945 47.914 c 118.324 
47.914 l 117.758 51.645 117.375 55.422 117.266 59.223 c 99.945 59.223 l 
97.074 59.223 94.754 61.543 94.754 64.411 c 94.754 83.395 l 94.754 
86.262 97.074 88.59 99.945 88.59 c 118.918 88.59 l 119.805 88.59 
120.602 88.309 121.328 87.918 c 123.051 93 125.297 97.911 128.199 
102.508 c 128.906 103.625 129.824 104.551 130.871 105.297 c 92.492 
138.407 l 90.555 140.082 87.66 140.082 85.715 138.407 c 24.449 85.536 l 
23.312 84.551 22.652 83.118 22.652 81.606 c 22.652 5.192 l 22.652 2.321 
24.969 0 27.844 0 c 142.883 0 l 135.082 6.313 128.617 15.75 124.109 
26.778 c h
83.457 23.743 m 83.457 20.871 81.133 18.547 78.262 18.547 c 59.285 
18.547 l 56.418 18.547 54.098 20.871 54.098 23.743 c 54.098 42.727 l 
54.098 45.594 56.418 47.914 59.285 47.914 c 78.262 47.914 l 81.133 
47.914 83.457 45.594 83.457 42.727 c h
83.457 64.411 m 83.457 61.543 81.133 59.223 78.262 59.223 c 59.285 
59.223 l 56.418 59.223 54.098 61.543 54.098 64.411 c 54.098 83.395 l 
54.098 86.262 56.418 88.59 59.285 88.59 c 78.262 88.59 l 81.133 88.59 
83.457 86.262 83.457 83.395 c h
83.457 64.411 m f
138.125 107.246 m 138.902 107.168 139.676 107.028 140.434 106.762 c 
143.758 105.606 146.156 102.883 147.008 99.61 c 149.18 97.743 l 150.695 
103.168 152.707 108.34 155.148 113.149 c 94.18 165.567 l 91.262 168.079 
86.938 168.079 84.027 165.567 c 2.719 95.657 l -0.555 92.852 -0.918 
87.934 1.879 84.672 c 3.426 82.879 5.605 81.961 7.797 81.961 c 9.59 
81.961 11.402 82.582 12.871 83.848 c 89.102 149.395 l h
138.125 107.246 m f
226.281 85.707 m 225.289 86.063 224.238 86.243 223.152 86.243 c 214.84 
86.243 205.863 75.879 199.531 66.039 c 198.625 73.559 195.445 81.414 
191.742 90.543 c 190.055 94.719 l 184.617 108.325 188.977 123.555 
194.355 132.469 c 194.891 133.36 194.844 134.485 194.238 135.325 c 
193.637 136.168 192.574 136.575 191.566 136.344 c 171.484 131.829 
154.883 104.938 153.871 77.848 c 151.512 80.188 148.945 81.657 146.668 
82.957 c 141.633 85.832 138.594 87.563 139.559 96.696 c 139.68 97.895 
138.969 99.024 137.832 99.422 c 136.699 99.821 135.43 99.371 134.777 
98.352 c 115.293 67.461 127.348 18.829 150.918 3.688 c 152.027 2.981 
153.457 3.204 154.297 4.188 c 154.789 4.762 154.941 5.942 154.816 6.692 
c 154.055 11.414 152.203 24.821 153.922 34.606 c 155.051 33.395 156.438 
32.602 157.688 31.879 c 159.891 30.625 161.793 29.539 162.977 26.246 c 
163.297 25.344 164.094 24.692 165.043 24.547 c 165.996 24.43 166.949 
24.821 167.508 25.598 c 170.07 29.094 171.215 34.52 172.426 40.274 c 
174.02 47.809 175.648 55.532 180.297 59.282 c 178.43 53.715 177.844 
46.954 180.406 40.528 c 181.402 38.071 l 184.348 30.77 186.484 25.504 
185.254 20.496 c 184.945 19.207 185.648 17.899 186.879 17.446 c 188.121 
16.993 189.508 17.539 190.102 18.711 c 192.426 23.356 195.418 27.579 
198.176 30.235 c 197.066 26.547 196.66 22.25 196.238 17.821 c 195.801 
13.125 195.336 8.266 194.047 3.891 c 193.738 2.844 194.117 1.715 195 
1.067 c 195.461 0.731 196 0.555 196.539 0.555 c 197.043 0.555 197.547 
0.711 197.988 1.004 c 201.816 3.59 205.156 6.914 207.914 10.883 c 
215.918 22.438 217.348 37.668 218.625 51.09 c 219.809 63.668 220.93 
75.543 227.176 81.368 c 227.84 81.985 228.137 82.903 227.949 83.789 c 
227.762 84.672 227.133 85.399 226.281 85.707 c h
226.281 85.707 m f
Q Q
showpage
%%Trailer
count op_count sub {pop} repeat
countdictstack dict_count sub {end} repeat
cairo_eps_state restore
%%EOF
