%!PS-Adobe-3.0 EPSF-3.0
%%Creator: cairo 1.10.2 (http://cairographics.org)
%%CreationDate: Wed Feb 25 11:07:49 2015
%%Pages: 1
%%BoundingBox: 0 -1 227 228
%%DocumentData: Clean7Bit
%%LanguageLevel: 2
%%EndComments
%%BeginProlog
/cairo_eps_state save def
/dict_count countdictstack def
/op_count count 1 sub def
userdict begin
/q { gsave } bind def
/Q { grestore } bind def
/cm { 6 array astore concat } bind def
/w { setlinewidth } bind def
/J { setlinecap } bind def
/j { setlinejoin } bind def
/M { setmiterlimit } bind def
/d { setdash } bind def
/m { moveto } bind def
/l { lineto } bind def
/c { curveto } bind def
/h { closepath } bind def
/re { exch dup neg 3 1 roll 5 3 roll moveto 0 rlineto
      0 exch rlineto 0 rlineto closepath } bind def
/S { stroke } bind def
/f { fill } bind def
/f* { eofill } bind def
/n { newpath } bind def
/W { clip } bind def
/W* { eoclip } bind def
/BT { } bind def
/ET { } bind def
/pdfmark where { pop globaldict /?pdfmark /exec load put }
    { globaldict begin /?pdfmark /pop load def /pdfmark
    /cleartomark load def end } ifelse
/BDC { mark 3 1 roll /BDC pdfmark } bind def
/EMC { mark /EMC pdfmark } bind def
/cairo_store_point { /cairo_point_y exch def /cairo_point_x exch def } def
/Tj { show currentpoint cairo_store_point } bind def
/TJ {
  {
    dup
    type /stringtype eq
    { show } { -0.001 mul 0 cairo_font_matrix dtransform rmoveto } ifelse
  } forall
  currentpoint cairo_store_point
} bind def
/cairo_selectfont { cairo_font_matrix aload pop pop pop 0 0 6 array astore
    cairo_font exch selectfont cairo_point_x cairo_point_y moveto } bind def
/Tf { pop /cairo_font exch def /cairo_font_matrix where
      { pop cairo_selectfont } if } bind def
/Td { matrix translate cairo_font_matrix matrix concatmatrix dup
      /cairo_font_matrix exch def dup 4 get exch 5 get cairo_store_point
      /cairo_font where { pop cairo_selectfont } if } bind def
/Tm { 2 copy 8 2 roll 6 array astore /cairo_font_matrix exch def
      cairo_store_point /cairo_font where { pop cairo_selectfont } if } bind def
/g { setgray } bind def
/rg { setrgbcolor } bind def
/d1 { setcachedevice } bind def
%%EndProlog
%%Page: 1 1
%%BeginPageSetup
%%PageBoundingBox: 0 -1 227 228
%%EndPageSetup
q 0 -1 227 229 rectclip q
0 227.999 227 -228 re W n
0 g
187.645 65.152 m 197.312 69.28 208.328 76.98 211.223 91.097 c 212.629 
97.925 211.305 104.437 207.59 108.98 c 204.258 113.077 199.199 115.327 
193.367 115.327 c 182.922 115.327 l 185.5 132.827 l 185.707 133.624 
185.805 134.452 185.805 135.257 c 185.805 150.511 149.383 158.491 
113.398 158.491 c 77.41 158.491 40.988 150.511 40.988 135.257 c 40.988 
134.452 41.09 133.624 41.297 132.827 c 54.645 42.007 l 55.27 28.273 
91.766 24.585 113.398 24.585 c 135.027 24.585 171.523 28.273 172.148 
42.007 c 174.973 61.183 l 176.797 61.542 179.289 62.155 182.152 63.077 
c 178.945 41.335 l 177.555 20.077 132.809 17.765 113.395 17.765 c 
93.984 17.765 49.238 20.077 47.844 41.335 c 44.156 66.421 l 15.945 
59.652 0 49.112 0 36.898 c 0 12.925 58.422 -0.001 113.398 -0.001 c 
168.375 -0.001 226.793 12.925 226.793 36.898 c 226.793 48.362 212.723 
58.362 187.645 65.152 c h
113.398 133.89 m 133.762 133.89 152.668 131.277 164.953 127.007 c 
153.969 123.292 136.305 120.234 113.398 120.234 c 90.488 120.234 72.824 
123.292 61.84 127.007 c 74.129 131.277 93.031 133.89 113.398 133.89 c h
181.719 107.124 m 193.363 107.124 l 196.738 107.124 199.477 105.98 
201.246 103.796 c 203.387 101.171 204.098 97.136 203.191 92.749 c 
200.207 78.136 184.664 72.132 176.246 69.913 c h
181.719 107.124 m f
83.438 181.511 m 80.512 179.066 76.5 175.726 76.5 169.249 c 76.5 
166.987 78.352 165.155 80.613 165.155 c 82.867 165.155 84.703 166.987 
84.703 169.249 c 84.703 171.788 86 172.968 88.695 175.218 c 91.625 
177.659 95.633 181.003 95.633 187.476 c 95.633 193.948 91.625 197.288 
88.695 199.734 c 86 201.98 84.703 203.183 84.703 205.706 c 84.703 
208.218 86 209.421 88.691 211.655 c 91.617 214.097 95.633 217.441 
95.633 223.905 c 95.633 226.167 93.797 227.999 91.535 227.999 c 89.281 
227.999 87.43 226.167 87.43 223.905 c 87.43 221.378 86.148 220.191 
83.441 217.952 c 80.512 215.511 76.5 212.171 76.5 205.702 c 76.5 
199.226 80.512 195.882 83.438 193.437 c 86.148 191.198 87.43 189.995 
87.43 187.476 c 87.43 184.956 86.148 183.757 83.438 181.511 c h
83.438 181.511 m f
110.77 181.511 m 107.844 179.066 103.832 175.726 103.832 169.249 c 
103.832 166.987 105.664 165.155 107.926 165.155 c 110.199 165.155 
112.031 166.987 112.031 169.249 c 112.031 171.788 113.332 172.968 
116.023 175.218 c 118.953 177.659 122.961 181.003 122.961 187.476 c 
122.961 193.948 118.953 197.288 116.023 199.734 c 113.332 201.98 
112.031 203.183 112.031 205.706 c 112.031 208.218 113.332 209.421 
116.02 211.655 c 118.949 214.097 122.961 217.441 122.961 223.905 c 
122.961 226.167 121.129 227.999 118.871 227.999 c 116.594 227.999 
114.762 226.167 114.762 223.905 c 114.762 221.378 113.461 220.191 
110.773 217.952 c 107.844 215.511 103.832 212.171 103.832 205.702 c 
103.832 199.226 107.844 195.882 110.77 193.437 c 113.461 191.198 
114.762 189.995 114.762 187.476 c 114.762 184.956 113.461 183.757 
110.77 181.511 c h
110.77 181.511 m f
138.098 181.511 m 135.176 179.066 131.16 175.726 131.16 169.249 c 
131.16 166.987 132.996 165.155 135.258 165.155 c 137.512 165.155 
139.363 166.987 139.363 169.249 c 139.363 171.788 140.645 172.968 
143.355 175.218 c 146.285 177.659 150.293 181.003 150.293 187.476 c 
150.293 193.948 146.285 197.288 143.355 199.734 c 140.645 201.98 
139.363 203.183 139.363 205.706 c 139.363 208.218 140.645 209.421 
143.352 211.655 c 146.281 214.097 150.293 217.441 150.293 223.905 c 
150.293 226.167 148.441 227.999 146.18 227.999 c 143.926 227.999 142.09 
226.167 142.09 223.905 c 142.09 221.378 140.793 220.191 138.102 217.952 
c 135.176 215.511 131.16 212.171 131.16 205.702 c 131.16 199.226 
135.176 195.882 138.098 193.437 c 140.793 191.198 142.09 189.995 142.09 
187.476 c 142.09 184.956 140.793 183.757 138.098 181.511 c h
138.098 181.511 m f
Q Q
showpage
%%Trailer
count op_count sub {pop} repeat
countdictstack dict_count sub {end} repeat
cairo_eps_state restore
%%EOF
