%!PS-Adobe-3.0 EPSF-3.0
%%Creator: cairo 1.10.2 (http://cairographics.org)
%%CreationDate: Wed Feb 18 16:05:35 2015
%%Pages: 1
%%BoundingBox: 0 -1 228 151
%%DocumentData: Clean7Bit
%%LanguageLevel: 2
%%EndComments
%%BeginProlog
/cairo_eps_state save def
/dict_count countdictstack def
/op_count count 1 sub def
userdict begin
/q { gsave } bind def
/Q { grestore } bind def
/cm { 6 array astore concat } bind def
/w { setlinewidth } bind def
/J { setlinecap } bind def
/j { setlinejoin } bind def
/M { setmiterlimit } bind def
/d { setdash } bind def
/m { moveto } bind def
/l { lineto } bind def
/c { curveto } bind def
/h { closepath } bind def
/re { exch dup neg 3 1 roll 5 3 roll moveto 0 rlineto
      0 exch rlineto 0 rlineto closepath } bind def
/S { stroke } bind def
/f { fill } bind def
/f* { eofill } bind def
/n { newpath } bind def
/W { clip } bind def
/W* { eoclip } bind def
/BT { } bind def
/ET { } bind def
/pdfmark where { pop globaldict /?pdfmark /exec load put }
    { globaldict begin /?pdfmark /pop load def /pdfmark
    /cleartomark load def end } ifelse
/BDC { mark 3 1 roll /BDC pdfmark } bind def
/EMC { mark /EMC pdfmark } bind def
/cairo_store_point { /cairo_point_y exch def /cairo_point_x exch def } def
/Tj { show currentpoint cairo_store_point } bind def
/TJ {
  {
    dup
    type /stringtype eq
    { show } { -0.001 mul 0 cairo_font_matrix dtransform rmoveto } ifelse
  } forall
  currentpoint cairo_store_point
} bind def
/cairo_selectfont { cairo_font_matrix aload pop pop pop 0 0 6 array astore
    cairo_font exch selectfont cairo_point_x cairo_point_y moveto } bind def
/Tf { pop /cairo_font exch def /cairo_font_matrix where
      { pop cairo_selectfont } if } bind def
/Td { matrix translate cairo_font_matrix matrix concatmatrix dup
      /cairo_font_matrix exch def dup 4 get exch 5 get cairo_store_point
      /cairo_font where { pop cairo_selectfont } if } bind def
/Tm { 2 copy 8 2 roll 6 array astore /cairo_font_matrix exch def
      cairo_store_point /cairo_font where { pop cairo_selectfont } if } bind def
/g { setgray } bind def
/rg { setrgbcolor } bind def
/d1 { setcachedevice } bind def
%%EndProlog
%%Page: 1 1
%%BeginPageSetup
%%PageBoundingBox: 0 -1 228 151
%%EndPageSetup
q 0 -1 228 152 rectclip q
0 150.278 228 -151 re W n
0 g
217.641 150.278 m 10.359 150.278 l 4.641 150.278 0 145.634 0 139.911 c 
0 10.364 l 0 4.646 4.641 0.001 10.359 0.001 c 217.641 0.001 l 223.359 
0.001 228 4.646 228 10.364 c 228 139.911 l 228 145.634 223.359 150.278 
217.641 150.278 c h
207.273 20.728 m 20.727 20.728 l 20.727 129.552 l 207.273 129.552 l h
207.273 20.728 m f
71.266 34.962 m 82 34.962 92.082 39.142 99.664 46.724 c 103.27 50.314 
106.074 54.489 108.059 59.013 c 130.48 59.009 l 131.914 59.009 133.277 
59.603 134.262 60.649 c 139.25 65.966 l 144.195 60.661 l 145.176 59.618 
146.547 59.013 147.98 59.013 c 149.418 59.013 150.789 59.61 151.766 
60.657 c 156.734 65.966 l 161.707 60.657 l 162.684 59.61 164.059 59.013 
165.492 59.013 c 165.496 59.013 l 166.922 59.013 168.297 59.618 169.277 
60.661 c 174.227 65.966 l 179.223 60.649 l 180.254 59.552 181.727 
58.919 183.207 59.017 c 184.707 59.083 186.109 59.79 187.047 60.97 c 
195.777 71.903 l 197.535 74.11 197.211 77.306 195.043 79.118 c 181.91 
90.052 l 180.98 90.829 179.801 91.255 178.594 91.255 c 108.031 91.255 l 
101.812 105.403 87.684 115.317 71.266 115.317 c 49.121 115.317 31.098 
97.29 31.086 75.13 c 31.094 52.982 49.117 34.962 71.266 34.962 c h
170.633 83.384 m 172.777 83.384 174.52 81.642 174.52 79.493 c 174.52 
77.353 172.777 75.61 170.633 75.61 c 111.414 75.61 l 111.379 78.271 
111.102 80.864 110.57 83.384 c h
53.781 86.075 m 59.809 86.067 64.715 81.157 64.719 75.138 c 64.715 
69.103 59.809 64.2 53.781 64.2 c 47.738 64.204 42.848 69.107 42.855 
75.138 c 42.855 81.157 47.738 86.064 53.781 86.075 c h
53.781 86.075 m f
121.793 102.817 m 186.176 102.817 l 190.469 102.817 193.949 106.298 
193.949 110.587 c 193.949 114.88 190.469 118.36 186.176 118.36 c 
121.793 118.36 l 117.5 118.36 114.02 114.88 114.02 110.587 c 114.02 
106.298 117.5 102.817 121.793 102.817 c h
121.793 102.817 m f
Q Q
showpage
%%Trailer
count op_count sub {pop} repeat
countdictstack dict_count sub {end} repeat
cairo_eps_state restore
%%EOF
