%!PS-Adobe-3.0 EPSF-3.0
%%Creator: cairo 1.10.2 (http://cairographics.org)
%%CreationDate: Wed Feb 25 11:07:26 2015
%%Pages: 1
%%BoundingBox: 0 -1 228 177
%%DocumentData: Clean7Bit
%%LanguageLevel: 2
%%EndComments
%%BeginProlog
/cairo_eps_state save def
/dict_count countdictstack def
/op_count count 1 sub def
userdict begin
/q { gsave } bind def
/Q { grestore } bind def
/cm { 6 array astore concat } bind def
/w { setlinewidth } bind def
/J { setlinecap } bind def
/j { setlinejoin } bind def
/M { setmiterlimit } bind def
/d { setdash } bind def
/m { moveto } bind def
/l { lineto } bind def
/c { curveto } bind def
/h { closepath } bind def
/re { exch dup neg 3 1 roll 5 3 roll moveto 0 rlineto
      0 exch rlineto 0 rlineto closepath } bind def
/S { stroke } bind def
/f { fill } bind def
/f* { eofill } bind def
/n { newpath } bind def
/W { clip } bind def
/W* { eoclip } bind def
/BT { } bind def
/ET { } bind def
/pdfmark where { pop globaldict /?pdfmark /exec load put }
    { globaldict begin /?pdfmark /pop load def /pdfmark
    /cleartomark load def end } ifelse
/BDC { mark 3 1 roll /BDC pdfmark } bind def
/EMC { mark /EMC pdfmark } bind def
/cairo_store_point { /cairo_point_y exch def /cairo_point_x exch def } def
/Tj { show currentpoint cairo_store_point } bind def
/TJ {
  {
    dup
    type /stringtype eq
    { show } { -0.001 mul 0 cairo_font_matrix dtransform rmoveto } ifelse
  } forall
  currentpoint cairo_store_point
} bind def
/cairo_selectfont { cairo_font_matrix aload pop pop pop 0 0 6 array astore
    cairo_font exch selectfont cairo_point_x cairo_point_y moveto } bind def
/Tf { pop /cairo_font exch def /cairo_font_matrix where
      { pop cairo_selectfont } if } bind def
/Td { matrix translate cairo_font_matrix matrix concatmatrix dup
      /cairo_font_matrix exch def dup 4 get exch 5 get cairo_store_point
      /cairo_font where { pop cairo_selectfont } if } bind def
/Tm { 2 copy 8 2 roll 6 array astore /cairo_font_matrix exch def
      cairo_store_point /cairo_font where { pop cairo_selectfont } if } bind def
/g { setgray } bind def
/rg { setrgbcolor } bind def
/d1 { setcachedevice } bind def
%%EndProlog
%%Page: 1 1
%%BeginPageSetup
%%PageBoundingBox: 0 -1 228 177
%%EndPageSetup
q 0 -1 228 178 rectclip q
0 176.185 228 -177 re W n
0 g
217.637 176.185 m 10.363 176.185 l 4.637 176.185 0 171.54 0 165.818 c 0 
10.364 l 0 4.642 4.637 0.001 10.363 0.001 c 16.086 0.001 20.727 4.642 
20.727 10.364 c 20.727 155.454 l 75.141 155.454 l 75.141 150.224 l 
70.059 149.048 65.992 146.243 64.027 142.497 c 36.273 142.497 l 33.41 
142.497 31.094 140.181 31.094 137.318 c 31.094 28.497 l 31.094 25.638 
33.41 23.318 36.273 23.318 c 202.094 23.318 l 204.953 23.318 207.273 
25.638 207.273 28.497 c 207.273 137.318 l 207.273 140.181 204.953 
142.501 202.094 142.501 c 174.336 142.501 l 172.371 146.243 168.305 
149.048 163.223 150.224 c 163.223 155.454 l 217.637 155.454 l 223.363 
155.454 228 160.099 228 165.822 c 228 171.544 223.363 176.185 217.637 
176.185 c h
196.906 33.685 m 41.457 33.685 l 41.457 132.138 l 196.906 132.138 l h
152.859 150.224 m 147.781 149.044 143.715 146.243 141.758 142.501 c 
96.609 142.501 l 94.648 146.243 90.582 149.048 85.504 150.224 c 85.504 
155.454 l 152.859 155.454 l h
152.859 150.224 m f
63.383 64.169 m 53.922 64.169 55.23 71.579 50.156 71.579 c 47.875 
71.579 46.223 69.986 46.223 67.704 c 46.223 63.255 51.527 57.325 63.383 
57.325 c 74.668 57.325 80.258 62.857 80.258 70.271 c 80.258 75.056 
78.09 80.13 69.539 82.072 c 61.73 83.837 l 58.766 84.521 55.344 85.431 
55.344 88.279 c 55.344 91.134 57.738 93.13 62.07 93.13 c 70.793 93.13 
69.992 87.029 74.324 87.029 c 76.609 87.029 78.602 88.392 78.602 90.732 
c 78.602 96.204 69.992 100.314 62.699 100.314 c 54.773 100.314 46.336 
96.892 46.336 87.771 c 46.336 83.38 47.875 78.704 56.371 76.536 c 
66.914 73.857 l 70.105 73.06 70.906 71.236 70.906 69.579 c 70.906 
66.849 68.227 64.169 63.383 64.169 c h
63.383 64.169 m f
87.605 57.552 m 89.828 57.552 91.137 58.298 91.77 60.118 c 94.223 
66.962 l 109.27 66.962 l 111.664 60.118 l 112.348 58.298 113.832 57.552 
115.883 57.552 c 118.277 57.552 120.273 59.38 120.273 61.657 c 120.273 
62.689 119.699 64.337 119.359 65.251 c 108.07 96.665 l 107.043 99.572 
105.164 100.083 103.055 100.083 c 100.828 100.083 l 98.551 100.083 
97.07 99.341 96.27 97.236 c 84.188 65.255 l 83.844 64.337 83.273 62.689 
83.273 61.657 c 83.273 59.154 85.039 57.552 87.605 57.552 c h
101.801 89.935 m 101.918 89.935 l 107.219 73.458 l 96.27 73.458 l h
101.801 89.935 m f
130.582 58.298 m 150.078 58.298 l 152.758 58.298 154.926 59.665 154.926 
62.228 c 154.926 64.794 152.758 66.161 150.078 66.161 c 134.461 66.161 
l 134.461 95.407 l 134.461 98.204 132.641 100.079 129.785 100.079 c 
126.934 100.079 125.109 98.204 125.109 95.407 c 125.109 63.771 l 
125.109 59.607 127.281 58.298 130.582 58.298 c h
130.582 58.298 m f
165.637 58.298 m 188.039 58.298 l 190.777 58.298 192.77 59.091 192.77 
62.06 c 192.77 65.025 190.777 65.822 188.039 65.822 c 169.512 65.822 l 
169.512 75.743 l 185.359 75.743 l 187.812 75.743 189.754 76.427 189.754 
79.333 c 189.754 82.243 187.812 82.923 185.359 82.923 c 169.512 82.923 
l 169.512 91.818 l 187.586 91.818 l 190.32 91.818 192.316 92.614 
192.316 95.579 c 192.316 98.544 190.32 99.341 187.586 99.341 c 165.637 
99.341 l 162.332 99.341 160.164 98.032 160.164 93.872 c 160.164 63.771 
l 160.164 59.607 162.332 58.298 165.637 58.298 c h
165.637 58.298 m f
Q Q
showpage
%%Trailer
count op_count sub {pop} repeat
countdictstack dict_count sub {end} repeat
cairo_eps_state restore
%%EOF
