%!PS-Adobe-3.0 EPSF-3.0
%%Creator: cairo 1.10.2 (http://cairographics.org)
%%CreationDate: Wed Feb 18 16:05:38 2015
%%Pages: 1
%%BoundingBox: 0 -1 228 219
%%DocumentData: Clean7Bit
%%LanguageLevel: 2
%%EndComments
%%BeginProlog
/cairo_eps_state save def
/dict_count countdictstack def
/op_count count 1 sub def
userdict begin
/q { gsave } bind def
/Q { grestore } bind def
/cm { 6 array astore concat } bind def
/w { setlinewidth } bind def
/J { setlinecap } bind def
/j { setlinejoin } bind def
/M { setmiterlimit } bind def
/d { setdash } bind def
/m { moveto } bind def
/l { lineto } bind def
/c { curveto } bind def
/h { closepath } bind def
/re { exch dup neg 3 1 roll 5 3 roll moveto 0 rlineto
      0 exch rlineto 0 rlineto closepath } bind def
/S { stroke } bind def
/f { fill } bind def
/f* { eofill } bind def
/n { newpath } bind def
/W { clip } bind def
/W* { eoclip } bind def
/BT { } bind def
/ET { } bind def
/pdfmark where { pop globaldict /?pdfmark /exec load put }
    { globaldict begin /?pdfmark /pop load def /pdfmark
    /cleartomark load def end } ifelse
/BDC { mark 3 1 roll /BDC pdfmark } bind def
/EMC { mark /EMC pdfmark } bind def
/cairo_store_point { /cairo_point_y exch def /cairo_point_x exch def } def
/Tj { show currentpoint cairo_store_point } bind def
/TJ {
  {
    dup
    type /stringtype eq
    { show } { -0.001 mul 0 cairo_font_matrix dtransform rmoveto } ifelse
  } forall
  currentpoint cairo_store_point
} bind def
/cairo_selectfont { cairo_font_matrix aload pop pop pop 0 0 6 array astore
    cairo_font exch selectfont cairo_point_x cairo_point_y moveto } bind def
/Tf { pop /cairo_font exch def /cairo_font_matrix where
      { pop cairo_selectfont } if } bind def
/Td { matrix translate cairo_font_matrix matrix concatmatrix dup
      /cairo_font_matrix exch def dup 4 get exch 5 get cairo_store_point
      /cairo_font where { pop cairo_selectfont } if } bind def
/Tm { 2 copy 8 2 roll 6 array astore /cairo_font_matrix exch def
      cairo_store_point /cairo_font where { pop cairo_selectfont } if } bind def
/g { setgray } bind def
/rg { setrgbcolor } bind def
/d1 { setcachedevice } bind def
%%EndProlog
%%Page: 1 1
%%BeginPageSetup
%%PageBoundingBox: 0 -1 228 219
%%EndPageSetup
q 0 -1 228 220 rectclip q
0 218.006 229 -219 re W n
0 g
61.594 155.686 18.891 -21.715 re f
147.516 155.686 18.891 -21.715 re f
61.594 51.463 18.891 -21.715 re f
147.516 51.463 18.891 -21.715 re f
32.762 215.342 m 31.781 216.995 30.012 218.006 28.086 218.006 c 26.168 
218.006 24.395 216.995 23.414 215.342 c 0.762 177.065 l 0.258 176.229 0 
175.272 0 174.307 c 0 5.432 l 0 2.432 2.434 -0.001 5.434 -0.001 c 
50.734 -0.001 l 53.734 -0.001 56.16 2.432 56.16 5.432 c 56.16 174.307 l 
56.16 175.272 55.902 176.229 55.406 177.065 c h
32.762 215.342 m f
118.672 215.342 m 116.715 218.647 111.281 218.647 109.328 215.342 c 
86.668 177.065 l 86.172 176.229 85.914 175.272 85.914 174.307 c 85.914 
5.432 l 85.914 2.432 88.344 -0.001 91.34 -0.001 c 136.66 -0.001 l 
139.656 -0.001 142.086 2.432 142.086 5.432 c 142.086 174.307 l 142.086 
175.272 141.828 176.229 141.328 177.065 c h
118.672 215.342 m f
227.238 177.065 m 204.586 215.342 l 202.629 218.647 197.191 218.643 
195.238 215.342 c 172.594 177.065 l 172.098 176.229 171.84 175.272 
171.84 174.307 c 171.84 5.432 l 171.84 2.432 174.266 -0.001 177.266 
-0.001 c 222.566 -0.001 l 225.566 -0.001 228 2.432 228 5.432 c 228 
174.307 l 228 175.272 227.742 176.229 227.238 177.065 c h
227.238 177.065 m f
Q Q
showpage
%%Trailer
count op_count sub {pop} repeat
countdictstack dict_count sub {end} repeat
cairo_eps_state restore
%%EOF
