%!PS-Adobe-3.0 EPSF-3.0
%%Creator: cairo 1.10.2 (http://cairographics.org)
%%CreationDate: Wed Feb 18 16:05:45 2015
%%Pages: 1
%%BoundingBox: 0 -1 228 213
%%DocumentData: Clean7Bit
%%LanguageLevel: 2
%%EndComments
%%BeginProlog
/cairo_eps_state save def
/dict_count countdictstack def
/op_count count 1 sub def
userdict begin
/q { gsave } bind def
/Q { grestore } bind def
/cm { 6 array astore concat } bind def
/w { setlinewidth } bind def
/J { setlinecap } bind def
/j { setlinejoin } bind def
/M { setmiterlimit } bind def
/d { setdash } bind def
/m { moveto } bind def
/l { lineto } bind def
/c { curveto } bind def
/h { closepath } bind def
/re { exch dup neg 3 1 roll 5 3 roll moveto 0 rlineto
      0 exch rlineto 0 rlineto closepath } bind def
/S { stroke } bind def
/f { fill } bind def
/f* { eofill } bind def
/n { newpath } bind def
/W { clip } bind def
/W* { eoclip } bind def
/BT { } bind def
/ET { } bind def
/pdfmark where { pop globaldict /?pdfmark /exec load put }
    { globaldict begin /?pdfmark /pop load def /pdfmark
    /cleartomark load def end } ifelse
/BDC { mark 3 1 roll /BDC pdfmark } bind def
/EMC { mark /EMC pdfmark } bind def
/cairo_store_point { /cairo_point_y exch def /cairo_point_x exch def } def
/Tj { show currentpoint cairo_store_point } bind def
/TJ {
  {
    dup
    type /stringtype eq
    { show } { -0.001 mul 0 cairo_font_matrix dtransform rmoveto } ifelse
  } forall
  currentpoint cairo_store_point
} bind def
/cairo_selectfont { cairo_font_matrix aload pop pop pop 0 0 6 array astore
    cairo_font exch selectfont cairo_point_x cairo_point_y moveto } bind def
/Tf { pop /cairo_font exch def /cairo_font_matrix where
      { pop cairo_selectfont } if } bind def
/Td { matrix translate cairo_font_matrix matrix concatmatrix dup
      /cairo_font_matrix exch def dup 4 get exch 5 get cairo_store_point
      /cairo_font where { pop cairo_selectfont } if } bind def
/Tm { 2 copy 8 2 roll 6 array astore /cairo_font_matrix exch def
      cairo_store_point /cairo_font where { pop cairo_selectfont } if } bind def
/g { setgray } bind def
/rg { setrgbcolor } bind def
/d1 { setcachedevice } bind def
%%EndProlog
%%Page: 1 1
%%BeginPageSetup
%%PageBoundingBox: 0 -1 228 213
%%EndPageSetup
q 0 -1 228 214 rectclip q
0 212.455 229 -213 re W n
0 g
224.395 120.826 m 120.758 209.951 l 116.871 213.291 111.129 213.291 
107.242 209.951 c 3.605 120.826 l -0.73 117.092 -1.227 110.549 2.504 
106.209 c 6.246 101.873 12.785 101.381 17.121 105.108 c 114 188.424 l 
210.879 105.108 l 212.84 103.428 215.238 102.608 217.629 102.608 c 
220.547 102.608 223.449 103.826 225.496 106.209 c 229.227 110.549 
228.73 117.092 224.395 120.826 c h
224.395 120.826 m f
114 116.592 m 101.141 116.592 90.68 106.135 90.68 93.276 c 90.68 80.416 
101.141 69.951 114 69.951 c 126.859 69.951 137.32 80.416 137.32 93.276 
c 137.32 106.135 126.859 116.592 114 116.592 c h
114 116.592 m f
117.383 173.893 m 115.434 175.569 112.566 175.569 110.617 173.893 c 
32.52 106.526 l 31.379 105.545 30.723 104.112 30.723 102.604 c 30.723 
5.182 l 30.723 2.323 33.043 -0.002 35.902 -0.002 c 192.098 -0.002 l 
194.957 -0.002 197.277 2.323 197.277 5.182 c 197.277 102.604 l 197.277 
104.112 196.621 105.545 195.484 106.526 c h
118.082 18.834 m 117.102 17.576 115.598 16.838 114 16.838 c 112.402 
16.838 110.898 17.576 109.918 18.834 c 105.824 24.073 69.953 70.674 
69.953 93.272 c 69.953 117.565 89.715 137.319 114 137.319 c 138.285 
137.319 158.047 117.565 158.047 93.272 c 158.047 70.674 122.172 24.073 
118.082 18.834 c h
118.082 18.834 m f
Q Q
showpage
%%Trailer
count op_count sub {pop} repeat
countdictstack dict_count sub {end} repeat
cairo_eps_state restore
%%EOF
