%!PS-Adobe-3.0 EPSF-3.0
%%Creator: cairo 1.10.2 (http://cairographics.org)
%%CreationDate: Wed Feb 25 11:07:19 2015
%%Pages: 1
%%BoundingBox: 0 -1 228 163
%%DocumentData: Clean7Bit
%%LanguageLevel: 2
%%EndComments
%%BeginProlog
/cairo_eps_state save def
/dict_count countdictstack def
/op_count count 1 sub def
userdict begin
/q { gsave } bind def
/Q { grestore } bind def
/cm { 6 array astore concat } bind def
/w { setlinewidth } bind def
/J { setlinecap } bind def
/j { setlinejoin } bind def
/M { setmiterlimit } bind def
/d { setdash } bind def
/m { moveto } bind def
/l { lineto } bind def
/c { curveto } bind def
/h { closepath } bind def
/re { exch dup neg 3 1 roll 5 3 roll moveto 0 rlineto
      0 exch rlineto 0 rlineto closepath } bind def
/S { stroke } bind def
/f { fill } bind def
/f* { eofill } bind def
/n { newpath } bind def
/W { clip } bind def
/W* { eoclip } bind def
/BT { } bind def
/ET { } bind def
/pdfmark where { pop globaldict /?pdfmark /exec load put }
    { globaldict begin /?pdfmark /pop load def /pdfmark
    /cleartomark load def end } ifelse
/BDC { mark 3 1 roll /BDC pdfmark } bind def
/EMC { mark /EMC pdfmark } bind def
/cairo_store_point { /cairo_point_y exch def /cairo_point_x exch def } def
/Tj { show currentpoint cairo_store_point } bind def
/TJ {
  {
    dup
    type /stringtype eq
    { show } { -0.001 mul 0 cairo_font_matrix dtransform rmoveto } ifelse
  } forall
  currentpoint cairo_store_point
} bind def
/cairo_selectfont { cairo_font_matrix aload pop pop pop 0 0 6 array astore
    cairo_font exch selectfont cairo_point_x cairo_point_y moveto } bind def
/Tf { pop /cairo_font exch def /cairo_font_matrix where
      { pop cairo_selectfont } if } bind def
/Td { matrix translate cairo_font_matrix matrix concatmatrix dup
      /cairo_font_matrix exch def dup 4 get exch 5 get cairo_store_point
      /cairo_font where { pop cairo_selectfont } if } bind def
/Tm { 2 copy 8 2 roll 6 array astore /cairo_font_matrix exch def
      cairo_store_point /cairo_font where { pop cairo_selectfont } if } bind def
/g { setgray } bind def
/rg { setrgbcolor } bind def
/d1 { setcachedevice } bind def
%%EndProlog
%%Page: 1 1
%%BeginPageSetup
%%PageBoundingBox: 0 -1 228 163
%%EndPageSetup
q 0 -1 228 164 rectclip q
0 162.161 228 -163 re W n
0 g
89.566 134.036 m 87.688 135.669 84.883 135.669 83 134.036 c 23.672 
82.837 l 22.566 81.888 21.934 80.493 21.934 79.032 c 21.934 5.028 l 
21.934 2.251 24.184 0.001 26.961 0.001 c 145.617 0.001 l 148.395 0.001 
150.648 2.251 150.648 5.028 c 150.648 79.032 l 150.648 80.493 150.012 
81.888 148.906 82.837 c h
86.281 123.583 m 140.586 76.727 l 140.586 51.884 l 31.988 51.884 l 
31.988 76.727 l h
52.383 22.993 m 52.383 41.38 l 52.383 44.161 54.629 46.407 57.414 
46.407 c 75.785 46.407 l 78.566 46.407 80.812 44.161 80.812 41.38 c 
80.812 22.993 l 80.812 20.216 78.566 17.966 75.785 17.966 c 57.414 
17.966 l 54.629 17.966 52.383 20.216 52.383 22.993 c h
91.758 22.993 m 91.758 41.38 l 91.758 44.161 94.004 46.407 96.785 
46.407 c 115.156 46.407 l 117.941 46.407 120.184 44.161 120.184 41.38 c 
120.184 22.993 l 120.184 20.216 117.941 17.966 115.156 17.966 c 96.785 
17.966 l 94.004 17.966 91.758 20.216 91.758 22.993 c h
91.758 22.993 m f
91.207 160.341 m 88.375 162.766 84.188 162.766 81.367 160.341 c 2.629 
92.641 l -0.535 89.931 -0.891 85.157 1.82 82.009 c 3.316 80.266 5.43 
79.376 7.551 79.376 c 9.285 79.376 11.043 79.977 12.461 81.2 c 86.281 
144.677 l 160.117 81.2 l 163.281 78.473 168.039 78.837 170.75 82.009 c 
173.469 85.157 173.113 89.931 169.949 92.641 c h
91.207 160.341 m f
57.414 57.352 m 75.789 57.352 l 78.57 57.352 80.816 59.606 80.816 
62.384 c 80.816 80.77 l 80.816 83.548 78.566 85.798 75.789 85.798 c 
57.414 85.798 l 54.633 85.798 52.383 83.548 52.383 80.77 c 52.383 
62.384 l 52.383 59.606 54.629 57.352 57.414 57.352 c h
57.414 57.352 m f
96.785 57.352 m 115.156 57.352 l 117.941 57.352 120.184 59.606 120.184 
62.384 c 120.184 80.77 l 120.184 83.548 117.941 85.798 115.156 85.798 c 
96.785 85.798 l 94.004 85.798 91.758 83.548 91.758 80.77 c 91.758 
62.384 l 91.758 59.606 94.004 57.352 96.785 57.352 c h
96.785 57.352 m f
225.664 128.048 m 201.312 157.286 l 197.492 161.876 189.684 161.876 
185.863 157.286 c 161.5 128.048 l 157.941 123.79 158.52 117.442 162.793 
113.888 c 167.055 110.329 173.398 110.907 176.953 115.173 c 183.535 
123.075 l 183.535 10.059 l 183.535 4.509 188.031 0.001 193.582 0.001 c 
199.141 0.001 203.645 4.509 203.645 10.059 c 203.645 123.075 l 210.223 
115.173 l 212.211 112.782 215.066 111.556 217.957 111.556 c 220.219 
111.556 222.504 112.321 224.387 113.888 c 228.648 117.442 229.223 
123.79 225.664 128.048 c h
225.664 128.048 m f
Q Q
showpage
%%Trailer
count op_count sub {pop} repeat
countdictstack dict_count sub {end} repeat
cairo_eps_state restore
%%EOF
