%!PS-Adobe-3.0 EPSF-3.0
%%Creator: cairo 1.10.2 (http://cairographics.org)
%%CreationDate: Wed Feb 18 16:06:25 2015
%%Pages: 1
%%BoundingBox: 0 -1 228 213
%%DocumentData: Clean7Bit
%%LanguageLevel: 2
%%EndComments
%%BeginProlog
/cairo_eps_state save def
/dict_count countdictstack def
/op_count count 1 sub def
userdict begin
/q { gsave } bind def
/Q { grestore } bind def
/cm { 6 array astore concat } bind def
/w { setlinewidth } bind def
/J { setlinecap } bind def
/j { setlinejoin } bind def
/M { setmiterlimit } bind def
/d { setdash } bind def
/m { moveto } bind def
/l { lineto } bind def
/c { curveto } bind def
/h { closepath } bind def
/re { exch dup neg 3 1 roll 5 3 roll moveto 0 rlineto
      0 exch rlineto 0 rlineto closepath } bind def
/S { stroke } bind def
/f { fill } bind def
/f* { eofill } bind def
/n { newpath } bind def
/W { clip } bind def
/W* { eoclip } bind def
/BT { } bind def
/ET { } bind def
/pdfmark where { pop globaldict /?pdfmark /exec load put }
    { globaldict begin /?pdfmark /pop load def /pdfmark
    /cleartomark load def end } ifelse
/BDC { mark 3 1 roll /BDC pdfmark } bind def
/EMC { mark /EMC pdfmark } bind def
/cairo_store_point { /cairo_point_y exch def /cairo_point_x exch def } def
/Tj { show currentpoint cairo_store_point } bind def
/TJ {
  {
    dup
    type /stringtype eq
    { show } { -0.001 mul 0 cairo_font_matrix dtransform rmoveto } ifelse
  } forall
  currentpoint cairo_store_point
} bind def
/cairo_selectfont { cairo_font_matrix aload pop pop pop 0 0 6 array astore
    cairo_font exch selectfont cairo_point_x cairo_point_y moveto } bind def
/Tf { pop /cairo_font exch def /cairo_font_matrix where
      { pop cairo_selectfont } if } bind def
/Td { matrix translate cairo_font_matrix matrix concatmatrix dup
      /cairo_font_matrix exch def dup 4 get exch 5 get cairo_store_point
      /cairo_font where { pop cairo_selectfont } if } bind def
/Tm { 2 copy 8 2 roll 6 array astore /cairo_font_matrix exch def
      cairo_store_point /cairo_font where { pop cairo_selectfont } if } bind def
/g { setgray } bind def
/rg { setrgbcolor } bind def
/d1 { setcachedevice } bind def
%%EndProlog
%%Page: 1 1
%%BeginPageSetup
%%PageBoundingBox: 0 -1 228 213
%%EndPageSetup
q 0 -1 228 214 rectclip q
0 212.454 229 -213 re W n
0 g
224.395 120.825 m 120.758 209.95 l 116.871 213.29 111.129 213.29 
107.242 209.95 c 3.605 120.825 l -0.738 117.094 -1.223 110.551 2.508 
106.212 c 6.238 101.872 12.789 101.383 17.121 105.11 c 114 188.423 l 
210.879 105.11 l 212.836 103.426 215.234 102.606 217.629 102.606 c 
220.547 102.606 223.445 103.829 225.492 106.212 c 229.223 110.548 
228.738 117.094 224.395 120.825 c h
224.395 120.825 m f
142.852 62.325 m 137.609 62.325 136.012 56.286 136.012 49.442 c 136.012 
42.145 137.609 36.559 142.852 36.559 c 148.098 36.559 149.699 42.145 
149.699 49.442 c 149.699 56.286 148.098 62.325 142.852 62.325 c h
142.852 62.325 m f
85.164 101.321 m 79.918 101.321 78.324 95.274 78.324 88.434 c 78.324 
81.137 79.918 75.551 85.164 75.551 c 90.406 75.551 92 81.137 92 88.434 
c 92 95.274 90.406 101.321 85.164 101.321 c h
85.164 101.321 m f
117.383 173.891 m 115.445 175.567 112.555 175.567 110.613 173.891 c 
32.516 106.528 l 31.379 105.544 30.723 104.11 30.723 102.606 c 30.723 
5.184 l 30.723 2.321 33.039 0.001 35.906 0.001 c 192.094 0.001 l 
194.957 0.001 197.277 2.321 197.277 5.184 c 197.277 102.606 l 197.277 
104.11 196.621 105.544 195.48 106.528 c h
66.012 88.434 m 66.012 100.751 71.367 110.212 85.164 110.212 c 98.965 
110.212 104.316 100.751 104.316 88.434 c 104.316 76.126 98.965 66.661 
85.164 66.661 c 71.367 66.661 66.012 76.126 66.012 88.434 c h
92.922 24.704 m 90.406 24.704 88.469 26.637 88.469 28.579 c 88.469 
29.716 88.93 30.969 89.719 32.458 c 130.773 109.985 l 131.57 111.466 
132.934 113.18 135.219 113.18 c 137.719 113.18 139.66 111.239 139.66 
109.301 c 139.66 108.165 139.203 106.907 138.41 105.426 c 97.363 27.895 
l 96.559 26.411 95.191 24.704 92.922 24.704 c h
142.852 27.665 m 129.055 27.665 123.699 37.13 123.699 49.442 c 123.699 
61.758 129.055 71.219 142.852 71.219 c 156.645 71.219 162.008 61.758 
162.008 49.442 c 162.012 37.13 156.645 27.665 142.852 27.665 c h
142.852 27.665 m f
Q Q
showpage
%%Trailer
count op_count sub {pop} repeat
countdictstack dict_count sub {end} repeat
cairo_eps_state restore
%%EOF
