%!PS-Adobe-3.0 EPSF-3.0
%%Creator: cairo 1.10.2 (http://cairographics.org)
%%CreationDate: Wed Feb 18 16:05:34 2015
%%Pages: 1
%%BoundingBox: 0 -1 228 174
%%DocumentData: Clean7Bit
%%LanguageLevel: 2
%%EndComments
%%BeginProlog
/cairo_eps_state save def
/dict_count countdictstack def
/op_count count 1 sub def
userdict begin
/q { gsave } bind def
/Q { grestore } bind def
/cm { 6 array astore concat } bind def
/w { setlinewidth } bind def
/J { setlinecap } bind def
/j { setlinejoin } bind def
/M { setmiterlimit } bind def
/d { setdash } bind def
/m { moveto } bind def
/l { lineto } bind def
/c { curveto } bind def
/h { closepath } bind def
/re { exch dup neg 3 1 roll 5 3 roll moveto 0 rlineto
      0 exch rlineto 0 rlineto closepath } bind def
/S { stroke } bind def
/f { fill } bind def
/f* { eofill } bind def
/n { newpath } bind def
/W { clip } bind def
/W* { eoclip } bind def
/BT { } bind def
/ET { } bind def
/pdfmark where { pop globaldict /?pdfmark /exec load put }
    { globaldict begin /?pdfmark /pop load def /pdfmark
    /cleartomark load def end } ifelse
/BDC { mark 3 1 roll /BDC pdfmark } bind def
/EMC { mark /EMC pdfmark } bind def
/cairo_store_point { /cairo_point_y exch def /cairo_point_x exch def } def
/Tj { show currentpoint cairo_store_point } bind def
/TJ {
  {
    dup
    type /stringtype eq
    { show } { -0.001 mul 0 cairo_font_matrix dtransform rmoveto } ifelse
  } forall
  currentpoint cairo_store_point
} bind def
/cairo_selectfont { cairo_font_matrix aload pop pop pop 0 0 6 array astore
    cairo_font exch selectfont cairo_point_x cairo_point_y moveto } bind def
/Tf { pop /cairo_font exch def /cairo_font_matrix where
      { pop cairo_selectfont } if } bind def
/Td { matrix translate cairo_font_matrix matrix concatmatrix dup
      /cairo_font_matrix exch def dup 4 get exch 5 get cairo_store_point
      /cairo_font where { pop cairo_selectfont } if } bind def
/Tm { 2 copy 8 2 roll 6 array astore /cairo_font_matrix exch def
      cairo_store_point /cairo_font where { pop cairo_selectfont } if } bind def
/g { setgray } bind def
/rg { setrgbcolor } bind def
/d1 { setcachedevice } bind def
%%EndProlog
%%Page: 1 1
%%BeginPageSetup
%%PageBoundingBox: 0 -1 228 174
%%EndPageSetup
q 0 -1 228 175 rectclip q
0 173.712 228 -174 re W n
0 g
222.578 173.712 m 59.711 173.712 l 58.277 173.712 56.902 173.142 55.875 
172.122 c 1.59 117.837 l 0.578 116.817 0 115.439 0 114.001 c 0 5.431 l 
0 2.431 2.43 0.001 5.422 0.001 c 222.578 0.001 l 225.57 0.001 228 2.431 
228 5.431 c 228 168.282 l 228 171.278 225.57 173.712 222.578 173.712 c 
h
217.141 10.853 m 10.859 10.853 l 10.859 108.571 l 59.711 108.571 l 
62.719 108.571 65.148 111.001 65.148 114.001 c 65.148 162.857 l 217.141 
162.857 l h
217.141 10.853 m f
48.852 92.29 m 45.855 92.29 43.43 89.857 43.43 86.857 c 43.43 46.142 l 
43.43 43.142 45.855 40.716 48.852 40.716 c 184.57 40.716 l 187.566 
40.716 189.996 43.142 189.996 46.142 c 189.996 127.571 l 189.996 
130.571 187.566 132.997 184.57 132.997 c 130.281 132.997 l 127.289 
132.997 124.859 130.571 124.859 127.571 c 124.859 92.29 l h
152.004 81.427 m 152.004 51.571 l 92.277 51.571 l 92.277 81.427 l h
54.289 81.427 m 81.434 81.427 l 81.434 51.571 l 54.289 51.571 l h
162.852 51.571 m 162.852 81.431 l 179.148 81.431 l 179.148 51.571 l h
179.148 122.142 m 179.148 92.29 l 135.723 92.29 l 135.723 122.142 l h
179.148 122.142 m f
Q Q
showpage
%%Trailer
count op_count sub {pop} repeat
countdictstack dict_count sub {end} repeat
cairo_eps_state restore
%%EOF
