%!PS-Adobe-3.0 EPSF-3.0
%%Creator: cairo 1.10.2 (http://cairographics.org)
%%CreationDate: Thu Feb 19 08:37:37 2015
%%Pages: 1
%%BoundingBox: 0 -1 228 213
%%DocumentData: Clean7Bit
%%LanguageLevel: 2
%%EndComments
%%BeginProlog
/cairo_eps_state save def
/dict_count countdictstack def
/op_count count 1 sub def
userdict begin
/q { gsave } bind def
/Q { grestore } bind def
/cm { 6 array astore concat } bind def
/w { setlinewidth } bind def
/J { setlinecap } bind def
/j { setlinejoin } bind def
/M { setmiterlimit } bind def
/d { setdash } bind def
/m { moveto } bind def
/l { lineto } bind def
/c { curveto } bind def
/h { closepath } bind def
/re { exch dup neg 3 1 roll 5 3 roll moveto 0 rlineto
      0 exch rlineto 0 rlineto closepath } bind def
/S { stroke } bind def
/f { fill } bind def
/f* { eofill } bind def
/n { newpath } bind def
/W { clip } bind def
/W* { eoclip } bind def
/BT { } bind def
/ET { } bind def
/pdfmark where { pop globaldict /?pdfmark /exec load put }
    { globaldict begin /?pdfmark /pop load def /pdfmark
    /cleartomark load def end } ifelse
/BDC { mark 3 1 roll /BDC pdfmark } bind def
/EMC { mark /EMC pdfmark } bind def
/cairo_store_point { /cairo_point_y exch def /cairo_point_x exch def } def
/Tj { show currentpoint cairo_store_point } bind def
/TJ {
  {
    dup
    type /stringtype eq
    { show } { -0.001 mul 0 cairo_font_matrix dtransform rmoveto } ifelse
  } forall
  currentpoint cairo_store_point
} bind def
/cairo_selectfont { cairo_font_matrix aload pop pop pop 0 0 6 array astore
    cairo_font exch selectfont cairo_point_x cairo_point_y moveto } bind def
/Tf { pop /cairo_font exch def /cairo_font_matrix where
      { pop cairo_selectfont } if } bind def
/Td { matrix translate cairo_font_matrix matrix concatmatrix dup
      /cairo_font_matrix exch def dup 4 get exch 5 get cairo_store_point
      /cairo_font where { pop cairo_selectfont } if } bind def
/Tm { 2 copy 8 2 roll 6 array astore /cairo_font_matrix exch def
      cairo_store_point /cairo_font where { pop cairo_selectfont } if } bind def
/g { setgray } bind def
/rg { setrgbcolor } bind def
/d1 { setcachedevice } bind def
%%EndProlog
%%Page: 1 1
%%BeginPageSetup
%%PageBoundingBox: 0 -1 228 213
%%EndPageSetup
q 0 -1 228 214 rectclip q
0 212.449 228 -213 re W n
0 g
224.391 120.824 m 120.754 209.945 l 116.871 213.285 111.125 213.285 
107.242 209.945 c 3.605 120.824 l -0.73 117.094 -1.227 110.551 2.508 
106.211 c 6.242 101.871 12.785 101.379 17.121 105.109 c 114 188.422 l 
210.879 105.109 l 212.836 103.43 215.238 102.598 217.633 102.598 c 
220.547 102.598 223.445 103.828 225.492 106.211 c 229.227 110.551 
228.73 117.094 224.391 120.824 c h
224.391 120.824 m f
117.387 173.891 m 115.438 175.57 112.562 175.57 110.613 173.891 c 
32.516 106.527 l 31.375 105.543 30.723 104.109 30.723 102.602 c 30.723 
5.187 l 30.723 2.316 33.043 -0 35.906 -0 c 192.094 -0 l 194.957 -0 
197.277 2.316 197.277 5.187 c 197.277 102.602 l 197.277 104.109 196.621 
105.543 195.48 106.527 c h
114.016 16.832 m 82.578 16.832 57 42.402 57 73.836 c 57 105.258 82.578 
130.828 114.016 130.828 c 145.438 130.828 171 105.258 171 73.836 c 171 
42.402 145.438 16.832 114.016 16.832 c h
114.016 16.832 m f
122.543 80.793 m 116.273 84.465 l 116.273 105.703 l 118.637 105.703 
121.023 103.977 121.891 99.867 c 122.617 96.312 123.598 93.496 128.258 
93.496 c 131.805 93.496 134.176 96.312 134.176 99.762 c 134.176 109.582 
126.078 116.059 116.273 116.059 c 116.273 118.855 l 116.273 120.594 
115.52 121.777 113.785 121.777 c 112.082 121.777 111.32 120.594 111.32 
118.855 c 111.32 116.059 l 99.465 115.727 92.547 107.098 92.547 95.781 
c 92.547 86.723 96.676 80.23 104.402 75.277 c 111.32 70.875 l 111.32 
47.336 l 106.781 47.801 104.625 51.125 104.09 56.418 c 103.543 61.391 
101.492 63.535 97.715 63.535 c 93.625 63.535 91.789 60.082 91.789 
56.207 c 91.789 45.293 99.988 36.969 111.32 36.969 c 111.32 28.695 l 
111.32 27.078 112.082 25.898 113.785 25.898 c 115.52 25.898 116.273 
27.078 116.273 28.695 c 116.273 36.969 l 128.984 37.613 136.215 45.93 
136.215 59.773 c 136.215 69.895 130.742 76.043 122.543 80.793 c h
111.32 87.164 m 106.043 91.352 104.855 93.293 104.855 97.195 c 104.855 
101.73 107 104.922 111.32 105.703 c h
116.273 47.336 m 116.273 68.285 l 120.789 65.824 123.059 62.57 123.059 
57.312 c 123.059 52.547 120.473 48 116.273 47.336 c h
116.273 47.336 m f
Q Q
showpage
%%Trailer
count op_count sub {pop} repeat
countdictstack dict_count sub {end} repeat
cairo_eps_state restore
%%EOF
