%!PS-Adobe-3.0 EPSF-3.0
%%Creator: cairo 1.10.2 (http://cairographics.org)
%%CreationDate: Wed Feb 18 16:05:30 2015
%%Pages: 1
%%BoundingBox: 0 -1 228 213
%%DocumentData: Clean7Bit
%%LanguageLevel: 2
%%EndComments
%%BeginProlog
/cairo_eps_state save def
/dict_count countdictstack def
/op_count count 1 sub def
userdict begin
/q { gsave } bind def
/Q { grestore } bind def
/cm { 6 array astore concat } bind def
/w { setlinewidth } bind def
/J { setlinecap } bind def
/j { setlinejoin } bind def
/M { setmiterlimit } bind def
/d { setdash } bind def
/m { moveto } bind def
/l { lineto } bind def
/c { curveto } bind def
/h { closepath } bind def
/re { exch dup neg 3 1 roll 5 3 roll moveto 0 rlineto
      0 exch rlineto 0 rlineto closepath } bind def
/S { stroke } bind def
/f { fill } bind def
/f* { eofill } bind def
/n { newpath } bind def
/W { clip } bind def
/W* { eoclip } bind def
/BT { } bind def
/ET { } bind def
/pdfmark where { pop globaldict /?pdfmark /exec load put }
    { globaldict begin /?pdfmark /pop load def /pdfmark
    /cleartomark load def end } ifelse
/BDC { mark 3 1 roll /BDC pdfmark } bind def
/EMC { mark /EMC pdfmark } bind def
/cairo_store_point { /cairo_point_y exch def /cairo_point_x exch def } def
/Tj { show currentpoint cairo_store_point } bind def
/TJ {
  {
    dup
    type /stringtype eq
    { show } { -0.001 mul 0 cairo_font_matrix dtransform rmoveto } ifelse
  } forall
  currentpoint cairo_store_point
} bind def
/cairo_selectfont { cairo_font_matrix aload pop pop pop 0 0 6 array astore
    cairo_font exch selectfont cairo_point_x cairo_point_y moveto } bind def
/Tf { pop /cairo_font exch def /cairo_font_matrix where
      { pop cairo_selectfont } if } bind def
/Td { matrix translate cairo_font_matrix matrix concatmatrix dup
      /cairo_font_matrix exch def dup 4 get exch 5 get cairo_store_point
      /cairo_font where { pop cairo_selectfont } if } bind def
/Tm { 2 copy 8 2 roll 6 array astore /cairo_font_matrix exch def
      cairo_store_point /cairo_font where { pop cairo_selectfont } if } bind def
/g { setgray } bind def
/rg { setrgbcolor } bind def
/d1 { setcachedevice } bind def
%%EndProlog
%%Page: 1 1
%%BeginPageSetup
%%PageBoundingBox: 0 -1 228 213
%%EndPageSetup
q 0 -1 228 214 rectclip q
0 212.451 229 -213 re W n
0 g
224.395 120.826 m 120.758 209.951 l 116.871 213.283 111.129 213.283 
107.242 209.951 c 3.605 120.826 l -0.734 117.096 -1.227 110.557 2.508 
106.213 c 6.238 101.877 12.781 101.381 17.121 105.115 c 114 188.428 l 
210.879 105.115 l 212.836 103.432 215.238 102.6 217.633 102.6 c 220.547 
102.6 223.445 103.826 225.492 106.213 c 229.227 110.557 228.734 117.096 
224.395 120.826 c h
224.395 120.826 m f
117.387 173.889 m 115.438 175.572 112.562 175.572 110.613 173.889 c 
32.516 106.529 l 31.375 105.549 30.723 104.115 30.723 102.6 c 30.723 
5.186 l 30.723 2.314 33.043 -0.002 35.906 -0.002 c 192.094 -0.002 l 
194.957 -0.002 197.277 2.314 197.277 5.186 c 197.277 102.6 l 197.277 
104.115 196.621 105.549 195.48 106.529 c h
124.59 32.678 m 124.59 27.018 122.27 22.088 114 22.088 c 105.727 22.088 
103.41 27.018 103.41 32.678 c 103.41 91.15 l 103.41 96.803 105.727 
101.74 114 101.74 c 122.27 101.74 124.59 96.803 124.59 91.15 c h
114 108.846 m 107.906 108.846 102.973 113.783 102.973 119.869 c 102.973 
125.963 107.906 130.893 114 130.893 c 120.09 130.893 125.027 125.963 
125.027 119.869 c 125.027 113.783 120.09 108.846 114 108.846 c h
114 108.846 m f
Q Q
showpage
%%Trailer
count op_count sub {pop} repeat
countdictstack dict_count sub {end} repeat
cairo_eps_state restore
%%EOF
