%!PS-Adobe-3.0 EPSF-3.0
%%Creator: cairo 1.10.2 (http://cairographics.org)
%%CreationDate: Wed Feb 18 16:05:54 2015
%%Pages: 1
%%BoundingBox: 0 -1 228 228
%%DocumentData: Clean7Bit
%%LanguageLevel: 2
%%EndComments
%%BeginProlog
/cairo_eps_state save def
/dict_count countdictstack def
/op_count count 1 sub def
userdict begin
/q { gsave } bind def
/Q { grestore } bind def
/cm { 6 array astore concat } bind def
/w { setlinewidth } bind def
/J { setlinecap } bind def
/j { setlinejoin } bind def
/M { setmiterlimit } bind def
/d { setdash } bind def
/m { moveto } bind def
/l { lineto } bind def
/c { curveto } bind def
/h { closepath } bind def
/re { exch dup neg 3 1 roll 5 3 roll moveto 0 rlineto
      0 exch rlineto 0 rlineto closepath } bind def
/S { stroke } bind def
/f { fill } bind def
/f* { eofill } bind def
/n { newpath } bind def
/W { clip } bind def
/W* { eoclip } bind def
/BT { } bind def
/ET { } bind def
/pdfmark where { pop globaldict /?pdfmark /exec load put }
    { globaldict begin /?pdfmark /pop load def /pdfmark
    /cleartomark load def end } ifelse
/BDC { mark 3 1 roll /BDC pdfmark } bind def
/EMC { mark /EMC pdfmark } bind def
/cairo_store_point { /cairo_point_y exch def /cairo_point_x exch def } def
/Tj { show currentpoint cairo_store_point } bind def
/TJ {
  {
    dup
    type /stringtype eq
    { show } { -0.001 mul 0 cairo_font_matrix dtransform rmoveto } ifelse
  } forall
  currentpoint cairo_store_point
} bind def
/cairo_selectfont { cairo_font_matrix aload pop pop pop 0 0 6 array astore
    cairo_font exch selectfont cairo_point_x cairo_point_y moveto } bind def
/Tf { pop /cairo_font exch def /cairo_font_matrix where
      { pop cairo_selectfont } if } bind def
/Td { matrix translate cairo_font_matrix matrix concatmatrix dup
      /cairo_font_matrix exch def dup 4 get exch 5 get cairo_store_point
      /cairo_font where { pop cairo_selectfont } if } bind def
/Tm { 2 copy 8 2 roll 6 array astore /cairo_font_matrix exch def
      cairo_store_point /cairo_font where { pop cairo_selectfont } if } bind def
/g { setgray } bind def
/rg { setrgbcolor } bind def
/d1 { setcachedevice } bind def
%%EndProlog
%%Page: 1 1
%%BeginPageSetup
%%PageBoundingBox: 0 -1 228 228
%%EndPageSetup
q 0 -1 228 229 rectclip q
0 227.929 228 -228 re W n
0 g
226.395 120.859 m 217.266 137.847 l 216.352 139.562 215.434 143.023 
215.367 144.972 c 214.777 164.261 l 214.645 168.773 211.758 173.777 
207.91 176.152 c 191.5 186.273 l 189.84 187.297 187.316 189.832 186.293 
191.484 c 176.16 207.902 l 173.785 211.761 168.773 214.648 164.266 
214.777 c 144.988 215.351 l 143.047 215.41 139.574 216.343 137.863 
217.258 c 120.867 226.386 l 117.039 228.445 110.961 228.445 107.133 
226.386 c 90.141 217.261 l 88.43 216.343 84.949 215.41 83.008 215.351 c 
63.746 214.777 l 59.227 214.648 54.219 211.754 51.844 207.91 c 41.715 
191.492 l 40.684 189.836 38.16 187.297 36.5 186.277 c 20.094 176.156 l 
16.25 173.781 13.359 168.785 13.219 164.261 c 12.633 144.984 l 12.566 
143.023 11.648 139.562 10.734 137.847 c 1.598 120.847 l -0.535 116.875 
-0.535 111.109 1.605 107.129 c 10.734 90.125 l 11.648 88.425 12.566 
84.949 12.633 83 c 13.211 63.722 l 13.344 59.207 16.234 54.207 20.074 
51.84 c 36.496 41.707 l 38.152 40.683 40.688 38.14 41.715 36.492 c 
51.84 20.082 l 54.207 16.238 59.211 13.351 63.734 13.207 c 83 12.621 l 
84.961 12.558 88.434 11.633 90.137 10.722 c 107.137 1.593 l 109.051 
0.562 111.48 -0 114 -0 c 116.516 -0 118.945 0.562 120.867 1.593 c 
137.859 10.722 l 139.559 11.633 143.035 12.558 144.988 12.621 c 164.266 
13.207 l 168.781 13.351 173.785 16.238 176.156 20.082 c 186.273 36.484 
l 187.305 38.14 189.84 40.683 191.492 41.699 c 207.906 51.836 l 211.75 
54.199 214.637 59.203 214.777 63.722 c 215.367 82.992 l 215.43 84.949 
216.352 88.425 217.266 90.125 c 226.398 107.133 l 228.535 111.109 
228.535 116.875 226.395 120.859 c h
114 18.129 m 61.141 18.129 18.141 61.133 18.141 113.988 c 18.141 
166.847 61.141 209.851 114 209.851 c 166.859 209.851 209.859 166.847 
209.859 113.988 c 209.859 61.133 166.859 18.129 114 18.129 c h
114 18.129 m f
137.75 124.894 m 122.629 124.894 l 120.488 124.894 118.75 123.152 
118.75 121.008 c 118.75 105.867 l 118.75 103.722 120.488 101.988 
122.629 101.988 c 137.75 101.988 l 139.898 101.988 141.641 103.722 
141.641 105.867 c 141.641 121.008 l 141.641 123.152 139.898 124.894 
137.75 124.894 c h
137.75 124.894 m f
105.371 92.492 m 90.25 92.492 l 88.102 92.492 86.363 90.754 86.363 
88.613 c 86.363 73.488 l 86.363 71.34 88.105 69.597 90.25 69.597 c 
105.371 69.597 l 107.512 69.597 109.25 71.34 109.25 73.488 c 109.25 
88.613 l 109.25 90.754 107.512 92.492 105.371 92.492 c h
105.371 92.492 m f
105.371 124.894 m 90.25 124.894 l 88.102 124.894 86.363 123.152 86.363 
121.008 c 86.363 105.867 l 86.363 103.722 88.105 101.988 90.25 101.988 
c 105.371 101.988 l 107.512 101.988 109.25 103.722 109.25 105.867 c 
109.25 121.008 l 109.25 123.152 107.512 124.894 105.371 124.894 c h
105.371 124.894 m f
137.75 92.492 m 122.629 92.492 l 120.488 92.492 118.75 90.754 118.75 
88.613 c 118.75 73.488 l 118.75 71.34 120.488 69.597 122.629 69.597 c 
137.75 69.597 l 139.898 69.597 141.641 71.34 141.641 73.488 c 141.641 
88.613 l 141.641 90.754 139.898 92.492 137.75 92.492 c h
137.75 92.492 m f
114 199.484 m 66.863 199.484 28.504 161.133 28.504 113.988 c 28.504 
66.851 66.863 28.496 114 28.496 c 161.137 28.496 199.496 66.851 199.496 
113.988 c 199.496 161.133 161.137 199.484 114 199.484 c h
165.391 58.691 m 165.391 57.261 164.23 56.105 162.801 56.105 c 65.199 
56.105 l 63.77 56.105 62.609 57.261 62.609 58.691 c 62.609 119.582 l 
62.609 120.332 62.938 121.047 63.512 121.539 c 112.312 163.648 l 
113.281 164.488 114.719 164.488 115.688 163.648 c 164.488 121.539 l 
165.062 121.047 165.391 120.332 165.391 119.582 c h
184.664 121 m 183.125 119.215 180.949 118.293 178.762 118.293 c 176.973 
118.293 175.172 118.918 173.707 120.175 c 114 171.504 l 54.293 120.175 
l 51.043 117.375 46.133 117.75 43.336 121 c 40.539 124.261 40.906 
129.16 44.172 131.961 c 108.938 187.644 l 111.852 190.148 116.148 
190.148 119.062 187.644 c 183.828 131.961 l 187.094 129.16 187.461 
124.261 184.664 121 c h
184.664 121 m f
Q Q
showpage
%%Trailer
count op_count sub {pop} repeat
countdictstack dict_count sub {end} repeat
cairo_eps_state restore
%%EOF
