%!PS-Adobe-3.0 EPSF-3.0
%%Creator: cairo 1.10.2 (http://cairographics.org)
%%CreationDate: Wed Feb 25 11:07:51 2015
%%Pages: 1
%%BoundingBox: 0 -1 228 199
%%DocumentData: Clean7Bit
%%LanguageLevel: 2
%%EndComments
%%BeginProlog
/cairo_eps_state save def
/dict_count countdictstack def
/op_count count 1 sub def
userdict begin
/q { gsave } bind def
/Q { grestore } bind def
/cm { 6 array astore concat } bind def
/w { setlinewidth } bind def
/J { setlinecap } bind def
/j { setlinejoin } bind def
/M { setmiterlimit } bind def
/d { setdash } bind def
/m { moveto } bind def
/l { lineto } bind def
/c { curveto } bind def
/h { closepath } bind def
/re { exch dup neg 3 1 roll 5 3 roll moveto 0 rlineto
      0 exch rlineto 0 rlineto closepath } bind def
/S { stroke } bind def
/f { fill } bind def
/f* { eofill } bind def
/n { newpath } bind def
/W { clip } bind def
/W* { eoclip } bind def
/BT { } bind def
/ET { } bind def
/pdfmark where { pop globaldict /?pdfmark /exec load put }
    { globaldict begin /?pdfmark /pop load def /pdfmark
    /cleartomark load def end } ifelse
/BDC { mark 3 1 roll /BDC pdfmark } bind def
/EMC { mark /EMC pdfmark } bind def
/cairo_store_point { /cairo_point_y exch def /cairo_point_x exch def } def
/Tj { show currentpoint cairo_store_point } bind def
/TJ {
  {
    dup
    type /stringtype eq
    { show } { -0.001 mul 0 cairo_font_matrix dtransform rmoveto } ifelse
  } forall
  currentpoint cairo_store_point
} bind def
/cairo_selectfont { cairo_font_matrix aload pop pop pop 0 0 6 array astore
    cairo_font exch selectfont cairo_point_x cairo_point_y moveto } bind def
/Tf { pop /cairo_font exch def /cairo_font_matrix where
      { pop cairo_selectfont } if } bind def
/Td { matrix translate cairo_font_matrix matrix concatmatrix dup
      /cairo_font_matrix exch def dup 4 get exch 5 get cairo_store_point
      /cairo_font where { pop cairo_selectfont } if } bind def
/Tm { 2 copy 8 2 roll 6 array astore /cairo_font_matrix exch def
      cairo_store_point /cairo_font where { pop cairo_selectfont } if } bind def
/g { setgray } bind def
/rg { setrgbcolor } bind def
/d1 { setcachedevice } bind def
%%EndProlog
%%Page: 1 1
%%BeginPageSetup
%%PageBoundingBox: 0 -1 228 199
%%EndPageSetup
q 0 -1 228 200 rectclip q
0 198.423 228 -199 re W n
0 g
41.527 78.165 m 29.598 78.165 l 29.598 64.478 l 41.172 64.478 l 45.547 
64.478 49.918 65.603 49.918 71.318 c 49.918 76.755 46.609 78.165 41.527 
78.165 c h
41.527 78.165 m f
222.57 119.431 m 197.516 119.431 l 126.898 180.829 l 127.293 182.115 
127.57 183.447 127.57 184.853 c 127.57 192.349 121.496 198.423 114 
198.423 c 106.504 198.423 100.43 192.349 100.43 184.853 c 100.43 
183.447 100.707 182.115 101.102 180.829 c 30.484 119.431 l 5.43 119.431 
l 2.434 119.431 0 116.997 0 114.001 c 0 5.431 l 0 2.431 2.434 0.001 
5.43 0.001 c 222.57 0.001 l 225.566 0.001 228 2.431 228 5.431 c 228 
114.001 l 228 116.997 225.566 119.431 222.57 119.431 c h
108.207 172.619 m 109.973 171.79 111.918 171.279 114 171.279 c 116.082 
171.279 118.027 171.79 119.793 172.619 c 180.977 119.431 l 47.023 
119.431 l h
59.734 50.294 m 59.734 44.431 61.281 42.244 61.281 39.849 c 61.281 
37.165 58.535 35.329 55.852 35.329 c 49.5 35.329 49.004 41.466 49.004 
43.517 c 49.004 52.411 47.387 56.009 41.031 56.009 c 29.598 56.009 l 
29.598 41.115 l 29.598 37.658 27.344 35.329 23.812 35.329 c 20.281 
35.329 18.027 37.658 18.027 41.115 c 18.027 80.286 l 18.027 85.435 
20.703 87.06 24.801 87.06 c 44.066 87.06 l 57.824 87.06 61.492 79.509 
61.492 72.943 c 61.492 67.443 58.25 62.009 52.746 60.732 c 52.746 
60.595 l 58.676 59.751 59.734 55.443 59.734 50.294 c h
105.109 36.244 m 77.375 36.244 l 73.277 36.244 70.598 37.869 70.598 
43.021 c 70.598 80.286 l 70.598 85.435 73.277 87.06 77.375 87.06 c 
104.543 87.06 l 107.93 87.06 110.402 86.072 110.402 82.404 c 110.402 
78.732 107.93 77.744 104.543 77.744 c 82.172 77.744 l 82.172 66.732 l 
101.789 66.732 l 104.828 66.732 107.223 65.888 107.223 62.286 c 107.223 
58.689 104.828 57.837 101.789 57.837 c 82.172 57.837 l 82.172 45.56 l 
105.109 45.56 l 108.5 45.56 110.969 44.572 110.969 40.9 c 110.969 
37.232 108.5 36.244 105.109 36.244 c h
163.055 42.529 m 163.055 37.943 161.074 35.329 156.203 35.329 c 152.535 
35.329 151.332 36.103 149.852 38.431 c 129.738 70.193 l 129.598 70.193 
l 129.598 40.904 l 129.598 37.165 127.48 35.329 124.023 35.329 c 
120.562 35.329 118.449 37.165 118.449 40.904 c 118.449 81.201 l 118.449 
86.001 120.777 87.978 125.715 87.978 c 128.117 87.978 130.234 87.06 
131.5 84.943 c 151.758 52.263 l 151.898 52.263 l 151.898 82.404 l 
151.898 86.146 154.016 87.978 157.477 87.978 c 160.938 87.978 163.055 
86.146 163.055 82.404 c h
208.496 77.318 m 197.562 77.318 l 197.562 41.115 l 197.562 37.658 
195.297 35.329 191.773 35.329 c 188.242 35.329 185.984 37.658 185.984 
41.115 c 185.984 77.318 l 175.043 77.318 l 171.73 77.318 169.043 79.017 
169.043 82.189 c 169.043 85.369 171.73 87.06 175.043 87.06 c 208.5 
87.06 l 211.816 87.06 214.5 85.369 214.5 82.189 c 214.496 79.017 
211.816 77.318 208.496 77.318 c h
208.496 77.318 m f
Q Q
showpage
%%Trailer
count op_count sub {pop} repeat
countdictstack dict_count sub {end} repeat
cairo_eps_state restore
%%EOF
