%!PS-Adobe-3.0 EPSF-3.0
%%Creator: cairo 1.10.2 (http://cairographics.org)
%%CreationDate: Wed Feb 18 16:06:14 2015
%%Pages: 1
%%BoundingBox: 0 -1 218 229
%%DocumentData: Clean7Bit
%%LanguageLevel: 2
%%EndComments
%%BeginProlog
/cairo_eps_state save def
/dict_count countdictstack def
/op_count count 1 sub def
userdict begin
/q { gsave } bind def
/Q { grestore } bind def
/cm { 6 array astore concat } bind def
/w { setlinewidth } bind def
/J { setlinecap } bind def
/j { setlinejoin } bind def
/M { setmiterlimit } bind def
/d { setdash } bind def
/m { moveto } bind def
/l { lineto } bind def
/c { curveto } bind def
/h { closepath } bind def
/re { exch dup neg 3 1 roll 5 3 roll moveto 0 rlineto
      0 exch rlineto 0 rlineto closepath } bind def
/S { stroke } bind def
/f { fill } bind def
/f* { eofill } bind def
/n { newpath } bind def
/W { clip } bind def
/W* { eoclip } bind def
/BT { } bind def
/ET { } bind def
/pdfmark where { pop globaldict /?pdfmark /exec load put }
    { globaldict begin /?pdfmark /pop load def /pdfmark
    /cleartomark load def end } ifelse
/BDC { mark 3 1 roll /BDC pdfmark } bind def
/EMC { mark /EMC pdfmark } bind def
/cairo_store_point { /cairo_point_y exch def /cairo_point_x exch def } def
/Tj { show currentpoint cairo_store_point } bind def
/TJ {
  {
    dup
    type /stringtype eq
    { show } { -0.001 mul 0 cairo_font_matrix dtransform rmoveto } ifelse
  } forall
  currentpoint cairo_store_point
} bind def
/cairo_selectfont { cairo_font_matrix aload pop pop pop 0 0 6 array astore
    cairo_font exch selectfont cairo_point_x cairo_point_y moveto } bind def
/Tf { pop /cairo_font exch def /cairo_font_matrix where
      { pop cairo_selectfont } if } bind def
/Td { matrix translate cairo_font_matrix matrix concatmatrix dup
      /cairo_font_matrix exch def dup 4 get exch 5 get cairo_store_point
      /cairo_font where { pop cairo_selectfont } if } bind def
/Tm { 2 copy 8 2 roll 6 array astore /cairo_font_matrix exch def
      cairo_store_point /cairo_font where { pop cairo_selectfont } if } bind def
/g { setgray } bind def
/rg { setrgbcolor } bind def
/d1 { setcachedevice } bind def
%%EndProlog
%%Page: 1 1
%%BeginPageSetup
%%PageBoundingBox: 0 -1 218 229
%%EndPageSetup
q 0 -1 218 230 rectclip q
0 228.002 218 -229 re W n
0 g
212.445 10.37 m 181.359 10.37 l 181.359 64.659 l 188.137 56.514 l 
190.188 54.061 193.129 52.784 196.105 52.784 c 198.441 52.784 200.789 
53.573 202.734 55.19 c 207.129 58.858 207.719 65.389 204.059 69.784 c 
178.953 99.905 l 175.016 104.635 166.973 104.635 163.031 99.905 c 
137.934 69.784 l 134.27 65.389 134.859 58.858 139.254 55.19 c 143.652 
51.526 150.188 52.12 153.855 56.514 c 160.629 64.659 l 160.629 10.37 l 
114 10.37 l 114 222.823 l 114 225.682 111.68 228.002 108.812 228.002 c 
5.18 228.002 l 2.316 228.002 0 225.682 0 222.823 c 0 5.186 l 0 2.327 
2.316 -0.002 5.18 -0.002 c 212.445 -0.002 l 215.312 -0.002 217.629 
2.327 217.629 5.186 c 217.629 8.053 215.312 10.37 212.445 10.37 c h
103.629 10.37 m 10.367 10.37 l 10.367 217.635 l 103.629 217.635 l h
103.629 10.37 m f
28.5 60.877 m 46.633 60.877 l 49.5 60.877 51.812 63.194 51.812 66.053 c 
51.812 84.202 l 51.812 87.065 49.5 89.389 46.633 89.389 c 28.5 89.389 l 
25.633 89.389 23.312 87.065 23.312 84.202 c 23.312 66.053 l 23.312 
63.194 25.633 60.877 28.5 60.877 c h
28.5 60.877 m f
67.359 60.877 m 85.5 60.877 l 88.359 60.877 90.68 63.194 90.68 66.053 c 
90.68 84.202 l 90.68 87.065 88.359 89.389 85.5 89.389 c 67.359 89.389 l 
64.496 89.389 62.18 87.065 62.18 84.202 c 62.18 66.053 l 62.18 63.194 
64.496 60.877 67.359 60.877 c h
67.359 60.877 m f
28.5 21.987 m 46.633 21.987 l 49.5 21.987 51.812 24.303 51.812 27.174 c 
51.812 45.331 l 51.812 48.19 49.5 50.506 46.633 50.506 c 28.5 50.506 l 
25.633 50.506 23.312 48.19 23.312 45.331 c 23.312 27.174 l 23.312 
24.303 25.633 21.987 28.5 21.987 c h
28.5 21.987 m f
67.359 21.987 m 85.5 21.987 l 88.359 21.987 90.68 24.303 90.68 27.174 c 
90.68 45.331 l 90.68 48.19 88.359 50.506 85.5 50.506 c 67.359 50.506 l 
64.496 50.506 62.18 48.19 62.18 45.331 c 62.18 27.174 l 62.18 24.303 
64.496 21.987 67.359 21.987 c h
67.359 21.987 m f
28.5 99.748 m 46.633 99.748 l 49.5 99.748 51.812 102.065 51.812 104.924 
c 51.812 123.084 l 51.812 125.944 49.5 128.264 46.633 128.264 c 28.5 
128.264 l 25.633 128.264 23.312 125.944 23.312 123.084 c 23.312 104.924 
l 23.312 102.065 25.633 99.748 28.5 99.748 c h
28.5 99.748 m f
67.359 99.748 m 85.5 99.748 l 88.359 99.748 90.68 102.065 90.68 104.924 
c 90.68 123.084 l 90.68 125.944 88.359 128.264 85.5 128.264 c 67.359 
128.264 l 64.496 128.264 62.18 125.944 62.18 123.084 c 62.18 104.924 l 
62.18 102.065 64.496 99.748 67.359 99.748 c h
67.359 99.748 m f
28.5 138.627 m 46.633 138.627 l 49.5 138.627 51.812 140.944 51.812 
143.803 c 51.812 161.959 l 51.812 164.823 49.5 167.139 46.633 167.139 c 
28.5 167.139 l 25.633 167.139 23.312 164.823 23.312 161.959 c 23.312 
143.803 l 23.312 140.944 25.633 138.627 28.5 138.627 c h
28.5 138.627 m f
67.359 138.627 m 85.5 138.627 l 88.359 138.627 90.68 140.944 90.68 
143.803 c 90.68 161.959 l 90.68 164.823 88.359 167.139 85.5 167.139 c 
67.359 167.139 l 64.496 167.139 62.18 164.823 62.18 161.959 c 62.18 
143.803 l 62.18 140.944 64.496 138.627 67.359 138.627 c h
67.359 138.627 m f
28.5 177.502 m 46.633 177.502 l 49.5 177.502 51.812 179.827 51.812 
182.686 c 51.812 200.834 l 51.812 203.698 49.5 206.018 46.633 206.018 c 
28.5 206.018 l 25.633 206.018 23.312 203.698 23.312 200.834 c 23.312 
182.686 l 23.312 179.827 25.633 177.502 28.5 177.502 c h
28.5 177.502 m f
67.359 177.502 m 85.5 177.502 l 88.359 177.502 90.68 179.827 90.68 
182.686 c 90.68 200.834 l 90.68 203.698 88.359 206.018 85.5 206.018 c 
67.359 206.018 l 64.496 206.018 62.18 203.698 62.18 200.834 c 62.18 
182.686 l 62.18 179.827 64.496 177.502 67.359 177.502 c h
67.359 177.502 m f
169.074 177.491 m 165.977 176.936 164.453 174.635 164.453 171.393 c 
164.453 168.612 165.293 167.221 169.074 164.221 c h
169.074 177.491 m f
177.477 142.846 m 177.477 146.616 175.859 148.952 172.617 150.721 c 
172.617 135.725 l 175.625 136.194 177.477 139.44 177.477 142.846 c h
177.477 142.846 m f
171.008 112.416 m 194.309 112.416 213.258 131.385 213.258 154.69 c 
213.258 177.983 194.309 196.944 171.008 196.944 c 147.688 196.944 
128.723 177.983 128.723 154.69 c 128.723 131.385 147.688 112.416 
171.008 112.416 c h
164.125 155.717 m 158.59 159.268 155.641 163.913 155.641 170.389 c 
155.641 178.483 160.586 184.663 169.074 184.905 c 169.074 186.901 l 
169.074 188.147 169.625 188.987 170.836 188.987 c 172.082 188.987 
172.617 188.147 172.617 186.901 c 172.617 184.905 l 179.633 184.905 
185.434 180.268 185.434 173.233 c 185.434 170.768 183.734 168.76 
181.195 168.76 c 177.863 168.76 177.164 170.768 176.641 173.323 c 
176.023 176.252 174.309 177.491 172.617 177.491 c 172.617 162.291 l 
177.105 159.659 l 182.973 156.264 186.891 151.87 186.891 144.616 c 
186.891 134.721 181.715 128.764 172.617 128.299 c 172.617 122.381 l 
172.617 121.229 172.082 120.381 170.836 120.381 c 169.625 120.381 
169.074 121.229 169.074 122.381 c 169.074 128.299 l 160.973 128.299 
155.102 134.256 155.102 142.065 c 155.102 144.846 156.418 147.319 
159.34 147.319 c 162.043 147.319 163.512 145.78 163.902 142.213 c 
164.281 138.432 165.832 136.053 169.074 135.725 c 169.074 152.553 l h
164.125 155.717 m f
Q Q
showpage
%%Trailer
count op_count sub {pop} repeat
countdictstack dict_count sub {end} repeat
cairo_eps_state restore
%%EOF
