%!PS-Adobe-3.0 EPSF-3.0
%%Creator: cairo 1.10.2 (http://cairographics.org)
%%CreationDate: Wed Feb 25 11:07:16 2015
%%Pages: 1
%%BoundingBox: 0 -1 228 182
%%DocumentData: Clean7Bit
%%LanguageLevel: 2
%%EndComments
%%BeginProlog
/cairo_eps_state save def
/dict_count countdictstack def
/op_count count 1 sub def
userdict begin
/q { gsave } bind def
/Q { grestore } bind def
/cm { 6 array astore concat } bind def
/w { setlinewidth } bind def
/J { setlinecap } bind def
/j { setlinejoin } bind def
/M { setmiterlimit } bind def
/d { setdash } bind def
/m { moveto } bind def
/l { lineto } bind def
/c { curveto } bind def
/h { closepath } bind def
/re { exch dup neg 3 1 roll 5 3 roll moveto 0 rlineto
      0 exch rlineto 0 rlineto closepath } bind def
/S { stroke } bind def
/f { fill } bind def
/f* { eofill } bind def
/n { newpath } bind def
/W { clip } bind def
/W* { eoclip } bind def
/BT { } bind def
/ET { } bind def
/pdfmark where { pop globaldict /?pdfmark /exec load put }
    { globaldict begin /?pdfmark /pop load def /pdfmark
    /cleartomark load def end } ifelse
/BDC { mark 3 1 roll /BDC pdfmark } bind def
/EMC { mark /EMC pdfmark } bind def
/cairo_store_point { /cairo_point_y exch def /cairo_point_x exch def } def
/Tj { show currentpoint cairo_store_point } bind def
/TJ {
  {
    dup
    type /stringtype eq
    { show } { -0.001 mul 0 cairo_font_matrix dtransform rmoveto } ifelse
  } forall
  currentpoint cairo_store_point
} bind def
/cairo_selectfont { cairo_font_matrix aload pop pop pop 0 0 6 array astore
    cairo_font exch selectfont cairo_point_x cairo_point_y moveto } bind def
/Tf { pop /cairo_font exch def /cairo_font_matrix where
      { pop cairo_selectfont } if } bind def
/Td { matrix translate cairo_font_matrix matrix concatmatrix dup
      /cairo_font_matrix exch def dup 4 get exch 5 get cairo_store_point
      /cairo_font where { pop cairo_selectfont } if } bind def
/Tm { 2 copy 8 2 roll 6 array astore /cairo_font_matrix exch def
      cairo_store_point /cairo_font where { pop cairo_selectfont } if } bind def
/g { setgray } bind def
/rg { setrgbcolor } bind def
/d1 { setcachedevice } bind def
%%EndProlog
%%Page: 1 1
%%BeginPageSetup
%%PageBoundingBox: 0 -1 228 182
%%EndPageSetup
q 0 -1 228 183 rectclip q
0 181.361 228 -182 re W n
0 g
217.637 181.361 m 10.363 181.361 l 4.637 181.361 0 176.724 0 171.001 c 
0 41.458 l 0 35.728 4.637 31.099 10.363 31.099 c 217.637 31.099 l 
223.363 31.099 228 35.728 228 41.458 c 228 171.001 l 228 176.724 
223.363 181.361 217.637 181.361 c h
207.273 51.826 m 20.727 51.826 l 20.727 160.638 l 207.273 160.638 l h
207.273 51.826 m f
178.773 20.732 m 49.227 20.732 l 43.504 20.732 38.863 16.083 38.863 
10.369 c 38.863 4.634 43.504 0.001 49.227 0.001 c 178.773 0.001 l 
184.496 0.001 189.137 4.634 189.137 10.369 c 189.137 16.087 184.496 
20.732 178.773 20.732 c h
178.773 20.732 m f
84.957 93.13 m 84.957 94.388 83.938 95.404 82.68 95.404 c 74.699 95.404 
l 73.453 95.404 72.422 94.388 72.422 93.13 c 72.422 85.142 l 72.422 
83.888 73.453 82.873 74.699 82.873 c 82.68 82.873 l 83.938 82.873 
84.957 83.888 84.957 85.142 c h
84.957 93.13 m f
82.68 78.322 m 74.699 78.322 l 73.453 78.322 72.422 77.298 72.422 76.04 
c 72.422 68.06 l 72.422 66.787 73.453 65.775 74.699 65.775 c 82.68 
65.775 l 83.938 65.775 84.957 66.787 84.957 68.06 c 84.957 76.04 l 
84.957 77.298 83.938 78.322 82.68 78.322 c h
82.68 78.322 m f
84.957 110.22 m 84.957 111.478 83.938 112.498 82.68 112.498 c 74.699 
112.498 l 73.453 112.498 72.422 111.478 72.422 110.22 c 72.422 102.24 l 
72.422 100.978 73.453 99.958 74.699 99.958 c 82.68 99.958 l 83.938 
99.958 84.957 100.978 84.957 102.24 c h
84.957 110.22 m f
84.957 127.314 m 84.957 128.568 83.938 129.591 82.68 129.591 c 74.699 
129.591 l 73.453 129.591 72.422 128.568 72.422 127.314 c 72.422 119.333 
l 72.422 118.068 73.453 117.048 74.699 117.048 c 82.68 117.048 l 83.938 
117.048 84.957 118.068 84.957 119.333 c h
84.957 127.314 m f
84.957 144.4 m 84.957 145.658 83.938 146.677 82.68 146.677 c 74.699 
146.677 l 73.453 146.677 72.422 145.658 72.422 144.4 c 72.422 136.423 l 
72.422 135.162 73.453 134.15 74.699 134.15 c 82.68 134.15 l 83.938 
134.15 84.957 135.162 84.957 136.423 c h
84.957 144.4 m f
89.516 119.333 m 89.516 118.068 90.531 117.048 91.793 117.048 c 99.766 
117.048 l 101.016 117.048 102.043 118.068 102.043 119.333 c 102.043 
127.314 l 102.043 128.568 101.012 129.591 99.766 129.591 c 91.793 
129.591 l 90.531 129.591 89.516 128.568 89.516 127.314 c h
89.516 119.333 m f
91.793 134.15 m 99.766 134.15 l 101.016 134.15 102.043 135.162 102.043 
136.423 c 102.043 144.4 l 102.043 145.658 101.012 146.677 99.766 
146.677 c 91.793 146.677 l 90.531 146.677 89.516 145.658 89.516 144.4 c 
89.516 136.423 l 89.516 135.162 90.531 134.15 91.793 134.15 c h
91.793 134.15 m f
64.461 56.126 m 96.082 56.126 l 95.824 56.833 95.652 57.583 95.652 
58.392 c 95.652 60.677 l 66.738 60.677 l 66.738 151.783 l 107.734 
151.783 l 107.734 116.197 l 112.289 120.111 l 112.289 154.064 l 112.289 
155.314 111.273 156.337 110.012 156.337 c 64.461 156.337 l 63.199 
156.337 62.18 155.314 62.18 154.064 c 62.18 58.392 l 62.18 57.138 
63.199 56.126 64.461 56.126 c h
64.461 56.126 m f
91.477 91.705 m 92.703 90.259 94.867 90.107 96.297 91.337 c 128.23 
118.81 l 160.18 91.337 l 160.816 90.787 161.609 90.509 162.406 90.509 c 
163.367 90.509 164.316 90.915 164.992 91.705 c 166.223 93.13 166.059 
95.298 164.633 96.525 c 130.461 125.904 l 129.18 127.013 127.293 
127.013 126.004 125.904 c 91.844 96.525 l 90.41 95.298 90.25 93.13 
91.477 91.705 c h
91.477 91.705 m f
129.727 114.447 m 128.867 115.185 127.602 115.185 126.746 114.447 c 
101.008 92.228 l 100.5 91.802 100.203 91.169 100.203 90.509 c 100.203 
58.392 l 100.203 57.138 101.238 56.126 102.48 56.126 c 153.977 56.126 l 
155.238 56.126 156.254 57.138 156.254 58.392 c 156.254 90.509 l 156.254 
91.169 155.969 91.806 155.469 92.228 c h
125.957 66.185 m 125.957 64.943 124.941 63.919 123.68 63.919 c 115.711 
63.919 l 114.449 63.919 113.434 64.943 113.434 66.185 c 113.434 74.169 
l 113.434 75.431 114.449 76.455 115.711 76.455 c 123.68 76.455 l 
124.941 76.455 125.957 75.431 125.957 74.169 c h
125.957 83.267 m 125.957 82.021 124.941 80.998 123.68 80.998 c 115.711 
80.998 l 114.449 80.998 113.434 82.021 113.434 83.267 c 113.434 91.259 
l 113.434 92.521 114.449 93.537 115.711 93.537 c 123.68 93.537 l 
124.941 93.537 125.957 92.521 125.957 91.259 c h
143.043 66.185 m 143.043 64.943 142.023 63.919 140.766 63.919 c 132.789 
63.919 l 131.539 63.919 130.512 64.943 130.512 66.185 c 130.512 74.169 
l 130.512 75.431 131.539 76.455 132.789 76.455 c 140.766 76.455 l 
142.023 76.455 143.043 75.431 143.043 74.169 c h
143.043 83.267 m 143.043 82.021 142.023 80.998 140.766 80.998 c 132.789 
80.998 l 131.539 80.998 130.512 82.021 130.512 83.267 c 130.512 91.259 
l 130.512 92.521 131.539 93.537 132.789 93.537 c 140.766 93.537 l 
142.023 93.537 143.043 92.521 143.043 91.259 c h
143.043 83.267 m f
Q Q
showpage
%%Trailer
count op_count sub {pop} repeat
countdictstack dict_count sub {end} repeat
cairo_eps_state restore
%%EOF
