%!PS-Adobe-3.0 EPSF-3.0
%%Creator: cairo 1.10.2 (http://cairographics.org)
%%CreationDate: Wed Feb 25 11:07:36 2015
%%Pages: 1
%%BoundingBox: 0 -1 188 228
%%DocumentData: Clean7Bit
%%LanguageLevel: 2
%%EndComments
%%BeginProlog
/cairo_eps_state save def
/dict_count countdictstack def
/op_count count 1 sub def
userdict begin
/q { gsave } bind def
/Q { grestore } bind def
/cm { 6 array astore concat } bind def
/w { setlinewidth } bind def
/J { setlinecap } bind def
/j { setlinejoin } bind def
/M { setmiterlimit } bind def
/d { setdash } bind def
/m { moveto } bind def
/l { lineto } bind def
/c { curveto } bind def
/h { closepath } bind def
/re { exch dup neg 3 1 roll 5 3 roll moveto 0 rlineto
      0 exch rlineto 0 rlineto closepath } bind def
/S { stroke } bind def
/f { fill } bind def
/f* { eofill } bind def
/n { newpath } bind def
/W { clip } bind def
/W* { eoclip } bind def
/BT { } bind def
/ET { } bind def
/pdfmark where { pop globaldict /?pdfmark /exec load put }
    { globaldict begin /?pdfmark /pop load def /pdfmark
    /cleartomark load def end } ifelse
/BDC { mark 3 1 roll /BDC pdfmark } bind def
/EMC { mark /EMC pdfmark } bind def
/cairo_store_point { /cairo_point_y exch def /cairo_point_x exch def } def
/Tj { show currentpoint cairo_store_point } bind def
/TJ {
  {
    dup
    type /stringtype eq
    { show } { -0.001 mul 0 cairo_font_matrix dtransform rmoveto } ifelse
  } forall
  currentpoint cairo_store_point
} bind def
/cairo_selectfont { cairo_font_matrix aload pop pop pop 0 0 6 array astore
    cairo_font exch selectfont cairo_point_x cairo_point_y moveto } bind def
/Tf { pop /cairo_font exch def /cairo_font_matrix where
      { pop cairo_selectfont } if } bind def
/Td { matrix translate cairo_font_matrix matrix concatmatrix dup
      /cairo_font_matrix exch def dup 4 get exch 5 get cairo_store_point
      /cairo_font where { pop cairo_selectfont } if } bind def
/Tm { 2 copy 8 2 roll 6 array astore /cairo_font_matrix exch def
      cairo_store_point /cairo_font where { pop cairo_selectfont } if } bind def
/g { setgray } bind def
/rg { setrgbcolor } bind def
/d1 { setcachedevice } bind def
%%EndProlog
%%Page: 1 1
%%BeginPageSetup
%%PageBoundingBox: 0 -1 188 228
%%EndPageSetup
q 0 -1 188 229 rectclip q
0 227.999 188 -228 re W n
0 g
176.508 104.855 m 10.652 104.855 l 4.77 104.855 0 100.085 0 94.202 c 0 
88.32 4.77 83.554 10.652 83.554 c 176.508 83.554 l 182.391 83.554 
187.16 88.32 187.16 94.202 c 187.16 100.085 182.391 104.855 176.508 
104.855 c h
176.508 104.855 m f
27.23 47.925 m 22.816 47.925 19.242 44.347 19.242 39.941 c 19.242 
37.277 l 19.242 32.862 22.816 29.288 27.23 29.288 c 31.648 29.288 
35.219 32.862 35.219 37.277 c 35.219 39.941 l 35.219 44.347 31.645 
47.925 27.23 47.925 c h
27.23 47.925 m f
27.23 77.214 m 22.816 77.214 19.242 73.636 19.242 69.226 c 19.242 
66.566 l 19.242 62.148 22.816 58.573 27.23 58.573 c 31.648 58.573 
35.219 62.148 35.219 66.566 c 35.219 69.226 l 35.219 73.636 31.645 
77.214 27.23 77.214 c h
27.23 77.214 m f
27.23 18.632 m 22.816 18.632 19.242 15.058 19.242 10.652 c 19.242 7.987 
l 19.242 3.573 22.816 -0.001 27.23 -0.001 c 31.648 -0.001 35.219 3.573 
35.219 7.987 c 35.219 10.652 l 35.219 15.058 31.645 18.632 27.23 18.632 
c h
27.23 18.632 m f
60.402 47.925 m 55.992 47.925 52.414 44.347 52.414 39.941 c 52.414 
37.277 l 52.414 32.862 55.992 29.288 60.402 29.288 c 64.816 29.288 
68.395 32.862 68.395 37.277 c 68.395 39.941 l 68.395 44.347 64.816 
47.925 60.402 47.925 c h
60.402 47.925 m f
60.402 18.632 m 55.992 18.632 52.414 15.058 52.414 10.652 c 52.414 
7.987 l 52.414 3.573 55.992 -0.001 60.402 -0.001 c 64.816 -0.001 68.395 
3.573 68.395 7.987 c 68.395 10.652 l 68.395 15.058 64.816 18.632 60.402 
18.632 c h
60.402 18.632 m f
60.402 77.214 m 55.992 77.214 52.414 73.636 52.414 69.226 c 52.414 
66.566 l 52.414 62.148 55.992 58.573 60.402 58.573 c 64.816 58.573 
68.395 62.148 68.395 66.566 c 68.395 69.226 l 68.395 73.636 64.816 
77.214 60.402 77.214 c h
60.402 77.214 m f
93.578 18.632 m 89.168 18.632 85.594 15.058 85.594 10.652 c 85.594 
7.987 l 85.594 3.573 89.168 -0.001 93.578 -0.001 c 97.992 -0.001 
101.566 3.573 101.566 7.987 c 101.566 10.652 l 101.566 15.058 97.992 
18.632 93.578 18.632 c h
93.578 18.632 m f
93.578 47.925 m 89.168 47.925 85.594 44.347 85.594 39.941 c 85.594 
37.277 l 85.594 32.862 89.168 29.288 93.578 29.288 c 97.992 29.288 
101.566 32.862 101.566 37.277 c 101.566 39.941 l 101.566 44.347 97.992 
47.925 93.578 47.925 c h
93.578 47.925 m f
93.578 77.214 m 89.168 77.214 85.594 73.636 85.594 69.226 c 85.594 
66.566 l 85.594 62.148 89.168 58.573 93.578 58.573 c 97.992 58.573 
101.566 62.148 101.566 66.566 c 101.566 69.226 l 101.566 73.636 97.992 
77.214 93.578 77.214 c h
93.578 77.214 m f
126.758 77.214 m 122.344 77.214 118.766 73.636 118.766 69.226 c 118.766 
66.566 l 118.766 62.148 122.344 58.573 126.758 58.573 c 131.168 58.573 
134.746 62.148 134.746 66.566 c 134.746 69.226 l 134.746 73.636 131.168 
77.214 126.758 77.214 c h
126.758 77.214 m f
126.758 18.632 m 122.344 18.632 118.766 15.058 118.766 10.652 c 118.766 
7.987 l 118.766 3.573 122.344 -0.001 126.758 -0.001 c 131.168 -0.001 
134.746 3.573 134.746 7.987 c 134.746 10.652 l 134.746 15.058 131.168 
18.632 126.758 18.632 c h
126.758 18.632 m f
126.758 47.925 m 122.344 47.925 118.766 44.347 118.766 39.941 c 118.766 
37.277 l 118.766 32.862 122.344 29.288 126.758 29.288 c 131.168 29.288 
134.746 32.862 134.746 37.277 c 134.746 39.941 l 134.746 44.347 131.168 
47.925 126.758 47.925 c h
126.758 47.925 m f
159.93 47.925 m 155.512 47.925 151.941 44.347 151.941 39.941 c 151.941 
37.277 l 151.941 32.862 155.512 29.288 159.93 29.288 c 164.344 29.288 
167.918 32.862 167.918 37.277 c 167.918 39.941 l 167.918 44.347 164.344 
47.925 159.93 47.925 c h
159.93 47.925 m f
159.93 18.632 m 155.512 18.632 151.941 15.058 151.941 10.652 c 151.941 
7.987 l 151.941 3.573 155.512 -0.001 159.93 -0.001 c 164.344 -0.001 
167.918 3.573 167.918 7.987 c 167.918 10.652 l 167.918 15.058 164.344 
18.632 159.93 18.632 c h
159.93 18.632 m f
159.93 77.214 m 155.512 77.214 151.941 73.636 151.941 69.226 c 151.941 
66.566 l 151.941 62.148 155.512 58.573 159.93 58.573 c 164.344 58.573 
167.918 62.148 167.918 66.566 c 167.918 69.226 l 167.918 73.636 164.344 
77.214 159.93 77.214 c h
159.93 77.214 m f
27.016 113.855 m 160.145 113.855 l 163.082 113.855 165.473 116.237 
165.473 119.179 c 165.473 155.937 137.715 186.296 102.07 190.519 c 
104.414 202.745 115.164 212.019 128.066 212.019 c 148.328 212.019 l 
152.738 212.019 156.32 215.601 156.32 220.007 c 156.32 224.425 152.738 
227.999 148.328 227.999 c 128.066 227.999 l 106.375 227.999 88.473 
211.655 85.93 190.644 c 49.871 186.812 21.688 156.23 21.688 119.179 c 
21.688 116.237 24.078 113.855 27.016 113.855 c h
27.016 113.855 m f
Q Q
showpage
%%Trailer
count op_count sub {pop} repeat
countdictstack dict_count sub {end} repeat
cairo_eps_state restore
%%EOF
