%!PS-Adobe-3.0 EPSF-3.0
%%Creator: cairo 1.10.2 (http://cairographics.org)
%%CreationDate: Wed Feb 25 11:07:27 2015
%%Pages: 1
%%BoundingBox: 0 0 207 228
%%DocumentData: Clean7Bit
%%LanguageLevel: 2
%%EndComments
%%BeginProlog
/cairo_eps_state save def
/dict_count countdictstack def
/op_count count 1 sub def
userdict begin
/q { gsave } bind def
/Q { grestore } bind def
/cm { 6 array astore concat } bind def
/w { setlinewidth } bind def
/J { setlinecap } bind def
/j { setlinejoin } bind def
/M { setmiterlimit } bind def
/d { setdash } bind def
/m { moveto } bind def
/l { lineto } bind def
/c { curveto } bind def
/h { closepath } bind def
/re { exch dup neg 3 1 roll 5 3 roll moveto 0 rlineto
      0 exch rlineto 0 rlineto closepath } bind def
/S { stroke } bind def
/f { fill } bind def
/f* { eofill } bind def
/n { newpath } bind def
/W { clip } bind def
/W* { eoclip } bind def
/BT { } bind def
/ET { } bind def
/pdfmark where { pop globaldict /?pdfmark /exec load put }
    { globaldict begin /?pdfmark /pop load def /pdfmark
    /cleartomark load def end } ifelse
/BDC { mark 3 1 roll /BDC pdfmark } bind def
/EMC { mark /EMC pdfmark } bind def
/cairo_store_point { /cairo_point_y exch def /cairo_point_x exch def } def
/Tj { show currentpoint cairo_store_point } bind def
/TJ {
  {
    dup
    type /stringtype eq
    { show } { -0.001 mul 0 cairo_font_matrix dtransform rmoveto } ifelse
  } forall
  currentpoint cairo_store_point
} bind def
/cairo_selectfont { cairo_font_matrix aload pop pop pop 0 0 6 array astore
    cairo_font exch selectfont cairo_point_x cairo_point_y moveto } bind def
/Tf { pop /cairo_font exch def /cairo_font_matrix where
      { pop cairo_selectfont } if } bind def
/Td { matrix translate cairo_font_matrix matrix concatmatrix dup
      /cairo_font_matrix exch def dup 4 get exch 5 get cairo_store_point
      /cairo_font where { pop cairo_selectfont } if } bind def
/Tm { 2 copy 8 2 roll 6 array astore /cairo_font_matrix exch def
      cairo_store_point /cairo_font where { pop cairo_selectfont } if } bind def
/g { setgray } bind def
/rg { setrgbcolor } bind def
/d1 { setcachedevice } bind def
%%EndProlog
%%Page: 1 1
%%BeginPageSetup
%%PageBoundingBox: 0 0 207 228
%%EndPageSetup
q 0 0 207 228 rectclip q
0 g
162.859 10.859 m 10.859 10.859 l 10.859 162.859 l 60.23 162.859 l 63.23 
162.859 65.66 165.289 65.66 168.289 c 65.66 217.141 l 162.859 217.141 l 
162.859 193.742 l 163.098 193.773 163.332 193.836 163.578 193.844 c 
164.98 193.898 167.711 193.828 171.348 192.855 c 172.074 192.668 
172.879 192.398 173.719 192.105 c 173.719 222.57 l 173.719 225.566 
171.285 228 168.289 228 c 59.719 228 l 58.277 228 56.895 227.43 55.875 
226.41 c 1.59 172.125 l 0.57 171.105 0 169.73 0 168.289 c 0 5.422 l 0 
2.43 2.434 0 5.43 0 c 168.289 0 l 171.289 0 173.719 2.43 173.719 5.422 
c 173.719 89.594 l 170.773 86.703 166.875 85.117 162.859 84.98 c h
162.859 10.859 m f
203.391 191.07 m 199.945 194.512 197.176 194.5 196.879 194.484 c 
196.465 194.469 196.066 194.297 195.777 194.004 c 183.438 181.668 l 
185.234 180.551 187.203 179.047 189.281 176.969 c 191.367 174.879 
192.871 172.914 193.992 171.121 c 206.316 183.457 l 206.617 183.754 
206.785 184.141 206.805 184.559 c 206.82 184.867 206.828 187.625 
203.391 191.07 c h
203.391 191.07 m f
193.059 139.629 m 187.09 133.66 l 183.113 137.625 l 193.793 148.305 l 
194.711 149.223 195.258 150.465 195.316 151.762 c 195.355 152.727 
195.406 161.434 184.578 172.258 c 173.758 183.09 165.051 183.031 
164.082 183 c 162.777 182.938 161.547 182.391 160.629 181.473 c 68.484 
89.34 l 67.918 88.777 67.48 88.074 67.23 87.301 c 54.332 48.602 l 
53.711 46.734 54.195 44.668 55.598 43.266 c 56.984 41.871 59.055 41.391 
60.922 42.012 c 99.629 54.918 l 100.395 55.176 101.082 55.609 101.656 
56.16 c 179.281 133.789 l 183.246 129.82 l 158.449 105.031 l 156.332 
102.902 156.332 99.473 158.449 97.348 c 159.516 96.281 160.898 95.758 
162.293 95.758 c 163.676 95.758 165.07 96.281 166.125 97.348 c 200.738 
131.957 l 202.859 134.074 202.859 137.508 200.738 139.633 c 198.617 
141.754 195.176 141.754 193.059 139.629 c h
193.059 139.629 m f
Q Q
showpage
%%Trailer
count op_count sub {pop} repeat
countdictstack dict_count sub {end} repeat
cairo_eps_state restore
%%EOF
